systime	value
340992	25.7
340992	25.7
340992	25.7
340992	25.7
340992	27.5
340992	27.4
340992	25.7
340992	25.7
340992	27.2
340992	25.7
349741	27.3
349741	25.7
349741	27.4
349741	25.7
349741	27.7
349741	25.7
349741	25.7
349741	27.8
349741	25.7
349741	27.6
302589440	6.6
302589440	6.9
302589440	6.9
302589440	6.5
302589440	6.4
302589440	6.4
302589440	6.7
302589440	6.5
302589440	6.5
302589440	6.5
302581303	6.5
302581303	6.1
302581303	6.5
302581303	6.9
302581303	6.9
302581303	6.5
302581303	6.7
302581303	0.6
302581303	6.6
302581303	6.6
301989951	0.5
301989951	0.5
301989951	0.5
301989951	0.5
301989951	0.5
301989951	6.2
301989951	0.5
301989951	0.5
301989951	6.2
301989951	6.0
301990656	0.5
301990656	6.1
301990656	0.5
301990656	0.5
301990656	6.0
301990656	0.5
301990656	0.5
301990656	0.5
301990656	0.5
301990656	0.5
301991168	5.3
301991168	5.0
301991168	5.1
301991168	5.5
301991168	5.4
301991168	5.3
301991168	5.3
301991168	5.4
301991168	5.1
301991168	5.2
302013184	5.6
302013184	5.3
302013184	5.3
302013184	5.5
302013184	5.1
302013184	5.7
302013184	5.4
302013184	5.5
302013184	5.0
302013184	0.0
301989904	4.9
301989904	4.7
301989904	0.4
301989904	0.4
301989904	4.8
301989904	0.4
301989904	4.8
301989904	0.4
301989904	4.8
301989904	4.8
301989960	4.6
301989960	4.8
301989960	4.7
301989960	4.6
301989960	4.8
301989960	4.5
301989960	4.7
301989960	4.6
301989960	0.4
301989960	4.7
