systime	value
475657	9.4
475657	9.4
475657	9.3
475657	9.4
475657	9.5
475657	9.4
475657	9.5
475657	9.3
475657	9.3
475657	9.2
530432	9.4
530432	9.5
530432	9.4
530432	9.3
530432	9.5
530432	9.2
530432	9.3
530432	9.5
530432	9.3
530432	9.4
1245185	9.6
1245185	9.3
1245185	9.7
1245185	9.7
1245185	9.7
1245185	9.6
1245185	9.7
1245185	9.6
1245185	9.5
1245185	9.6
82977	9.4
82977	9.6
82977	9.6
82977	0.0
82977	0.0
82977	0.0
82977	0.0
82977	0.0
82977	0.0
82977	0.0
131072	9.8
131072	9.6
131072	9.8
131072	9.4
131072	9.3
131072	9.5
131072	9.6
131072	9.7
131072	9.6
131072	9.6
131072	9.6
131072	9.6
131072	9.2
131072	9.5
131072	9.4
131072	9.5
131072	9.4
131072	9.8
131072	9.5
131072	9.3
204615	9.6
204615	9.5
204615	9.4
204615	9.7
204615	9.6
204615	9.6
204615	9.7
204615	9.6
204615	9.7
204615	9.5
196693	9.4
196693	9.7
196693	9.8
196693	9.5
196693	9.5
196693	9.8
196693	9.6
196693	9.7
196693	9.7
196693	9.7
3295744	9.7
3295744	9.6
3295744	0.0
3295744	0.0
3295744	0.0
3295744	0.0
3295744	0.0
3295744	0.0
3295744	0.0
3295744	0.0
3350528	9.5
3350528	9.2
3350528	9.7
3350528	9.6
3350528	9.6
3350528	9.6
3350528	9.8
3350528	9.7
3350528	9.7
3350528	9.8
4063316	9.8
4063316	9.5
4063316	9.5
4063316	9.6
4063316	9.6
4063316	9.7
4063316	9.8
4063316	9.7
4063316	9.7
4063316	9.8
4148321	9.7
4148321	9.5
4148321	9.7
4148321	9.8
4148321	9.7
4148321	9.8
4148321	9.4
4148321	9.9
4148321	9.5
4148321	9.5
4849695	9.6
4849695	9.8
4849695	9.6
4849695	9.7
4849695	9.8
4849695	9.8
4849695	9.8
4849695	9.9
4849695	9.6
4849695	9.8
4915204	9.7
4915204	9.7
4915204	9.4
4915204	9.5
4915204	9.6
4915204	9.7
4915204	9.5
4915204	9.7
4915204	9.7
4915204	9.7
5702400	9.5
5702400	9.5
5702400	9.6
5702400	9.5
5702400	9.6
5702400	9.9
5702400	9.4
5702400	9.8
5702400	9.6
5702400	9.6
5701632	9.6
5701632	9.7
5701632	9.7
5701632	9.8
5701632	9.7
5701632	9.4
5701632	9.6
5701632	9.7
5701632	9.6
5701632	9.6
6509314	9.6
6509314	9.5
6509314	9.7
6509314	9.9
6509314	9.7
6509314	9.6
6509314	9.6
6509314	9.8
6509314	9.5
6509314	9.4
600323	9.7
600323	9.7
600323	9.6
600323	9.5
600323	9.8
600323	9.5
600323	9.8
600323	9.7
600323	9.6
600323	9.6
82	9.9
82	9.7
82	9.7
82	9.6
82	9.6
82	9.6
82	9.5
82	9.7
82	9.7
82	9.7
21513	9.8
21513	9.6
21513	9.7
21513	9.8
21513	9.9
21513	9.7
21513	9.4
21513	9.7
21513	9.9
21513	9.6
31	9.7
31	9.6
31	9.7
31	9.8
31	9.8
31	9.9
31	9.9
31	9.5
31	9.8
31	9.6
3	0.9
3	9.6
3	9.8
3	9.7
3	9.8
3	9.8
3	9.8
3	9.9
3	9.5
3	9.8
1024	9.7
1024	9.8
1024	9.7
1024	9.8
1024	9.5
1024	9.5
1024	9.7
1024	9.8
1024	9.8
1024	9.7
0	9.7
0	9.6
0	9.8
0	9.8
0	9.8
0	9.9
0	9.9
0	9.6
0	9.5
0	9.8
23304	9.7
23304	9.4
23304	9.7
23304	9.6
23304	9.7
23304	9.7
23304	9.8
23304	9.7
23304	9.4
23304	9.7
1024	9.7
1024	9.7
1024	9.8
1024	9.7
1024	9.7
1024	9.5
1024	0.9
1024	9.8
1024	9.6
1024	9.6
0	9.8
0	9.7
0	9.9
0	9.6
0	9.7
0	9.5
0	9.8
0	9.7
0	9.7
0	9.8
23552	9.6
23552	9.6
23552	9.8
23552	9.7
23552	9.7
23552	0.0
23552	0.0
23552	0.0
23552	0.0
23552	0.0
17240320	9.6
17240320	9.7
17240320	9.6
17240320	9.7
17240320	9.6
17240320	9.7
17240320	9.8
17240320	9.4
17240320	9.8
17240320	9.6
17235968	0.9
17235968	9.7
17235968	9.8
17235968	9.7
17235968	9.7
17235968	9.6
17235968	9.7
17235968	9.9
17235968	9.6
17235968	9.6
