systime	value
340992	27.9
340992	27.9
340992	28.0
340992	28.0
340992	28.0
340992	28.0
340992	28.0
340992	28.0
340992	28.0
340992	28.0
349741	28.1
349741	28.1
349741	28.1
349741	28.1
349741	28.1
349741	28.1
349741	28.1
349741	28.1
349741	28.1
349741	28.1
302589440	25.8
302589440	25.8
302589440	25.8
302589440	25.8
302589440	25.8
302589440	25.8
302589440	25.8
302589440	25.8
302589440	25.8
302589440	25.8
302581303	25.8
302581303	25.8
302581303	25.8
302581303	25.8
302581303	25.8
302581303	25.8
302581303	25.8
302581303	25.8
302581303	25.8
302581303	25.8
301989951	25.9
301989951	25.9
301989951	25.9
301989951	25.9
301989951	25.9
301989951	25.9
301989951	25.9
301989951	25.9
301989951	25.9
301989951	0.0
301990656	25.9
301990656	25.9
301990656	25.9
301990656	25.9
301990656	29.6
301990656	29.6
301990656	29.6
301990656	29.6
301990656	29.6
301990656	29.6
301991168	30.7
301991168	30.8
301991168	30.8
301991168	30.8
301991168	30.8
301991168	30.8
301991168	30.8
301991168	30.8
301991168	30.8
301991168	30.8
302013184	30.8
302013184	30.8
302013184	30.8
302013184	30.8
302013184	30.8
302013184	30.8
302013184	30.8
302013184	30.8
302013184	30.9
302013184	30.8
301989904	31.6
301989904	31.6
301989904	31.6
301989904	31.6
301989904	31.6
301989904	31.6
301989904	31.6
301989904	31.6
301989904	31.6
301989904	31.6
301989960	31.6
301989960	31.6
301989960	31.6
301989960	31.6
301989960	31.6
301989960	31.6
301989960	31.6
301989960	31.6
301989960	31.6
301989960	31.6
