systime	value
475657	0.0
475657	0.0
475657	0.0
475657	0.0
475657	0.0
475657	0.0
475657	0.0
475657	0.0
475657	0.0
475657	0.0
530432	0.0
530432	0.0
530432	0.0
530432	0.0
530432	0.0
530432	0.0
530432	0.0
530432	0.0
530432	0.0
530432	0.0
1245185	0.0
1245185	0.0
1245185	0.0
1245185	0.0
1245185	0.0
1245185	0.0
1245185	0.0
1245185	0.0
1245185	0.0
1245185	0.0
82977	0.0
82977	0.0
82977	0.0
82977	0.0
82977	0.0
82977	0.0
82977	0.0
82977	0.0
82977	0.0
82977	0.0
131072	0.0
131072	0.0
131072	0.0
131072	0.0
131072	0.0
131072	0.0
131072	0.0
131072	0.0
131072	0.0
131072	0.0
131072	0.0
131072	0.0
131072	0.0
131072	0.0
131072	0.0
131072	0.0
131072	0.0
131072	0.0
131072	0.0
131072	0.0
204615	0.0
204615	0.0
204615	0.0
204615	0.0
204615	0.0
204615	0.0
204615	0.0
204615	0.0
204615	0.0
204615	0.0
196693	0.0
196693	0.0
196693	0.0
196693	0.0
196693	0.0
196693	0.0
196693	0.0
196693	0.0
196693	0.0
196693	0.0
3295744	0.0
3295744	0.0
3295744	0.0
3295744	0.0
3295744	0.0
3295744	0.0
3295744	0.0
3295744	0.0
3295744	0.0
3295744	0.0
3350528	0.0
3350528	0.0
3350528	0.0
3350528	0.0
3350528	0.0
3350528	0.0
3350528	0.0
3350528	0.0
3350528	0.0
3350528	0.0
4063316	0.0
4063316	0.0
4063316	0.0
4063316	0.0
4063316	0.0
4063316	0.0
4063316	0.0
4063316	0.0
4063316	0.0
4063316	0.0
4148321	0.0
4148321	0.0
4148321	0.0
4148321	0.0
4148321	0.0
4148321	0.0
4148321	0.0
4148321	0.0
4148321	0.0
4148321	0.0
4849695	0.0
4849695	0.0
4849695	0.0
4849695	0.0
4849695	0.0
4849695	0.0
4849695	0.0
4849695	0.0
4849695	0.0
4849695	0.0
4915204	0.0
4915204	0.0
4915204	0.0
4915204	0.0
4915204	0.0
4915204	0.0
4915204	0.0
4915204	0.0
4915204	0.0
4915204	0.0
5702400	0.0
5702400	0.0
5702400	0.0
5702400	0.0
5702400	0.0
5702400	0.0
5702400	0.0
5702400	0.0
5702400	0.0
5702400	0.0
5701632	0.0
5701632	0.0
5701632	0.0
5701632	0.0
5701632	0.0
5701632	0.0
5701632	0.0
5701632	0.0
5701632	0.0
5701632	0.0
6509314	0.0
6509314	0.0
6509314	0.0
6509314	0.0
6509314	0.0
6509314	0.0
6509314	0.0
6509314	0.0
6509314	0.0
6509314	0.0
600323	0.0
600323	0.0
600323	0.0
600323	0.0
600323	0.0
600323	0.0
600323	0.0
600323	0.0
600323	0.0
600323	0.0
82	0.0
82	0.0
82	0.0
82	0.0
82	0.0
82	0.0
82	0.0
82	0.0
82	0.0
82	0.0
21513	0.0
21513	0.0
21513	0.0
21513	0.0
21513	0.0
21513	0.0
21513	0.0
21513	0.0
21513	0.0
21513	0.0
31	0.0
31	0.0
31	0.0
31	0.0
31	0.0
31	0.0
31	0.0
31	0.0
31	0.0
31	0.0
3	0.0
3	0.0
3	0.0
3	0.0
3	0.0
3	0.0
3	0.0
3	0.0
3	0.0
3	0.0
1024	0.0
1024	0.0
1024	0.0
1024	0.0
1024	0.0
1024	0.0
1024	0.0
1024	0.0
1024	0.0
1024	0.0
0	0.0
0	0.0
0	0.0
0	0.0
0	0.0
0	0.0
0	0.0
0	0.0
0	0.0
0	0.0
23304	0.0
23304	0.0
23304	0.0
23304	0.0
23304	0.0
23304	0.0
23304	0.0
23304	0.0
23304	0.0
23304	0.0
1024	0.0
1024	0.0
1024	0.0
1024	0.0
1024	0.0
1024	0.0
1024	0.0
1024	0.0
1024	0.0
1024	0.0
0	0.0
0	0.0
0	0.0
0	0.0
0	0.0
0	0.0
0	0.0
0	0.0
0	0.0
0	0.0
23552	0.0
23552	0.0
23552	0.0
23552	0.0
23552	0.0
23552	0.0
23552	0.0
23552	0.0
23552	0.0
23552	0.0
17240320	0.0
17240320	0.0
17240320	0.0
17240320	0.0
17240320	0.0
17240320	0.0
17240320	0.0
17240320	0.0
17240320	0.0
17240320	0.0
17235968	0.0
17235968	0.0
17235968	0.0
17235968	0.0
17235968	0.0
17235968	0.0
17235968	0.0
17235968	0.0
17235968	0.0
17235968	0.0
