systime	value
475657	4.029
475657	4.029
475657	4.029
475657	4.029
475657	4.029
475657	4.029
475657	4.029
530432	4.042
530432	4.042
530432	4.042
530432	4.042
530432	4.042
530432	4.042
530432	4.042
1116160	4.017
1245185	4.017
1245185	4.017
1245185	4.017
1245185	4.017
1245185	4.017
1245185	4.017
1245185	4.017
82977	4.017
82977	4.017
82977	4.017
82977	4.017
82977	4.017
82977	4.017
82977	4.017
140544	3.979
131072	3.992
131072	3.992
131072	3.992
131072	3.992
131072	3.992
131072	3.992
131072	3.992
131072	3.992
131072	3.992
131072	3.992
131072	3.992
131072	3.992
131072	3.992
131072	3.992
198498	3.943
204615	3.943
204615	3.943
204615	3.943
204615	3.943
204615	3.943
204615	3.943
204615	3.943
196693	3.943
196693	3.943
196693	3.943
196693	3.943
196693	3.943
196693	3.943
196693	3.943
262147	4.582
3295744	4.582
3295744	4.582
3295744	4.582
3295744	4.582
3295744	4.582
3295744	4.582
3295744	4.582
3350528	4.582
3350528	4.582
3350528	4.582
3350528	4.582
3350528	4.582
3350528	4.582
3350528	4.582
4063744	4.582
4063316	4.582
4063316	4.582
4063316	4.582
4063316	4.582
4063316	4.582
4063316	4.582
4063316	4.582
4148321	4.582
4148321	4.582
4148321	4.582
4148321	4.582
4148321	4.582
4148321	4.582
4148321	4.582
4861495	4.582
4849695	4.582
4849695	4.582
4849695	4.582
4849695	4.582
4849695	4.582
4849695	4.582
4849695	4.582
4915204	4.582
4915204	4.582
4915204	4.582
4915204	4.582
4915204	4.582
4915204	4.582
4915204	4.582
5638144	3.931
5702400	3.931
5702400	3.931
5702400	3.931
5702400	3.931
5702400	3.931
5702400	3.931
5702400	3.931
5701632	3.931
5701632	3.931
5701632	3.931
5701632	3.931
5701632	3.931
5701632	3.931
5701632	3.931
6293248	3.919
6509314	3.919
6509314	3.919
6509314	3.919
6509314	3.919
6509314	3.919
6509314	3.919
6509314	3.919
600323	3.931
600323	3.931
600323	3.931
600323	3.931
600323	3.931
600323	3.931
600323	3.931
60	3.895
82	3.919
82	3.919
82	3.919
82	3.919
82	3.919
82	3.919
82	3.919
21513	3.919
21513	3.919
21513	3.919
21513	3.919
21513	3.919
21513	3.919
21513	3.919
13880	3.883
31	3.895
31	3.895
31	3.895
31	3.895
31	3.895
31	3.895
31	3.895
3	3.895
3	3.895
3	3.895
3	3.895
3	3.895
3	3.895
3	3.895
24832	3.871
1024	3.883
1024	3.883
1024	3.883
1024	3.883
1024	3.883
1024	3.883
1024	3.883
0	3.883
0	3.883
0	3.883
0	3.883
0	3.883
0	3.883
0	3.883
0	3.86
23304	3.871
23304	3.871
23304	3.871
23304	3.871
23304	3.871
23304	3.871
23304	3.871
1024	3.871
1024	3.871
1024	3.871
1024	3.871
1024	3.871
1024	3.871
1024	3.871
94	3.848
0	3.871
0	3.871
0	3.871
0	3.871
0	3.871
0	3.871
0	3.871
23552	3.86
23552	3.86
23552	3.86
23552	3.86
23552	3.86
23552	3.86
23552	3.86
16920064	3.837
17240320	3.848
17240320	3.848
17240320	3.848
17240320	3.848
17240320	3.848
17240320	3.848
17240320	3.848
0	20.011
17235968	3.848
17235968	3.848
17235968	3.848
17235968	3.848
17235968	3.848
17235968	3.848
