systime	value
117770051	179.4
117770051	181.8
117770051	179.6
117770051	179.5
117770051	183.2
117770051	183.5
117770051	183.8
117770051	187.8
117770051	180.1
117770051	179.2
134809681	213.4
134809681	205.2
134809681	205.0
134809681	209.6
134809681	208.5
134809681	205.3
134809681	205.1
134809681	204.9
134809681	211.4
134809681	210.9
33554944	51.2
33554944	51.2
33554944	51.2
33554944	51.2
33554944	51.2
33554944	51.2
33554944	51.2
33554944	51.2
33554944	51.2
33554944	51.2
33554944	51.2
33554944	51.2
33554944	51.2
33554944	51.2
33554944	51.2
33554944	51.2
33554944	51.2
33554944	51.2
33554944	51.2
33554944	51.2
33554944	51.2
33554944	51.2
33554944	51.2
33554944	51.2
33554944	51.2
33554944	51.2
33554944	51.2
33554944	51.2
33554944	51.2
33554944	51.2
33554944	51.2
33554944	51.2
33554944	51.2
33554944	51.2
33554944	51.2
33554944	51.2
33554944	51.2
33554944	51.2
33554944	51.2
33554944	51.2
33554944	51.2
33554944	51.2
33554944	51.2
33554944	51.2
33554944	51.2
33554944	51.2
33554944	51.2
33554944	51.2
33554944	51.2
33554944	51.2
33554944	51.2
33554944	51.2
33554944	51.2
33554944	51.2
33554944	51.2
33554944	51.2
33554944	51.2
33554944	51.2
33554944	51.2
33554944	51.2
33554944	51.2
33554944	51.2
33554944	51.2
33554944	51.2
33554944	51.2
33554944	51.2
33554944	51.2
33554944	51.2
33554944	51.2
33554944	51.2
33554944	51.2
33554944	51.2
33554944	51.2
33554944	51.2
33554944	51.2
33554944	51.2
33554944	51.2
33554944	51.2
33554944	51.2
33554944	51.2
33554944	51.2
33554944	51.2
33554944	51.2
33554944	51.2
33554944	51.2
33554944	51.2
33554944	51.2
33554944	51.2
33554944	51.2
33554944	51.2
33554944	51.2
33554944	51.2
33554944	51.2
33554944	51.2
33554944	51.2
33554944	51.2
33554944	51.2
33554944	51.2
33554944	51.2
33554944	51.2
67437572	76.8
67437572	76.8
67437572	76.8
67437572	76.8
67437572	76.8
67437572	102.7
67437572	102.8
67437572	76.8
67437572	76.8
67437572	76.8
50332673	76.8
50332673	76.8
50332673	76.8
50332673	102.9
50332673	102.6
50332673	76.8
50332673	76.8
50332673	76.8
50332673	76.8
50332673	76.8
50332676	102.9
50332676	76.8
50332676	76.8
50332676	76.8
50332676	76.8
50332676	102.4
50332676	76.8
50332676	76.8
50332676	102.7
50332676	76.8
67240962	76.8
67240962	102.5
67240962	102.7
67240962	102.7
67240962	103.3
67240962	76.8
67240962	76.8
67240962	76.8
67240962	76.8
67240962	76.8
50332679	102.4
50332679	102.5
50332679	76.8
50332679	76.8
50332679	76.8
50332679	76.8
50332679	76.8
50332679	76.8
50332679	76.8
50332679	102.8
67109894	76.8
67109894	102.4
67109894	102.7
67109894	76.8
67109894	102.4
67109894	76.8
67109894	103.2
67109894	104.0
67109894	102.4
67109894	76.8
67109888	103.0
67109888	76.8
67109888	103.2
67109888	102.5
67109888	102.6
67109888	102.4
67109888	103.0
67109888	103.2
67109888	103.0
67109888	102.4
50332674	102.9
50332674	102.4
50332674	102.7
50332674	102.7
50332674	102.4
50332674	103.3
50332674	102.9
50332674	102.8
50332674	103.2
50332674	102.6
50332672	76.8
50332672	76.8
50332672	102.4
50332672	76.8
50332672	103.0
50332672	103.1
50332672	76.8
50332672	102.8
50332672	76.8
50332672	102.7
67633920	76.8
67633920	102.6
67633920	102.4
67633920	102.4
67633920	102.5
67633920	102.4
67633920	103.3
67633920	76.8
67633920	102.8
67633920	76.8
50332673	76.8
50332673	76.8
50332673	102.4
50332673	102.8
50332673	102.5
50332673	76.8
50332673	102.4
50332673	76.8
50332673	102.7
50332673	76.8
67568384	76.8
67568384	76.8
67568384	103.2
67568384	76.8
67568384	76.8
67568384	76.8
67568384	103.1
67568384	102.5
67568384	76.8
67568384	102.7
67240965	102.4
67240965	102.4
67240965	76.8
67240965	102.4
67240965	102.9
67240965	102.9
67240965	76.8
67240965	103.0
67240965	102.4
67240965	76.8
67503104	76.8
67503104	102.6
67503104	102.8
67503104	102.6
67503104	76.8
67503104	102.4
67503104	102.4
67503104	102.7
67503104	102.7
67503104	103.3
67437312	102.6
67437312	76.8
67437312	76.8
67437312	102.6
67437312	102.8
67437312	102.8
67437312	102.7
67437312	102.6
67437312	103.3
67437312	102.8
67240704	102.8
67240704	102.5
67240704	76.8
67240704	76.8
67240704	102.5
67240704	76.8
67240704	76.8
67240704	102.7
67240704	76.8
67240704	76.8
67372035	76.8
67372035	103.0
67372035	76.8
67372035	102.7
67372035	102.4
67372035	102.4
67372035	102.4
67372035	76.8
67372035	76.8
67372035	76.8
67568384	76.8
67568384	103.0
67568384	76.8
67568384	76.8
67568384	76.8
67568384	76.8
67568384	102.6
67568384	76.8
67568384	76.8
67568384	102.4
50332416	76.8
50332416	76.8
50332416	102.5
50332416	76.8
50332416	102.6
50332416	102.4
50332416	76.8
50332416	102.4
50332416	76.8
50332416	76.8
67699456	76.8
67699456	102.7
67699456	76.8
67699456	102.7
67699456	102.7
67699456	76.8
67699456	76.8
67699456	103.1
67699456	76.8
67699456	102.4
67175428	102.8
67175428	76.8
67175428	76.8
67175428	76.8
67175428	76.8
67175428	76.8
67175428	102.6
67175428	76.8
67175428	76.8
67175428	76.8
50332416	76.8
50332416	102.9
50332416	76.8
50332416	76.8
50332416	102.6
50332416	76.8
50332416	76.8
50332416	76.8
50332416	102.4
50332416	102.4
768	0.0
768	0.0
768	0.0
768	0.0
768	0.0
768	0.0
768	0.0
768	0.0
768	0.0
768	0.0
50332416	102.4
50332416	102.4
50332416	76.8
50332416	76.8
50332416	102.4
50332416	76.8
50332416	0.0
50332416	0.0
50332416	0.0
50332416	0.0
67109632	76.8
67109632	102.5
67109632	102.5
67109632	76.8
67109632	76.8
67109632	102.8
67109632	102.5
67109632	102.7
67109632	76.8
67109632	76.8
67175429	102.7
67175429	102.9
67175429	103.3
67175429	102.6
67175429	102.7
67175429	102.7
67175429	102.7
67175429	76.8
67175429	76.8
67175429	102.9
50332676	76.8
50332676	102.4
50332676	102.4
50332676	76.8
50332676	102.5
50332676	76.8
50332676	76.8
50332676	76.8
50332676	102.7
50332676	76.8
50332416	102.8
50332416	102.6
50332416	102.9
50332416	76.8
50332416	103.3
50332416	102.6
50332416	103.0
50332416	102.4
50332416	76.8
50332416	76.8
67634182	76.8
67634182	102.7
67634182	76.8
67634182	76.8
67634182	76.8
67634182	76.8
67634182	102.8
67634182	102.6
67634182	102.7
67634182	102.8
67109891	76.8
67109891	76.8
67109891	76.8
67109891	76.8
67109891	76.8
67109891	102.5
67109891	76.8
67109891	76.8
67109891	76.8
67109891	76.8
67568640	76.8
67568640	76.8
67568640	102.7
67568640	102.4
67568640	76.8
67568640	76.8
67568640	76.8
67568640	76.8
67568640	102.6
67568640	102.8
67240704	102.7
67240704	102.9
67240704	76.8
67240704	102.5
67240704	103.0
67240704	102.5
67240704	103.6
67240704	76.8
67240704	76.8
67240704	102.7
67371776	76.8
67371776	102.5
67371776	103.1
67371776	76.8
67371776	76.8
67371776	76.8
67371776	76.8
67371776	76.8
67371776	102.9
67371776	102.5
50332677	76.8
50332677	102.7
50332677	76.8
50332677	76.8
50332677	103.3
50332677	76.8
50332677	76.8
50332677	76.8
50332677	76.8
50332677	76.8
50332678	76.8
50332678	76.8
50332678	76.8
50332678	102.4
50332678	76.8
50332678	76.8
50332678	76.8
50332678	76.8
50332678	102.4
50332678	102.4
67437312	76.8
67437312	102.6
67437312	102.9
67437312	76.8
67437312	76.8
67437312	76.8
67437312	102.6
67437312	76.8
67437312	76.8
67437312	102.9
50332416	76.8
50332416	76.8
50332416	76.8
50332416	102.4
50332416	102.7
50332416	76.8
50332416	76.8
50332416	76.8
50332416	76.8
50332416	76.8
50332416	102.5
50332416	76.8
50332416	76.8
50332416	102.9
50332416	102.5
50332416	102.8
50332416	76.8
50332416	76.8
50332416	76.8
50332416	76.8
67568641	102.5
67568641	76.8
67568641	76.8
67568641	76.8
67568641	76.8
67568641	76.8
67568641	76.8
67568641	76.8
67568641	76.8
67568641	76.8
50332416	102.5
50332416	76.8
50332416	76.8
50332416	76.8
50332416	76.8
50332416	76.8
50332416	76.8
50332416	102.4
50332416	103.2
50332416	76.8
50332677	76.8
50332677	76.8
50332677	103.3
50332677	76.8
50332677	76.8
50332677	76.8
50332677	76.8
50332677	76.8
50332677	76.8
50332677	76.8
50332416	76.8
50332416	76.8
50332416	76.8
50332416	102.5
50332416	76.8
50332416	76.8
50332416	103.1
50332416	76.8
50332416	76.8
50332416	76.8
67175427	76.8
67175427	76.8
67175427	76.8
67175427	102.7
67175427	76.8
67175427	76.8
67175427	102.5
67175427	76.8
67175427	76.8
67175427	102.6
50332416	103.2
50332416	76.8
50332416	102.5
50332416	76.8
50332416	102.5
50332416	102.6
50332416	76.8
50332416	76.8
50332416	102.5
50332416	76.8
50332416	76.8
50332416	76.8
50332416	76.8
50332416	76.8
50332416	76.8
50332416	76.8
50332416	76.8
50332416	76.8
50332416	76.8
50332416	76.8
50332416	76.8
50332416	76.8
50332416	76.8
50332416	76.8
50332416	76.8
50332416	76.8
50332416	76.8
50332416	76.8
50332416	76.8
50332416	76.8
67437312	0.0
67437312	0.0
67437312	0.0
67437312	0.0
67437312	0.0
67437312	0.0
67437312	0.0
67437312	0.0
67437312	0.0
67437312	0.0
50332416	102.5
50332416	76.8
50332416	76.8
50332416	76.8
50332416	76.8
50332416	76.8
50332416	76.8
50332416	0.0
50332416	0.0
50332416	0.0
50332416	76.8
50332416	76.8
50332416	76.8
50332416	102.9
50332416	76.8
50332416	102.4
50332416	102.6
50332416	76.8
50332416	76.8
50332416	76.8
50332416	76.8
50332416	76.8
50332416	76.8
50332416	76.8
50332416	76.8
50332416	76.8
50332416	102.4
50332416	76.8
50332416	76.8
50332416	102.7
50332416	76.8
50332416	76.8
50332416	76.8
50332416	102.4
50332416	76.8
50332416	102.6
50332416	76.8
50332416	76.8
50332416	76.8
50332416	102.8
67240704	76.8
67240704	76.8
67240704	102.9
67240704	103.0
67240704	76.8
67240704	76.8
67240704	76.8
67240704	102.4
67240704	103.2
67240704	76.8
67175424	102.7
67175424	102.5
67175424	102.4
67175424	102.6
67175424	76.8
67175424	76.8
67175424	76.8
67175424	76.8
67175424	102.4
67175424	102.9
50332416	76.8
50332416	76.8
50332416	76.8
50332416	76.8
50332416	76.8
50332416	76.8
50332416	102.4
50332416	76.8
50332416	76.8
50332416	76.8
50332416	102.4
50332416	76.8
50332416	76.8
50332416	102.4
50332416	76.8
50332416	102.7
50332416	76.8
50332416	76.8
50332416	76.8
50332416	103.1
50332676	76.8
50332676	76.8
50332676	76.8
50332676	76.8
50332676	76.8
50332676	76.8
50332676	102.5
50332676	76.8
50332676	76.8
50332676	102.7
50332675	76.8
50332675	76.8
50332675	76.8
50332675	76.8
50332675	76.8
50332675	102.8
50332675	76.8
50332675	76.8
50332675	102.7
50332675	102.9
50332416	102.4
50332416	76.8
50332416	76.8
50332416	76.8
50332416	76.8
50332416	76.8
50332416	76.8
50332416	102.4
50332416	102.4
50332416	76.8
50332416	76.8
50332416	76.8
50332416	76.8
50332416	76.8
50332416	76.8
50332416	76.8
50332416	76.8
50332416	76.8
50332416	102.7
50332416	76.8
67175168	102.8
67175168	102.9
67175168	76.8
67175168	76.8
67175168	76.8
67175168	76.8
67175168	76.8
67175168	76.8
67175168	76.8
67175168	76.8
50332416	76.8
50332416	76.8
50332416	76.8
50332416	102.7
50332416	76.8
50332416	76.8
50332416	76.8
50332416	76.8
50332416	76.8
50332416	76.8
50332416	102.9
50332416	76.8
50332416	76.8
50332416	76.8
50332416	76.8
50332416	76.8
50332416	76.8
50332416	102.8
50332416	76.8
50332416	76.8
50332416	76.8
50332416	76.8
50332416	76.8
50332416	76.8
50332416	76.8
50332416	76.8
50332416	76.8
50332416	102.4
50332416	76.8
50332416	76.8
50332416	76.8
50332416	76.8
50332416	76.8
50332416	102.5
50332416	76.8
50332416	76.8
50332416	102.8
50332416	102.5
50332416	76.8
50332416	76.8
50332416	76.8
50332416	76.8
50332416	76.8
50332416	76.8
50332416	102.5
50332416	76.8
50332416	102.8
50332416	76.8
50332416	102.6
50332416	76.8
50332416	102.7
50332416	76.8
50332416	102.7
50332416	102.4
50332416	76.8
50332416	76.8
50332416	102.9
50332416	76.8
50332416	76.8
50332416	76.8
67371776	102.6
67371776	76.8
67371776	76.8
67371776	76.8
67371776	102.6
67371776	76.8
67371776	76.8
67371776	76.8
67371776	102.5
67371776	76.8
50332416	76.8
50332416	76.8
50332416	76.8
50332416	76.8
50332416	76.8
50332416	76.8
50332416	76.8
50332416	76.8
50332416	76.8
50332416	76.8
50332416	76.8
50332416	103.3
50332416	0.0
50332416	0.0
50332416	0.0
50332416	0.0
50332416	0.0
50332416	0.0
50332416	0.0
50332416	0.0
50332416	76.8
50332416	102.4
50332416	76.8
50332416	76.8
50332416	76.8
50332416	76.8
50332416	76.8
50332416	76.8
50332416	0.0
50332416	0.0
50332416	76.8
50332416	0.0
50332416	0.0
50332416	0.0
50332416	0.0
50332416	0.0
50332416	0.0
50332416	0.0
50332416	0.0
50332416	0.0
50332416	76.8
50332416	76.8
50332416	76.8
50332416	76.8
50332416	76.8
50332416	76.8
50332416	76.8
50332416	76.8
50332416	0.0
50332416	0.0
50332416	76.8
50332416	76.8
50332416	102.4
50332416	76.8
50332416	76.8
50332416	76.8
50332416	102.8
50332416	76.8
50332416	76.8
50332416	76.8
50332416	76.8
50332416	76.8
50332416	76.8
50332416	76.8
50332416	76.8
50332416	76.8
50332416	76.8
50332416	76.8
50332416	102.4
50332416	76.8
50332416	76.8
50332416	76.8
50332416	102.9
50332416	76.8
50332416	76.8
50332416	76.8
50332416	76.8
50332416	102.8
50332416	76.8
50332416	76.8
50332416	102.9
50332416	76.8
50332416	76.8
50332416	76.8
50332416	76.8
50332416	76.8
50332416	76.8
50332416	102.8
50332416	76.8
50332416	102.8
50332416	76.8
50332416	76.8
50332416	76.8
50332416	76.8
50332416	76.8
50332416	76.8
50332416	76.8
50332416	76.8
50332416	76.8
50332416	76.8
67371776	76.8
67371776	76.8
67371776	76.8
67371776	76.8
67371776	76.8
67371776	76.8
67371776	76.8
67371776	76.8
67371776	76.8
67371776	102.8
50332416	76.8
50332416	76.8
50332416	76.8
50332416	76.8
50332416	76.8
50332416	102.9
50332416	76.8
50332416	76.8
50332416	76.8
50332416	76.8
50332416	76.8
50332416	102.4
50332416	76.8
50332416	76.8
50332416	76.8
50332416	76.8
50332416	76.8
50332416	76.8
50332416	76.8
50332416	76.8
50332416	76.8
50332416	76.8
50332416	76.8
50332416	76.8
50332416	76.8
50332416	76.8
50332416	76.8
50332416	76.8
50332416	76.8
50332416	76.8
50332416	76.8
50332416	76.8
50332416	76.8
50332416	76.8
50332416	76.8
50332416	76.8
50332416	76.8
50332416	76.8
50332416	76.8
50332416	102.7
67371776	76.8
67371776	76.8
67371776	76.8
67371776	76.8
67371776	76.8
67371776	102.6
67371776	76.8
67371776	76.8
67371776	76.8
67371776	76.8
50332416	102.4
50332416	76.8
50332416	76.8
50332416	76.8
50332416	76.8
50332416	76.8
50332416	76.8
50332416	76.8
50332416	76.8
50332416	76.8
67109890	76.8
67109890	76.8
67109890	76.8
67109890	76.8
67109890	76.8
67109890	76.8
67109890	76.8
67109890	76.8
67109890	76.8
67109890	76.8
50332416	76.8
50332416	102.8
50332416	76.8
50332416	76.8
50332416	76.8
50332416	76.8
50332416	76.8
50332416	76.8
50332416	76.8
50332416	76.8
50332676	76.8
50332676	76.8
50332676	76.8
50332676	76.8
50332676	76.8
50332676	76.8
50332676	76.8
50332676	76.8
50332676	76.8
50332676	102.8
67371776	76.8
67371776	76.8
67371776	76.8
67371776	76.8
67371776	76.8
67371776	76.8
67371776	76.8
67371776	76.8
67371776	76.8
67371776	76.8
67175168	76.8
67175168	103.1
67175168	76.8
67175168	76.8
67175168	76.8
67175168	76.8
67175168	76.8
67175168	76.8
67175168	76.8
67175168	76.8
67306498	76.8
67306498	76.8
67306498	76.8
67306498	76.8
67306498	76.8
67306498	76.8
67306498	76.8
67306498	76.8
67306498	76.8
67306498	76.8
50332416	76.8
50332416	76.8
50332416	76.8
50332416	76.8
50332416	102.6
50332416	76.8
50332416	76.8
50332416	76.8
50332416	76.8
50332416	76.8
50332416	76.8
50332416	76.8
50332416	76.8
50332416	76.8
50332416	76.8
50332416	102.9
50332416	76.8
50332416	76.8
50332416	76.8
50332416	76.8
50332416	76.8
50332416	76.8
50332416	76.8
50332416	76.8
50332416	76.8
50332416	76.8
50332416	76.8
50332416	76.8
50332416	76.8
50332416	76.8
50332416	76.8
50332416	76.8
50332416	76.8
50332416	102.9
50332416	76.8
50332416	76.8
50332416	76.8
50332416	76.8
50332416	102.5
50332416	0.0
50332416	76.8
50332416	102.7
50332416	76.8
50332416	76.8
50332416	76.8
50332416	76.8
50332416	76.8
50332416	76.8
50332416	76.8
50332416	76.8
50332416	76.8
50332416	76.8
50332416	102.4
50332416	102.4
50332416	76.8
50332416	76.8
50332416	76.8
50332416	76.8
50332416	76.8
50332416	76.8
50332416	76.8
50332416	76.8
50332416	76.8
50332416	76.8
50332416	76.8
50332416	102.4
50332416	76.8
50332416	76.8
50332416	76.8
50332416	76.8
50332675	102.8
50332675	76.8
50332675	76.8
50332675	76.8
50332675	76.8
50332675	76.8
50332675	76.8
50332675	76.8
50332675	76.8
50332675	76.8
50332416	102.4
50332416	76.8
50332416	76.8
50332416	76.8
50332416	76.8
50332416	76.8
50332416	76.8
50332416	76.8
50332416	76.8
50332416	76.8
50332416	76.8
50332416	76.8
50332416	76.8
50332416	76.8
50332416	76.8
50332416	76.8
50332416	76.8
50332416	76.8
50332416	76.8
50332416	76.8
50332416	76.8
50332416	76.8
50332416	76.8
50332416	76.8
50332416	76.8
50332416	76.8
50332416	76.8
50332416	76.8
50332416	76.8
50332416	76.8
50332416	76.8
50332416	76.8
50332416	76.8
50332416	76.8
50332416	76.8
50332416	76.8
50332416	76.8
50332416	76.8
50332416	76.8
50332416	76.8
50332673	102.4
50332673	103.0
50332673	102.7
50332673	76.8
50332673	102.5
50332673	102.7
50332673	76.8
50332673	76.8
50332673	103.0
50332673	103.2
67109894	76.8
67109894	102.7
67109894	102.8
67109894	103.0
67109894	102.4
67109894	103.1
67109894	102.4
67109894	102.9
67109894	102.4
67109894	76.8
67568647	103.0
67568647	103.1
67568647	102.4
67568647	102.4
67568647	76.8
67568647	102.8
67568647	76.8
67568647	102.8
67568647	102.5
67568647	76.8
67240963	102.8
67240963	76.8
67240963	76.8
67240963	102.7
67240963	102.9
67240963	102.5
67240963	76.8
67240963	102.6
67240963	102.4
67240963	76.8
50332416	76.8
50332416	102.4
50332416	76.8
50332416	102.5
50332416	76.8
50332416	102.6
50332416	102.8
50332416	76.8
50332416	102.9
50332416	103.0
67175429	102.9
67175429	102.8
67175429	103.3
67175429	76.8
67175429	103.3
67175429	102.4
67175429	102.4
67175429	102.4
67175429	102.6
67175429	76.8
67109890	103.0
67109890	104.0
67109890	102.4
67109890	76.8
67109890	103.0
67109890	103.3
67109890	102.6
67109890	102.4
67109890	102.4
67109890	102.8
50332416	103.3
50332416	103.3
50332416	103.2
50332416	102.4
50332416	76.8
50332416	102.9
50332416	102.4
50332416	102.4
50332416	102.5
50332416	102.4
67240962	102.5
67240962	102.4
67240962	102.5
67240962	76.8
67240962	102.7
67240962	76.8
67240962	102.8
67240962	76.8
67240962	76.8
67240962	103.5
67634176	102.4
67634176	102.5
67634176	102.9
67634176	76.8
67634176	102.8
67634176	76.8
67634176	103.0
67634176	102.7
67634176	102.9
67634176	103.1
50332416	76.8
50332416	76.8
50332416	76.8
50332416	76.8
50332416	76.8
50332416	76.8
50332416	76.8
50332416	76.8
50332416	76.8
50332416	76.8
50332416	76.8
50332416	76.8
50332416	76.8
50332416	76.8
50332416	76.8
50332416	76.8
50332416	76.8
50332416	76.8
50332416	76.8
50332416	76.8
50332416	76.8
50332416	76.8
50332416	76.8
50332416	76.8
50332416	76.8
50332416	76.8
50332416	76.8
50332416	76.8
50332416	76.8
50332416	76.8
0	0.0
0	0.0
0	0.0
0	0.0
0	0.0
0	0.0
0	0.0
0	0.0
0	0.0
0	0.0
50332416	76.8
50332416	76.8
50332416	76.8
50332416	102.6
50332416	0.0
50332416	0.0
50332416	0.0
50332416	0.0
50332416	0.0
50332416	0.0
50332416	76.8
50332416	76.8
50332416	76.8
50332416	76.8
50332416	102.4
50332416	76.8
50332416	76.8
50332416	76.8
50332416	76.8
50332416	76.8
50332416	76.8
50332416	76.8
50332416	76.8
50332416	103.0
50332416	76.8
50332416	76.8
50332416	76.8
50332416	76.8
50332416	76.8
50332416	103.0
50332416	76.8
50332416	76.8
50332416	102.5
50332416	76.8
50332416	76.8
50332416	76.8
50332416	76.8
50332416	76.8
50332416	76.8
50332416	76.8
50332416	76.8
50332416	76.8
50332416	76.8
50332416	76.8
50332416	76.8
50332416	76.8
50332416	76.8
50332416	76.8
50332416	76.8
50332416	76.8
50332416	102.4
50332416	76.8
50332416	76.8
50332416	76.8
50332416	76.8
50332416	76.8
50332416	76.8
50332416	76.8
50332416	76.8
50332416	76.8
50332416	76.8
50332416	76.8
50332416	76.8
50332416	76.8
50332416	76.8
50332416	76.8
50332416	76.8
50332416	76.8
50332416	76.8
50332416	76.8
50332416	76.8
50332416	76.8
50332416	76.8
50332416	76.8
50332416	76.8
50332416	76.8
50332416	76.8
50332416	76.8
50332416	76.8
50332416	76.8
50332416	76.8
50332416	76.8
50332416	76.8
50332416	76.8
50332416	76.8
50332416	76.8
50332416	76.8
50332416	76.8
50332416	76.8
50332416	76.8
50332416	76.8
50332416	76.8
50332416	76.8
50332416	76.8
50332416	76.8
50332416	76.8
50332416	76.8
50332416	76.8
50332416	76.8
50332416	76.8
50332416	76.8
50332416	76.8
50332416	76.8
50332416	76.8
50332416	76.8
50332416	76.8
50332416	76.8
50332416	76.8
50332416	76.8
50332416	76.8
50332416	76.8
50332416	76.8
50332416	76.8
50332416	76.8
50332416	76.8
50332416	76.8
50332416	76.8
50332416	76.8
50332416	76.8
50332416	76.8
50332416	76.8
50332416	76.8
50332416	76.8
50332416	76.8
50332416	76.8
50332416	76.8
50332416	76.8
50332416	76.8
50332416	76.8
50332416	76.8
50332416	76.8
50332416	76.8
50332416	76.8
50332416	76.8
50332416	76.8
50332416	76.8
50332416	76.8
50332416	76.8
50332416	76.8
50332416	76.8
50332416	76.8
50332416	76.8
50332416	76.8
50332416	76.8
50332416	76.8
50332416	76.8
50332416	76.8
50332416	76.8
50332416	76.8
50332416	76.8
50332416	76.8
50332416	76.8
50332416	76.8
50332416	76.8
50332416	76.8
50332416	76.8
50332416	76.8
50332416	76.8
50332416	76.8
50332416	76.8
50332416	76.8
50332416	102.4
50332416	76.8
50332416	76.8
50332416	76.8
50332416	76.8
50332416	76.8
50332416	76.8
50332416	76.8
50332416	76.8
50332416	76.8
50332416	76.8
50332416	76.8
50332416	102.4
50332416	76.8
50332416	76.8
50332416	76.8
50332416	76.8
50332416	76.8
50332416	76.8
50332416	76.8
50332416	76.8
50332416	76.8
50332416	76.8
50332416	76.8
50332416	76.8
50332416	76.8
50332416	76.8
50332416	76.8
50332416	76.8
50332416	76.8
50332416	76.8
50332416	76.8
50332416	76.8
50332416	76.8
50332416	76.8
50332416	76.8
50332416	76.8
50332416	76.8
50332416	76.8
50332416	76.8
50332416	76.8
50332416	76.8
50332416	76.8
50332416	76.8
50332416	76.8
50332416	76.8
50332416	76.8
50332416	76.8
50332416	76.8
50332416	76.8
50332416	76.8
50332416	76.8
50332416	76.8
50332416	76.8
50332416	76.8
50332416	76.8
50332416	76.8
50332416	76.8
50332416	76.8
50332416	76.8
50332416	76.8
50332416	76.8
50332416	76.8
50332416	76.8
50332416	76.8
50332416	76.8
50332416	76.8
50332416	76.8
50332416	76.8
0	0.0
0	0.0
0	0.0
0	0.0
0	0.0
0	0.0
0	0.0
0	0.0
0	0.0
0	0.0
50332416	76.8
50332416	76.8
50332416	76.8
50332416	76.8
50332416	76.8
50332416	0.0
50332416	0.0
50332416	0.0
50332416	0.0
50332416	0.0
50332416	76.8
50332416	76.8
50332416	76.8
50332416	76.8
50332416	76.8
50332416	76.8
50332416	76.8
50332416	76.8
50332416	76.8
50332416	76.8
50332416	76.8
50332416	76.8
50332416	76.8
50332416	76.8
50332416	76.8
50332416	76.8
50332416	76.8
50332416	76.8
50332416	76.8
50332416	76.8
50332416	76.8
50332416	76.8
50332416	76.8
50332416	76.8
50332416	76.8
50332416	76.8
50332416	76.8
50332416	76.8
50332416	76.8
50332416	76.8
50332416	76.8
50332416	76.8
50332416	76.8
50332416	76.8
50332416	76.8
50332416	76.8
50332416	76.8
50332416	76.8
50332416	76.8
50332416	76.8
50332416	76.8
50332416	76.8
50332416	76.8
50332416	76.8
50332416	76.8
50332416	76.8
50332416	76.8
50332416	76.8
50332416	76.8
50332416	76.8
50332416	76.8
50332416	76.8
50332416	76.8
50332416	76.8
50332416	76.8
50332416	76.8
50332416	76.8
50332416	76.8
50332416	76.8
50332416	76.8
50332416	76.8
50332416	76.8
50332416	76.8
50332416	76.8
50332416	76.8
50332416	76.8
50332416	76.8
50332416	76.8
50332416	76.8
50332416	76.8
50332416	76.8
50332416	76.8
50332416	76.8
50332416	76.8
50332416	76.8
50332416	76.8
50332416	76.8
50332416	76.8
50332416	76.8
50332416	76.8
50332416	76.8
50332416	76.8
50332416	76.8
50332416	76.8
50332416	76.8
50332416	76.8
50332416	76.8
50332416	76.8
50332416	76.8
50332416	76.8
50332416	76.8
50332416	76.8
50332416	76.8
50332416	76.8
50332416	76.8
50332416	76.8
50332416	76.8
50332416	76.8
50332416	76.8
50332416	76.8
50332416	76.8
50332416	76.8
50332416	76.8
50332416	76.8
50332416	76.8
50332416	76.8
50332416	76.8
50332416	76.8
50332416	76.8
50332416	76.8
50332416	76.8
50332416	76.8
50332416	76.8
50332416	76.8
50332416	76.8
50332416	76.8
50332416	76.8
50332416	76.8
50332416	76.8
50332416	76.8
50332416	76.8
50332416	76.8
50332416	76.8
50332416	76.8
50332416	76.8
50332416	76.8
50332416	76.8
50332416	76.8
50332416	76.8
50332416	76.8
67109888	102.4
67109888	102.4
67109888	102.4
67109888	102.4
67109888	102.4
67109888	102.4
67109888	102.4
67109888	102.4
67109888	102.4
67109888	102.4
67109888	102.4
67109888	102.4
67109888	102.4
67109888	102.4
67109888	102.4
67109888	102.4
67109888	102.4
67109888	102.4
67109888	102.4
67109888	102.4
67109888	102.4
67109888	102.4
67109888	102.4
67109888	102.4
67109888	102.4
67109888	102.4
67109888	102.4
67109888	102.4
67109888	102.4
67109888	102.4
67109888	102.4
67109888	102.4
67109888	102.4
67109888	102.4
67109888	102.4
67109888	102.4
67109888	102.4
67109888	102.4
67109888	102.4
67109888	102.4
67109888	102.4
67109888	102.4
67109888	102.4
67109888	102.4
67109888	102.4
67109888	102.4
67109888	102.4
67109888	102.4
67109888	102.4
67109888	102.4
67109888	102.4
67109888	102.4
67109888	102.4
67109888	102.4
67109888	102.4
67109888	102.4
67109888	102.4
67109888	102.4
67109888	102.4
67109888	102.4
67109888	102.4
67109888	102.4
67109888	102.4
67109888	102.4
67109888	102.4
67109888	102.4
67109888	102.4
67109888	102.4
67109888	102.4
67109888	102.4
67109888	102.4
67109888	102.4
67109888	102.4
67109888	102.4
67109888	102.4
67109888	102.4
67109888	102.4
67109888	102.4
67109888	102.4
67109888	102.4
67109888	102.4
67109888	102.4
67109888	102.4
67109888	102.4
67109888	102.4
67109888	102.4
67109888	102.4
67109888	102.4
67109888	102.4
67109888	102.4
1024	0.0
1024	0.0
1024	0.0
1024	0.0
1024	0.0
1024	0.0
1024	0.0
1024	0.0
1024	0.0
1024	0.0
67109888	102.4
67109888	102.4
67109888	102.4
67109888	102.4
67109888	102.4
67109888	102.4
67109888	0.0
67109888	0.0
67109888	0.0
67109888	0.0
67109888	102.4
67109888	102.4
67109888	102.4
67109888	102.4
67109888	102.4
67109888	102.4
67109888	102.4
67109888	102.4
67109888	102.4
67109888	102.4
67109888	102.4
67109888	102.4
67109888	102.4
67109888	102.4
67109888	102.4
67109888	102.4
67109888	102.4
67109888	102.4
67109888	102.4
67109888	102.4
67109888	102.4
67109888	102.4
67109888	102.4
67109888	102.4
67109888	102.4
67109888	102.4
67109888	102.4
67109888	102.4
67109888	102.4
67109888	102.4
67109888	102.4
67109888	102.4
67109888	102.4
67109888	102.4
67109888	102.4
67109888	102.4
67109888	102.4
67109888	102.4
67109888	102.4
67109888	102.4
67109888	102.4
67109888	102.4
67109888	102.4
67109888	102.4
67109888	102.4
67109888	102.4
67109888	102.4
67109888	102.4
67109888	102.4
67109888	102.4
67109888	102.4
67109888	102.4
67109888	102.4
67109888	102.4
67109888	102.4
67109888	102.4
67109888	102.4
67109888	102.4
67109888	102.4
67109888	102.4
67109888	102.4
67109888	102.4
67109888	102.4
67109888	102.4
67109888	102.4
67109888	102.4
67109888	102.4
67109888	102.4
67109888	102.4
67109888	102.4
67109888	102.4
67109888	102.4
67109888	102.4
67109888	102.4
67109888	102.4
67109888	102.4
67109888	102.4
67109888	102.4
67109888	102.4
67109888	102.4
67109888	102.4
67109888	102.4
67109888	102.4
67109888	102.4
67109888	102.4
67109888	102.4
67109888	102.4
67109888	102.4
67109888	102.4
67109888	102.4
67109888	102.4
67109888	102.4
67109888	102.4
67109888	102.4
67109888	102.4
67109888	102.4
67109888	102.4
67109888	102.4
67109888	102.4
67109888	102.4
67109888	102.4
67109888	102.4
67109888	102.4
67109888	102.4
67109888	102.4
67109888	102.4
67109888	102.4
67109888	102.4
67109888	102.4
67109888	102.4
67109888	102.4
67109888	102.4
67109888	102.4
67109888	102.4
67109888	102.4
67109888	102.4
67109888	102.4
67109888	102.4
67109888	102.4
67109888	102.4
67109888	102.4
67109888	102.4
67109888	102.4
67109888	102.4
67109888	102.4
67109888	102.4
67109888	102.4
67109888	102.4
67109888	102.4
67109888	102.4
67109888	102.4
67109888	102.4
67109888	102.4
67109888	102.4
67109888	102.4
67109888	102.4
67109888	102.4
67109888	102.4
67109888	102.4
67109888	102.4
67109888	102.4
67109888	102.4
67109888	102.4
67109888	102.4
67109888	102.4
67109888	102.4
67109888	102.4
67109888	102.4
67109888	102.4
67109888	102.4
67109888	102.4
67109888	102.4
67109888	102.4
67109888	102.4
67109888	102.4
67109888	102.4
67109888	102.4
67109888	102.4
67109888	102.4
67109888	102.4
67109888	102.4
67109888	102.4
67109888	102.4
67109888	102.4
67109888	102.4
67109888	102.4
67109888	102.4
67109888	102.4
67109888	102.4
67109888	102.4
67109888	102.4
67109888	102.4
67109888	102.4
67109888	102.4
67109888	102.4
67109888	102.4
67109888	102.4
67109888	102.4
67109888	102.4
67109888	102.4
67109888	102.4
67109888	102.4
67109888	102.4
67109888	102.4
67109888	102.4
67109888	102.4
67109888	102.4
67109888	102.4
67109888	102.4
67109888	102.4
67109888	102.4
67109888	102.4
67109888	102.4
67109888	102.4
67109888	102.4
67109888	102.4
67109888	102.4
67109888	102.4
67109888	102.4
67109888	102.4
67109888	102.4
67109888	0.0
67109888	0.0
67109888	0.0
67109888	0.0
67109888	0.0
67109888	0.0
67109888	0.0
67109888	0.0
67109888	0.0
67109888	102.4
67109888	102.4
67109888	102.4
67109888	102.4
67109888	102.4
67109888	102.4
67109888	102.4
67109888	0.0
67109888	0.0
67109888	0.0
67109888	0.0
67109888	0.0
67109888	0.0
67109888	0.0
67109888	0.0
67109888	0.0
67109888	0.0
67109888	0.0
67109888	0.0
67109888	0.0
67109888	102.4
67109888	102.4
67109888	102.4
67109888	102.4
67109888	102.4
67109888	102.4
67109888	102.4
67109888	0.0
67109888	0.0
67109888	0.0
67109888	102.4
67109888	102.4
67109888	102.4
67109888	102.4
67109888	102.4
67109888	102.4
67109888	102.4
67109888	102.4
67109888	102.4
67109888	102.4
67109888	102.4
67109888	102.4
67109888	102.4
67109888	102.4
67109888	102.4
67109888	102.4
67109888	102.4
67109888	102.4
67109888	102.4
67109888	102.4
67109888	102.4
67109888	102.4
67109888	102.4
67109888	102.4
67109888	102.4
67109888	102.4
67109888	102.4
67109888	102.4
67109888	102.4
67109888	102.4
67109888	102.4
67109888	102.4
67109888	102.4
67109888	102.4
67109888	102.4
67109888	102.4
67109888	102.4
67109888	102.4
67109888	102.4
67109888	102.4
67109888	102.4
67109888	102.4
67109888	102.4
67109888	102.4
67109888	102.4
67109888	102.4
67109888	102.4
67109888	102.4
67109888	102.4
67109888	102.4
67109888	102.4
67109888	102.4
67109888	102.4
67109888	102.4
67109888	102.4
67109888	102.4
67109888	102.4
67109888	102.4
67109888	102.4
67109888	102.4
67109888	102.4
67109888	102.4
67109888	102.4
67109888	102.4
67109888	102.4
67109888	102.4
67109888	102.4
67109888	102.4
67109888	102.4
67109888	102.4
67109888	102.4
67109888	102.4
67109888	102.4
67109888	102.4
67109888	102.4
67109888	102.4
67109888	102.4
67109888	102.4
67109888	102.4
67109888	102.4
67109888	102.4
67109888	102.4
67109888	102.4
67109888	102.4
67109888	102.4
67109888	102.4
67109888	102.4
67109888	102.4
67109888	102.4
67109888	102.4
67109888	102.4
67109888	102.4
67109888	102.4
67109888	102.4
67109888	102.4
67109888	102.4
67109888	102.4
67109888	102.4
67109888	102.4
67109888	102.4
67109888	102.4
67109888	102.4
67109888	102.4
67109888	102.4
67109888	102.4
67109888	102.4
67109888	102.4
67109888	102.4
67109888	102.4
67109888	102.4
67109888	102.4
67109888	102.4
67109888	102.4
67109888	102.4
67109888	102.4
67109888	102.4
67109888	102.4
67109888	102.4
67109888	102.4
67109888	102.4
67109888	102.4
67109888	102.4
67109888	102.4
67109888	102.4
67109888	102.4
67109888	102.4
67109888	102.4
67109888	102.4
67109888	102.4
67109888	102.4
67109888	102.4
67109888	102.4
67109888	102.4
67109888	102.4
67109888	102.4
67109888	102.4
67109888	102.4
67109888	102.4
67109888	102.4
67109888	102.4
67109888	102.4
67109888	102.4
67109888	102.4
67109888	102.4
67109888	102.4
67109888	102.4
67109888	102.4
67109888	102.4
67109888	102.4
67109888	102.4
67109888	102.4
67109888	102.4
67109888	102.4
67109888	102.4
67109888	102.4
67109888	102.4
67109888	102.4
67109888	102.4
67109888	102.4
67109888	102.4
67109888	102.4
67109888	102.4
67109888	102.4
67109888	102.4
67109888	102.4
67109888	102.4
67109888	102.4
67109888	102.4
67109888	102.4
67109888	102.4
67109888	102.4
67109888	102.4
67109888	102.4
67109888	102.4
67109888	102.4
67109888	102.4
67109888	102.4
67109888	102.4
67109888	102.4
67109888	102.4
67109888	102.4
67109888	102.4
67109888	102.4
67109888	102.4
67109888	102.4
67109888	102.4
67109888	102.4
67109888	102.4
67109888	102.4
67109888	102.4
67109888	102.4
67109888	102.4
67109888	102.4
67109888	102.4
67109888	102.4
67109888	102.4
67109888	102.4
67109888	102.4
67109888	102.4
67109888	102.4
67109888	102.4
67109888	102.4
67109888	102.4
67109888	102.4
67109888	102.4
67109888	102.4
67109888	102.4
67109888	102.4
67109888	102.4
67109888	102.4
67109888	102.4
67109888	102.4
67109888	102.4
67109888	102.4
67109888	102.4
67109888	102.4
67109888	102.4
67109888	102.4
67109888	102.4
67109888	102.4
67109888	102.4
67109888	102.4
67109888	102.4
67109888	102.4
67109888	102.4
67109888	102.4
67109888	102.4
67109888	102.4
67109888	102.4
67109888	102.4
67109888	102.4
67109888	102.4
67109888	102.4
67109888	102.4
67109888	102.4
67109888	102.4
67109888	102.4
67109888	102.4
67109888	102.4
67109888	102.4
67109888	102.4
67109888	102.4
67109888	102.4
67109888	102.4
67109888	102.4
67109888	102.4
67109888	102.4
67109888	102.4
67109888	102.4
67109888	102.4
67109888	102.4
67109888	102.4
67109888	102.4
67109888	102.4
67109888	102.4
67109888	102.4
67109888	102.4
67109888	102.4
67109888	102.4
67109888	102.4
67109888	102.4
67109888	102.4
67109888	102.4
67109888	102.4
67109888	102.4
67109888	102.4
67109888	102.4
67109888	102.4
67109888	102.4
67109888	102.4
67109888	102.4
67109888	102.4
67109888	102.4
67109888	102.4
67109888	102.4
67109888	102.4
67109888	102.4
67109888	102.4
67109888	102.4
67109888	102.4
67109888	102.4
67109888	102.4
67109888	102.4
67109888	102.4
67109888	102.4
67109888	102.4
67109888	102.4
67109888	102.4
67109888	102.4
67109888	102.4
67109888	102.4
67109888	102.4
67109888	102.4
67109888	102.4
67109888	102.4
67109888	102.4
67109888	102.4
67109888	102.4
67109888	102.4
67109888	102.4
67109888	102.4
67109888	102.4
67109888	102.4
67109888	102.4
67109888	102.4
67109888	102.4
67109888	102.4
67109888	102.4
67109888	102.4
67109888	102.4
67109888	102.4
67109888	102.4
67109888	102.4
67109888	102.4
67109888	102.4
67109888	102.4
67109888	102.4
67109888	102.4
67109888	102.4
67109888	102.4
67109888	102.4
67109888	102.4
67109888	102.4
67109888	102.4
67109888	102.4
67109888	102.4
67109888	102.4
67109888	102.4
67109888	102.4
67109888	102.4
67109888	102.4
67109888	102.4
67109888	102.4
67109888	102.4
67109888	102.4
67109888	102.4
67109888	102.4
67109888	102.4
67109888	102.4
67109888	102.4
67109888	102.4
67109888	102.4
67109888	102.4
67109888	102.4
67109888	102.4
67109888	102.4
67109888	102.4
67109888	102.4
67109888	102.4
67109888	102.4
67109888	102.4
67109888	102.4
67109888	102.4
67109888	102.4
67109888	102.4
67109888	102.4
67109888	102.4
67109888	102.4
67109888	102.4
67109888	102.4
67109888	102.4
67109888	102.4
67109888	102.4
67109888	102.4
67109888	102.4
67109888	102.4
67109888	102.4
67109888	102.4
67109888	102.4
67109888	102.4
67109888	102.4
67109888	102.4
67109888	102.4
67109888	102.4
67109888	102.4
67109888	102.4
67109888	102.4
67109888	102.4
67109888	102.4
67109888	102.4
67109888	102.4
67109888	102.4
67109888	102.4
67109888	102.4
67109888	102.4
67109888	102.4
67109888	102.4
67109888	102.4
67109888	102.4
67109888	102.4
67109888	102.4
67109888	102.4
67109888	102.4
67109888	102.4
67109888	102.4
67109888	102.4
67109888	102.4
67109888	102.4
67109888	102.4
67109888	102.4
67109888	102.4
67109888	102.4
67109888	102.4
67109888	102.4
67109888	102.4
67109888	102.4
67109888	102.4
67109888	102.4
67109888	102.4
67109888	102.4
0	0.0
0	0.0
0	0.0
0	0.0
0	0.0
0	0.0
0	0.0
0	0.0
0	0.0
0	0.0
67109888	102.4
67109888	102.4
67109888	102.4
67109888	102.4
67109888	0.0
67109888	0.0
67109888	0.0
67109888	0.0
67109888	0.0
67109888	0.0
67109888	102.4
67109888	102.4
67109888	102.4
67109888	102.4
67109888	102.4
67109888	102.4
67109888	102.4
67109888	102.4
67109888	102.4
67109888	102.4
67109888	102.4
67109888	102.4
67109888	102.4
67109888	102.4
67109888	102.4
67109888	102.4
67109888	102.4
67109888	102.4
67109888	102.4
67109888	102.4
67109888	102.4
67109888	102.4
67109888	102.4
67109888	102.4
67109888	102.4
67109888	102.4
67109888	102.4
67109888	102.4
67109888	102.4
67109888	102.4
67109888	102.4
67109888	102.4
67109888	102.4
67109888	102.4
67109888	102.4
67109888	102.4
67109888	102.4
67109888	102.4
67109888	102.4
67109888	102.4
67109888	102.4
67109888	102.4
67109888	102.4
67109888	102.4
67109888	102.4
67109888	102.4
67109888	102.4
67109888	102.4
67109888	102.4
67109888	102.4
67109888	102.4
67109888	102.4
67109888	102.4
67109888	102.4
67109888	102.4
67109888	102.4
67109888	102.4
67109888	102.4
67109888	102.4
67109888	102.4
67109888	102.4
67109888	102.4
67109888	102.4
67109888	102.4
67109888	102.4
67109888	102.4
67109888	102.4
67109888	102.4
67109888	102.4
67109888	102.4
70321209	106.7
70321209	107.8
70321209	108.1
70321209	107.2
70321209	102.8
70321209	102.8
70321209	107.5
70321209	107.5
70321209	109.0
70321209	107.8
70190122	106.5
70190122	107.3
70190122	107.1
70190122	102.7
70190122	102.8
70190122	107.0
70190122	106.4
70190122	107.1
70190122	102.7
70190122	106.6
67372035	106.8
67372035	102.8
67372035	106.8
67372035	103.5
67372035	103.8
67372035	103.6
67372035	102.4
67372035	104.0
67372035	104.5
67372035	102.4
72418386	103.1
72418386	103.1
72418386	103.1
72418386	109.7
72418386	103.1
72418386	103.1
72418386	110.0
72418386	103.1
72418386	103.1
72418386	103.1
72090631	110.7
72090631	103.1
72090631	109.5
72090631	110.4
72090631	109.7
72090631	103.1
72090631	110.8
72090631	109.5
72090631	110.6
72090631	110.7
67568715	103.1
67568715	103.1
67568715	110.6
67568715	103.1
67568715	110.0
67568715	103.1
67568715	103.1
67568715	103.1
67568715	110.2
67568715	111.1
67568721	110.2
67568721	103.1
67568721	103.1
67568721	103.1
67568721	103.1
67568721	111.0
67568721	110.7
67568721	110.7
67568721	111.2
67568721	110.1
77	0.0
77	0.0
77	0.0
77	0.0
77	0.0
77	0.0
77	0.0
77	0.0
77	0.0
77	0.0
72746064	103.1
72746064	110.9
72746064	110.9
72746064	103.1
72746064	110.8
72746064	0.0
72746064	0.0
72746064	0.0
72746064	0.0
72746064	0.0
67568647	110.6
67568647	110.4
67568647	103.1
67568647	110.8
67568647	110.7
67568647	103.1
67568647	109.9
67568647	103.1
67568647	110.4
67568647	110.3
72614994	111.3
72614994	103.1
72614994	103.1
72614994	103.1
72614994	110.3
72614994	110.2
72614994	103.1
72614994	103.1
72614994	103.1
72614994	111.1
71697416	111.0
71697416	110.4
71697416	103.1
71697416	110.6
71697416	110.1
71697416	103.1
71697416	103.1
71697416	103.0
71697416	110.1
71697416	111.0
72746070	110.2
72746070	110.1
72746070	103.1
72746070	109.7
72746070	103.1
72746070	103.1
72746070	110.3
72746070	110.7
72746070	111.4
72746070	103.1
72680455	103.1
72680455	103.1
72680455	109.9
72680455	103.1
72680455	110.4
72680455	110.5
72680455	110.6
72680455	111.0
72680455	110.4
72680455	103.1
67568726	111.0
67568726	103.1
67568726	110.7
67568726	103.2
67568726	103.1
67568726	110.0
67568726	103.2
67568726	110.5
67568726	110.0
67568726	110.9
67568647	110.4
67568647	103.1
67568647	103.1
67568647	103.1
67568647	103.1
67568647	103.1
67568647	110.2
67568647	103.1
67568647	103.1
67568647	103.1
67568723	110.3
67568723	110.3
67568723	110.3
67568723	103.1
67568723	109.7
67568723	110.0
67568723	110.8
67568723	103.1
67568723	110.2
67568723	103.1
72746066	103.1
72746066	110.7
72746066	103.1
72746066	109.6
72746066	103.1
72746066	110.3
72746066	103.1
72746066	111.1
72746066	103.1
72746066	110.2
67568719	109.8
67568719	110.3
67568719	110.3
67568719	109.6
67568719	110.0
67568719	110.8
67568719	103.1
67568719	103.1
67568719	110.1
67568719	110.6
71828487	0.0
71828487	0.0
71828487	0.0
71828487	0.0
71828487	0.0
71828487	0.0
71828487	0.0
71828487	0.0
71828487	0.0
71828487	0.0
67568715	110.5
67568715	110.4
67568715	110.9
67568715	109.9
67568715	110.5
67568715	103.1
67568715	0.7
67568715	0.0
67568715	0.0
67568715	0.0
459783	0.0
459783	0.0
459783	0.0
459783	0.0
459783	0.0
459783	0.0
459783	0.0
459783	0.0
459783	0.0
459783	0.0
72745991	103.1
72745991	103.1
72745991	110.5
72745991	103.1
72745991	110.1
72745991	103.1
72745991	0.0
72745991	0.0
72745991	0.0
72745991	0.0
67568722	103.1
67568722	103.1
67568722	109.7
67568722	109.6
67568722	110.6
67568722	103.1
67568722	103.1
67568722	103.1
67568722	110.6
67568722	110.6
72352850	110.9
72352850	110.7
72352850	110.8
72352850	110.6
72352850	110.5
72352850	103.1
72352850	110.8
72352850	109.4
72352850	111.0
72352850	110.6
67503180	110.3
67503180	111.0
67503180	103.1
67503180	110.1
67503180	110.3
67503180	110.5
67503180	110.1
67503180	110.5
67503180	103.1
67503180	103.1
72483847	103.1
72483847	110.4
72483847	109.9
72483847	110.2
72483847	110.7
72483847	110.4
72483847	110.4
72483847	103.1
72483847	110.4
72483847	103.1
71959627	109.6
71959627	103.1
71959627	109.5
71959627	110.2
71959627	110.2
71959627	110.7
71959627	110.3
71959627	103.1
71959627	109.8
71959627	110.5
72287304	110.2
72287304	110.4
72287304	110.6
72287304	110.7
72287304	103.1
72287304	103.1
72287304	109.9
72287304	110.8
72287304	103.1
72287304	111.0
0	0.0
0	0.0
0	0.0
0	0.0
0	0.0
0	0.0
0	0.0
0	0.0
0	0.0
0	0.0
0	0.0
0	0.0
0	0.0
0	0.0
0	0.0
0	0.0
0	0.0
0	0.0
0	0.0
0	0.0
0	0.0
0	0.0
0	0.0
0	0.0
0	0.0
0	0.0
0	0.0
0	0.0
0	0.0
0	0.0
0	0.0
0	0.0
0	0.0
0	0.0
0	0.0
0	0.0
0	0.0
0	0.0
0	0.0
0	0.0
0	0.0
0	0.0
0	0.0
0	0.0
0	0.0
0	0.0
0	0.0
0	0.0
0	0.0
0	0.0
0	0.0
0	0.0
0	0.0
0	0.0
0	0.0
0	0.0
0	0.0
0	0.0
0	0.0
0	0.0
0	0.0
0	0.0
0	0.0
0	0.0
0	0.0
0	0.0
0	0.0
0	0.0
0	0.0
0	0.0
0	0.0
0	0.0
0	0.0
0	0.0
0	0.0
0	0.0
0	0.0
0	0.0
0	0.0
0	0.0
0	0.0
0	0.0
0	0.0
0	0.0
0	0.0
0	0.0
0	0.0
0	0.0
0	0.0
0	0.0
0	0.0
0	0.0
0	0.0
0	0.0
0	0.0
0	0.0
0	0.0
0	0.0
0	0.0
0	0.0
0	0.0
0	0.0
0	0.0
0	0.0
0	0.0
0	0.0
0	0.0
0	0.0
0	0.0
0	0.0
0	0.0
0	0.0
0	0.0
0	0.0
0	0.0
0	0.0
0	0.0
0	0.0
0	0.0
0	0.0
0	0.0
0	0.0
0	0.0
0	0.0
0	0.0
0	0.0
0	0.0
0	0.0
0	0.0
0	0.0
0	0.0
0	0.0
0	0.0
0	0.0
0	0.0
0	0.0
0	0.0
0	0.0
0	0.0
0	0.0
0	0.0
0	0.0
0	0.0
0	0.0
0	0.0
0	0.0
0	0.0
0	0.0
0	0.0
0	0.0
0	0.0
0	0.0
0	0.0
0	0.0
0	0.0
0	0.0
0	0.0
0	0.0
0	0.0
0	0.0
0	0.0
0	0.0
0	0.0
0	0.0
0	0.0
0	0.0
0	0.0
0	0.0
0	0.0
0	0.0
0	0.0
0	0.0
0	0.0
0	0.0
0	0.0
0	0.0
0	0.0
0	0.0
0	0.0
0	0.0
0	0.0
0	0.0
0	0.0
0	0.0
0	0.0
0	0.0
0	0.0
0	0.0
0	0.0
0	0.0
0	0.0
0	0.0
0	0.0
0	0.0
0	0.0
0	0.0
0	0.0
0	0.0
0	0.0
0	0.0
0	0.0
0	0.0
0	0.0
0	0.0
0	0.0
0	0.0
0	0.0
0	0.0
0	0.0
0	0.0
0	0.0
0	0.0
0	0.0
0	0.0
0	0.0
0	0.0
0	0.0
0	0.0
0	0.0
0	0.0
0	0.0
0	0.0
0	0.0
0	0.0
0	0.0
0	0.0
0	0.0
0	0.0
0	0.0
0	0.0
0	0.0
0	0.0
0	0.0
0	0.0
0	0.0
0	0.0
0	0.0
0	0.0
0	0.0
0	0.0
0	0.0
0	0.0
0	0.0
0	0.0
0	0.0
0	0.0
0	0.0
0	0.0
0	0.0
0	0.0
0	0.0
0	0.0
0	0.0
0	0.0
0	0.0
0	0.0
0	0.0
0	0.0
0	0.0
0	0.0
0	0.0
0	0.0
0	0.0
0	0.0
0	0.0
0	0.0
0	0.0
0	0.0
0	0.0
0	0.0
0	0.0
0	0.0
0	0.0
0	0.0
0	0.0
0	0.0
0	0.0
0	0.0
0	0.0
0	0.0
0	0.0
0	0.0
0	0.0
0	0.0
0	0.0
0	0.0
0	0.0
0	0.0
0	0.0
0	0.0
0	0.0
0	0.0
0	0.0
0	0.0
0	0.0
0	0.0
0	0.0
0	0.0
0	0.0
0	0.0
0	0.0
0	0.0
0	0.0
0	0.0
0	0.0
0	0.0
0	0.0
0	0.0
0	0.0
0	0.0
0	0.0
0	0.0
0	0.0
0	0.0
0	0.0
0	0.0
0	0.0
0	0.0
0	0.0
0	0.0
0	0.0
0	0.0
0	0.0
0	0.0
0	0.0
0	0.0
0	0.0
0	0.0
0	0.0
0	0.0
0	0.0
0	0.0
0	0.0
0	0.0
0	0.0
0	0.0
0	0.0
0	0.0
0	0.0
0	0.0
0	0.0
0	0.0
0	0.0
0	0.0
0	0.0
0	0.0
0	0.0
0	0.0
0	0.0
0	0.0
0	0.0
0	0.0
0	0.0
0	0.0
0	0.0
0	0.0
0	0.0
0	0.0
0	0.0
0	0.0
0	0.0
0	0.0
0	0.0
0	0.0
0	0.0
0	0.0
0	0.0
0	0.0
0	0.0
0	0.0
0	0.0
0	0.0
0	0.0
0	0.0
0	0.0
0	0.0
0	0.0
0	0.0
0	0.0
0	0.0
0	0.0
0	0.0
0	0.0
0	0.0
0	0.0
0	0.0
0	0.0
0	0.0
0	0.0
0	0.0
0	0.0
0	0.0
0	0.0
0	0.0
0	0.0
0	0.0
0	0.0
0	0.0
0	0.0
0	0.0
0	0.0
0	0.0
0	0.0
0	0.0
0	0.0
0	0.0
0	0.0
0	0.0
0	0.0
0	0.0
0	0.0
0	0.0
0	0.0
0	0.0
0	0.0
0	0.0
0	0.0
0	0.0
0	0.0
0	0.0
0	0.0
0	0.0
0	0.0
0	0.0
0	0.0
0	0.0
0	0.0
0	0.0
0	0.0
0	0.0
0	0.0
0	0.0
0	0.0
0	0.0
0	0.0
0	0.0
0	0.0
0	0.0
0	0.0
0	0.0
0	0.0
0	0.0
0	0.0
0	0.0
0	0.0
0	0.0
0	0.0
0	0.0
0	0.0
0	0.0
0	0.0
0	0.0
0	0.0
0	0.0
0	0.0
0	0.0
0	0.0
0	0.0
0	0.0
0	0.0
0	0.0
0	0.0
0	0.0
0	0.0
0	0.0
0	0.0
0	0.0
0	0.0
0	0.0
0	0.0
0	0.0
0	0.0
0	0.0
0	0.0
0	0.0
0	0.0
0	0.0
0	0.0
0	0.0
0	0.0
0	0.0
0	0.0
0	0.0
0	0.0
0	0.0
0	0.0
0	0.0
0	0.0
0	0.0
0	0.0
0	0.0
0	0.0
0	0.0
0	0.0
0	0.0
0	0.0
0	0.0
0	0.0
0	0.0
0	0.0
0	0.0
0	0.0
0	0.0
0	0.0
0	0.0
0	0.0
0	0.0
0	0.0
0	0.0
0	0.0
0	0.0
0	0.0
0	0.0
0	0.0
0	0.0
0	0.0
0	0.0
0	0.0
0	0.0
0	0.0
0	0.0
0	0.0
0	0.0
0	0.0
0	0.0
0	0.0
0	0.0
0	0.0
0	0.0
0	0.0
0	0.0
0	0.0
0	0.0
0	0.0
0	0.0
0	0.0
0	0.0
0	0.0
0	0.0
0	0.0
0	0.0
0	0.0
0	0.0
0	0.0
0	0.0
0	0.0
0	0.0
0	0.0
0	0.0
0	0.0
0	0.0
0	0.0
0	0.0
0	0.0
0	0.0
0	0.0
0	0.0
0	0.0
0	0.0
0	0.0
0	0.0
0	0.0
0	0.0
0	0.0
0	0.0
0	0.0
0	0.0
0	0.0
0	0.0
0	0.0
0	0.0
0	0.0
0	0.0
0	0.0
0	0.0
0	0.0
0	0.0
0	0.0
0	0.0
0	0.0
0	0.0
0	0.0
0	0.0
0	0.0
0	0.0
0	0.0
0	0.0
0	0.0
0	0.0
0	0.0
0	0.0
0	0.0
0	0.0
0	0.0
0	0.0
0	0.0
0	0.0
0	0.0
0	0.0
0	0.0
0	0.0
0	0.0
0	0.0
0	0.0
0	0.0
0	0.0
0	0.0
0	0.0
0	0.0
0	0.0
0	0.0
0	0.0
0	0.0
0	0.0
0	0.0
0	0.0
0	0.0
0	0.0
0	0.0
0	0.0
0	0.0
0	0.0
0	0.0
0	0.0
0	0.0
0	0.0
0	0.0
0	0.0
0	0.0
0	0.0
0	0.0
0	0.0
0	0.0
0	0.0
0	0.0
0	0.0
0	0.0
0	0.0
0	0.0
0	0.0
0	0.0
0	0.0
0	0.0
0	0.0
0	0.0
0	0.0
0	0.0
0	0.0
0	0.0
0	0.0
0	0.0
0	0.0
0	0.0
0	0.0
0	0.0
0	0.0
0	0.0
0	0.0
0	0.0
0	0.0
0	0.0
0	0.0
0	0.0
0	0.0
0	0.0
0	0.0
0	0.0
0	0.0
0	0.0
0	0.0
0	0.0
0	0.0
0	0.0
0	0.0
0	0.0
0	0.0
0	0.0
0	0.0
0	0.0
0	0.0
0	0.0
0	0.0
0	0.0
0	0.0
0	0.0
0	0.0
0	0.0
0	0.0
0	0.0
0	0.0
0	0.0
0	0.0
0	0.0
0	0.0
0	0.0
0	0.0
0	0.0
0	0.0
0	0.0
0	0.0
0	0.0
0	0.0
0	0.0
0	0.0
0	0.0
0	0.0
0	0.0
0	0.0
0	0.0
0	0.0
0	0.0
0	0.0
0	0.0
0	0.0
0	0.0
0	0.0
0	0.0
0	0.0
0	0.0
0	0.0
0	0.0
0	0.0
0	0.0
0	0.0
0	0.0
0	0.0
0	0.0
0	0.0
0	0.0
0	0.0
0	0.0
0	0.0
0	0.0
0	0.0
0	0.0
0	0.0
0	0.0
0	0.0
0	0.0
0	0.0
0	0.0
0	0.0
0	0.0
0	0.0
0	0.0
0	0.0
0	0.0
0	0.0
0	0.0
0	0.0
0	0.0
0	0.0
0	0.0
0	0.0
0	0.0
0	0.0
0	0.0
0	0.0
0	0.0
0	0.0
0	0.0
0	0.0
0	0.0
0	0.0
0	0.0
0	0.0
0	0.0
0	0.0
0	0.0
0	0.0
0	0.0
0	0.0
0	0.0
0	0.0
0	0.0
0	0.0
0	0.0
0	0.0
0	0.0
0	0.0
0	0.0
0	0.0
0	0.0
0	0.0
0	0.0
0	0.0
0	0.0
0	0.0
0	0.0
0	0.0
0	0.0
0	0.0
0	0.0
0	0.0
0	0.0
0	0.0
0	0.0
0	0.0
0	0.0
0	0.0
0	0.0
0	0.0
0	0.0
0	0.0
0	0.0
0	0.0
0	0.0
0	0.0
0	0.0
0	0.0
0	0.0
0	0.0
0	0.0
0	0.0
0	0.0
0	0.0
0	0.0
0	0.0
0	0.0
0	0.0
0	0.0
0	0.0
0	0.0
0	0.0
0	0.0
0	0.0
0	0.0
0	0.0
0	0.0
0	0.0
0	0.0
0	0.0
0	0.0
0	0.0
0	0.0
0	0.0
0	0.0
0	0.0
0	0.0
0	0.0
0	0.0
0	0.0
0	0.0
0	0.0
0	0.0
0	0.0
0	0.0
0	0.0
0	0.0
0	0.0
0	0.0
0	0.0
0	0.0
0	0.0
0	0.0
0	0.0
0	0.0
0	0.0
0	0.0
0	0.0
0	0.0
0	0.0
0	0.0
0	0.0
0	0.0
0	0.0
0	0.0
0	0.0
0	0.0
0	0.0
