%!PS-Adobe-2.0 EPSF-1.2
%%Creator: MATLAB, The Mathworks, Inc. Version 7.9.0.529 (R2009b). Operating System: Linux 2.6.35-28-generic #49-Ubuntu SMP Tue Mar 1 14:39:03 UTC 2011 x86_64.
%%Title: ./iri004-validgpsfix.eps
%%CreationDate: 03/22/2011  17:30:28
%%DocumentNeededFonts: Helvetica
%%DocumentProcessColors: Cyan Magenta Yellow Black
%%Pages: 1
%%BoundingBox:    70   198   546   602
%%EndComments

%%BeginProlog
% MathWorks dictionary
/MathWorks 160 dict begin
% definition operators
/bdef {bind def} bind def
/ldef {load def} bind def
/xdef {exch def} bdef
/xstore {exch store} bdef
% operator abbreviations
/c  /clip ldef
/cc /concat ldef
/cp /closepath ldef
/gr /grestore ldef
/gs /gsave ldef
/mt /moveto ldef
/np /newpath ldef
/cm /currentmatrix ldef
/sm /setmatrix ldef
/rm /rmoveto ldef
/rl /rlineto ldef
/s {show newpath} bdef
/sc {setcmykcolor} bdef
/sr /setrgbcolor ldef
/sg /setgray ldef
/w /setlinewidth ldef
/j /setlinejoin ldef
/cap /setlinecap ldef
/rc {rectclip} bdef
/rf {rectfill} bdef
% page state control
/pgsv () def
/bpage {/pgsv save def} bdef
/epage {pgsv restore} bdef
/bplot /gsave ldef
/eplot {stroke grestore} bdef
% orientation switch
/portraitMode 0 def /landscapeMode 1 def /rotateMode 2 def
% coordinate system mappings
/dpi2point 0 def
% font control
/FontSize 0 def
/FMS {/FontSize xstore findfont [FontSize 0 0 FontSize neg 0 0]
  makefont setfont} bdef
/reencode {exch dup where {pop load} {pop StandardEncoding} ifelse
  exch dup 3 1 roll findfont dup length dict begin
  { 1 index /FID ne {def}{pop pop} ifelse } forall
  /Encoding exch def currentdict end definefont pop} bdef
/isroman {findfont /CharStrings get /Agrave known} bdef
/FMSR {3 1 roll 1 index dup isroman {reencode} {pop pop} ifelse
  exch FMS} bdef
/csm {1 dpi2point div -1 dpi2point div scale neg translate
 dup landscapeMode eq {pop -90 rotate}
  {rotateMode eq {90 rotate} if} ifelse} bdef
% line types: solid, dotted, dashed, dotdash
/SO { [] 0 setdash } bdef
/DO { [.5 dpi2point mul 4 dpi2point mul] 0 setdash } bdef
/DA { [6 dpi2point mul] 0 setdash } bdef
/DD { [.5 dpi2point mul 4 dpi2point mul 6 dpi2point mul 4
  dpi2point mul] 0 setdash } bdef
% macros for lines and objects
/L {lineto stroke} bdef
/MP {3 1 roll moveto 1 sub {rlineto} repeat} bdef
/AP {{rlineto} repeat} bdef
/PDlw -1 def
/W {/PDlw currentlinewidth def setlinewidth} def
/PP {closepath eofill} bdef
/DP {closepath stroke} bdef
/MR {4 -2 roll moveto dup  0 exch rlineto exch 0 rlineto
  neg 0 exch rlineto closepath} bdef
/FR {MR stroke} bdef
/PR {MR fill} bdef
/L1i {{currentfile picstr readhexstring pop} image} bdef
/tMatrix matrix def
/MakeOval {newpath tMatrix currentmatrix pop translate scale
0 0 1 0 360 arc tMatrix setmatrix} bdef
/FO {MakeOval stroke} bdef
/PO {MakeOval fill} bdef
/PD {currentlinewidth 2 div 0 360 arc fill
   PDlw -1 eq not {PDlw w /PDlw -1 def} if} def
/FA {newpath tMatrix currentmatrix pop translate scale
  0 0 1 5 -2 roll arc tMatrix setmatrix stroke} bdef
/PA {newpath tMatrix currentmatrix pop	translate 0 0 moveto scale
  0 0 1 5 -2 roll arc closepath tMatrix setmatrix fill} bdef
/FAn {newpath tMatrix currentmatrix pop translate scale
  0 0 1 5 -2 roll arcn tMatrix setmatrix stroke} bdef
/PAn {newpath tMatrix currentmatrix pop translate 0 0 moveto scale
  0 0 1 5 -2 roll arcn closepath tMatrix setmatrix fill} bdef
/vradius 0 def /hradius 0 def /lry 0 def
/lrx 0 def /uly 0 def /ulx 0 def /rad 0 def
/MRR {/vradius xdef /hradius xdef /lry xdef /lrx xdef /uly xdef
  /ulx xdef newpath tMatrix currentmatrix pop ulx hradius add uly
  vradius add translate hradius vradius scale 0 0 1 180 270 arc 
  tMatrix setmatrix lrx hradius sub uly vradius add translate
  hradius vradius scale 0 0 1 270 360 arc tMatrix setmatrix
  lrx hradius sub lry vradius sub translate hradius vradius scale
  0 0 1 0 90 arc tMatrix setmatrix ulx hradius add lry vradius sub
  translate hradius vradius scale 0 0 1 90 180 arc tMatrix setmatrix
  closepath} bdef
/FRR {MRR stroke } bdef
/PRR {MRR fill } bdef
/MlrRR {/lry xdef /lrx xdef /uly xdef /ulx xdef /rad lry uly sub 2 div def
  newpath tMatrix currentmatrix pop ulx rad add uly rad add translate
  rad rad scale 0 0 1 90 270 arc tMatrix setmatrix lrx rad sub lry rad
  sub translate rad rad scale 0 0 1 270 90 arc tMatrix setmatrix
  closepath} bdef
/FlrRR {MlrRR stroke } bdef
/PlrRR {MlrRR fill } bdef
/MtbRR {/lry xdef /lrx xdef /uly xdef /ulx xdef /rad lrx ulx sub 2 div def
  newpath tMatrix currentmatrix pop ulx rad add uly rad add translate
  rad rad scale 0 0 1 180 360 arc tMatrix setmatrix lrx rad sub lry rad
  sub translate rad rad scale 0 0 1 0 180 arc tMatrix setmatrix
  closepath} bdef
/FtbRR {MtbRR stroke } bdef
/PtbRR {MtbRR fill } bdef
/stri 6 array def /dtri 6 array def
/smat 6 array def /dmat 6 array def
/tmat1 6 array def /tmat2 6 array def /dif 3 array def
/asub {/ind2 exch def /ind1 exch def dup dup
  ind1 get exch ind2 get sub exch } bdef
/tri_to_matrix {
  2 0 asub 3 1 asub 4 0 asub 5 1 asub
  dup 0 get exch 1 get 7 -1 roll astore } bdef
/compute_transform {
  dmat dtri tri_to_matrix tmat1 invertmatrix 
  smat stri tri_to_matrix tmat2 concatmatrix } bdef
/ds {stri astore pop} bdef
/dt {dtri astore pop} bdef
/db {2 copy /cols xdef /rows xdef mul dup string
  currentfile exch readhexstring pop
  /bmap xdef pop pop} bdef
/it {gs np dtri aload pop moveto lineto lineto cp c
  cols rows 8 compute_transform 
  {bmap} image gr}bdef
/il {newpath moveto lineto stroke}bdef
currentdict end def
%%EndProlog

%%BeginSetup
MathWorks begin

0 cap

end
%%EndSetup

%%Page: 1 1
%%BeginPageSetup
%%PageBoundingBox:    70   198   546   602
MathWorks begin
bpage
%%EndPageSetup

%%BeginObject: obj1
bplot

/dpi2point 12 def
portraitMode 0216 7344 csm

  628   110  5719  4853 MR c np
85 dict begin %Colortable dictionary
/c0 { 0.000000 0.000000 0.000000 sr} bdef
/c1 { 1.000000 1.000000 1.000000 sr} bdef
/c2 { 0.900000 0.000000 0.000000 sr} bdef
/c3 { 0.000000 0.820000 0.000000 sr} bdef
/c4 { 0.000000 0.000000 0.800000 sr} bdef
/c5 { 0.910000 0.820000 0.320000 sr} bdef
/c6 { 1.000000 0.260000 0.820000 sr} bdef
/c7 { 0.000000 0.820000 0.820000 sr} bdef
c0
1 j
1 sg
   0    0 6913 5186 PR
6 w
0 4226 5356 0 0 -4226 899 4615 4 MP
PP
-5356 0 0 4226 5356 0 0 -4226 899 4615 5 MP stroke
4 w
DO
SO
6 w
0 sg
 899 4615 mt 6255 4615 L
 899 4615 mt  899  389 L
 899 4615 mt  899 4561 L
%%IncludeResource: font Helvetica
/Helvetica /ISOLatin1Encoding 120 FMSR

 866 4760 mt 
(0) s
1664 4615 mt 1664 4561 L
1631 4760 mt 
(1) s
2429 4615 mt 2429 4561 L
2396 4760 mt 
(2) s
3194 4615 mt 3194 4561 L
3161 4760 mt 
(3) s
3959 4615 mt 3959 4561 L
3926 4760 mt 
(4) s
4724 4615 mt 4724 4561 L
4691 4760 mt 
(5) s
5489 4615 mt 5489 4561 L
5456 4760 mt 
(6) s
6255 4615 mt 6255 4561 L
6222 4760 mt 
(7) s
5985 4962 mt 
(x 10) s
%%IncludeResource: font Helvetica
/Helvetica /ISOLatin1Encoding 80 FMSR

6211 4888 mt 
(7) s
 899 4615 mt  952 4615 L
%%IncludeResource: font Helvetica
/Helvetica /ISOLatin1Encoding 120 FMSR

 728 4659 mt 
(-1) s
 899 4192 mt  952 4192 L
 628 4236 mt 
(-0.8) s
 899 3769 mt  952 3769 L
 628 3813 mt 
(-0.6) s
 899 3347 mt  952 3347 L
 628 3391 mt 
(-0.4) s
 899 2924 mt  952 2924 L
 628 2968 mt 
(-0.2) s
 899 2502 mt  952 2502 L
 798 2546 mt 
(0) s
 899 2079 mt  952 2079 L
 698 2123 mt 
(0.2) s
 899 1656 mt  952 1656 L
 698 1700 mt 
(0.4) s
 899 1234 mt  952 1234 L
 698 1278 mt 
(0.6) s
 899  811 mt  952  811 L
 698  855 mt 
(0.8) s
 899  389 mt  952  389 L
 798  433 mt 
(1) s
gs 899 389 5357 4227 MR c np
0 j
gr

gs 826 2429 5473 147 MR c np
24 W
2182 2502 PD
gr

gs 899 389 5357 4227 MR c np
gr

gs 826 2429 5473 147 MR c np
24 W
2182 2502 PD
gr

gs 899 389 5357 4227 MR c np
gr

gs 826 2429 5473 147 MR c np
24 W
2183 2502 PD
gr

gs 899 389 5357 4227 MR c np
gr

gs 826 2429 5473 147 MR c np
24 W
2182 2502 PD
gr

gs 899 389 5357 4227 MR c np
gr

gs 826 2429 5473 147 MR c np
24 W
2184 2502 PD
gr

gs 899 389 5357 4227 MR c np
gr

gs 826 2429 5473 147 MR c np
24 W
2182 2502 PD
gr

gs 899 389 5357 4227 MR c np
gr

gs 826 2429 5473 147 MR c np
24 W
2182 2502 PD
gr

gs 899 389 5357 4227 MR c np
gr

gs 826 2429 5473 147 MR c np
24 W
2182 2502 PD
gr

gs 899 389 5357 4227 MR c np
gr

gs 826 2429 5473 147 MR c np
24 W
2183 2502 PD
gr

gs 899 389 5357 4227 MR c np
gr

gs 826 2429 5473 147 MR c np
24 W
2227 2502 PD
gr

gs 899 389 5357 4227 MR c np
gr

gs 826 2429 5473 147 MR c np
24 W
2229 2502 PD
gr

gs 899 389 5357 4227 MR c np
gr

gs 826 2429 5473 147 MR c np
24 W
2669 2502 PD
gr

gs 899 389 5357 4227 MR c np
gr

gs 826 2429 5473 147 MR c np
24 W
2649 2502 PD
gr

gs 899 389 5357 4227 MR c np
gr

gs 826 2429 5473 147 MR c np
24 W
2222 2502 PD
gr

gs 899 389 5357 4227 MR c np
gr

gs 826 2429 5473 147 MR c np
24 W
2223 2502 PD
gr

gs 899 389 5357 4227 MR c np
gr

gs 826 2429 5473 147 MR c np
24 W
2624 2502 PD
gr

gs 899 389 5357 4227 MR c np
gr

gs 826 2429 5473 147 MR c np
24 W
2605 2502 PD
gr

gs 899 389 5357 4227 MR c np
gr

gs 826 2429 5473 147 MR c np
24 W
2584 2502 PD
gr

gs 899 389 5357 4227 MR c np
gr

gs 826 2429 5473 147 MR c np
24 W
2217 2502 PD
gr

gs 899 389 5357 4227 MR c np
gr

gs 826 2429 5473 147 MR c np
24 W
2573 2502 PD
gr

gs 899 389 5357 4227 MR c np
gr

gs 826 2429 5473 147 MR c np
24 W
2559 2502 PD
gr

gs 899 389 5357 4227 MR c np
gr

gs 826 2429 5473 147 MR c np
24 W
2538 2502 PD
gr

gs 899 389 5357 4227 MR c np
gr

gs 826 2429 5473 147 MR c np
24 W
2214 2502 PD
gr

gs 899 389 5357 4227 MR c np
gr

gs 826 2429 5473 147 MR c np
24 W
2528 2502 PD
gr

gs 899 389 5357 4227 MR c np
gr

gs 826 2429 5473 147 MR c np
24 W
2508 2502 PD
gr

gs 899 389 5357 4227 MR c np
gr

gs 826 2429 5473 147 MR c np
24 W
2488 2502 PD
gr

gs 899 389 5357 4227 MR c np
gr

gs 826 2429 5473 147 MR c np
24 W
2207 2502 PD
gr

gs 899 389 5357 4227 MR c np
gr

gs 826 2429 5473 147 MR c np
24 W
2207 2502 PD
gr

gs 899 389 5357 4227 MR c np
gr

gs 826 2429 5473 147 MR c np
24 W
2464 2502 PD
gr

gs 899 389 5357 4227 MR c np
gr

gs 826 2429 5473 147 MR c np
24 W
2443 2502 PD
gr

gs 899 389 5357 4227 MR c np
gr

gs 826 2429 5473 147 MR c np
24 W
2202 2502 PD
gr

gs 899 389 5357 4227 MR c np
gr

gs 826 2429 5473 147 MR c np
24 W
2202 2502 PD
gr

gs 899 389 5357 4227 MR c np
gr

gs 826 2429 5473 147 MR c np
24 W
2413 2502 PD
gr

gs 899 389 5357 4227 MR c np
gr

gs 826 2429 5473 147 MR c np
24 W
2398 2502 PD
gr

gs 899 389 5357 4227 MR c np
gr

gs 826 2429 5473 147 MR c np
24 W
2198 2502 PD
gr

gs 899 389 5357 4227 MR c np
gr

gs 826 2429 5473 147 MR c np
24 W
2197 2502 PD
gr

gs 899 389 5357 4227 MR c np
gr

gs 826 2429 5473 147 MR c np
24 W
2370 2502 PD
gr

gs 899 389 5357 4227 MR c np
gr

gs 826 2429 5473 147 MR c np
24 W
2348 2502 PD
gr

gs 899 389 5357 4227 MR c np
gr

gs 826 2429 5473 147 MR c np
24 W
2192 2502 PD
gr

gs 899 389 5357 4227 MR c np
gr

gs 826 2429 5473 147 MR c np
24 W
2192 2502 PD
gr

gs 899 389 5357 4227 MR c np
gr

gs 826 2429 5473 147 MR c np
24 W
2323 2502 PD
gr

gs 899 389 5357 4227 MR c np
gr

gs 826 2429 5473 147 MR c np
24 W
2303 2502 PD
gr

gs 899 389 5357 4227 MR c np
gr

gs 826 2429 5473 147 MR c np
24 W
2284 2502 PD
gr

gs 899 389 5357 4227 MR c np
gr

gs 826 2429 5473 147 MR c np
24 W
2187 2502 PD
gr

gs 899 389 5357 4227 MR c np
gr

gs 826 2429 5473 147 MR c np
24 W
2272 2502 PD
gr

gs 899 389 5357 4227 MR c np
gr

gs 826 2429 5473 147 MR c np
24 W
2252 2502 PD
gr

gs 899 389 5357 4227 MR c np
gr

gs 826 2429 5473 147 MR c np
24 W
2238 2502 PD
gr

gs 899 389 5357 4227 MR c np
gr

gs 826 2429 5473 147 MR c np
24 W
2182 2502 PD
gr

gs 899 389 5357 4227 MR c np
gr

gs 826 2429 5473 147 MR c np
24 W
2229 2502 PD
gr

gs 899 389 5357 4227 MR c np
gr

gs 826 2429 5473 147 MR c np
24 W
2207 2502 PD
gr

gs 899 389 5357 4227 MR c np
gr

gs 826 2429 5473 147 MR c np
24 W
2187 2502 PD
gr

gs 899 389 5357 4227 MR c np
gr

gs 826 2429 5473 147 MR c np
24 W
899 2502 PD
gr

gs 899 389 5357 4227 MR c np
gr

gs 826 2429 5473 147 MR c np
24 W
899 2502 PD
gr

gs 899 389 5357 4227 MR c np
gr

gs 826 2429 5473 147 MR c np
24 W
899 2502 PD
gr

gs 899 389 5357 4227 MR c np
gr

gs 826 2429 5473 147 MR c np
24 W
900 2502 PD
gr

gs 899 389 5357 4227 MR c np
gr

gs 826 2429 5473 147 MR c np
24 W
899 2502 PD
gr

gs 899 389 5357 4227 MR c np
gr

gs 826 2429 5473 147 MR c np
24 W
899 2502 PD
gr

gs 899 389 5357 4227 MR c np
gr

gs 826 2429 5473 147 MR c np
24 W
899 2502 PD
gr

gs 899 389 5357 4227 MR c np
gr

gs 826 2429 5473 147 MR c np
24 W
899 2502 PD
gr

gs 899 389 5357 4227 MR c np
gr

gs 826 2429 5473 147 MR c np
24 W
899 2502 PD
gr

gs 899 389 5357 4227 MR c np
gr

gs 826 2429 5473 147 MR c np
24 W
900 2502 PD
gr

gs 899 389 5357 4227 MR c np
gr

gs 826 2429 5473 147 MR c np
24 W
899 2502 PD
gr

gs 899 389 5357 4227 MR c np
gr

gs 826 2429 5473 147 MR c np
24 W
899 2502 PD
gr

gs 899 389 5357 4227 MR c np
gr

gs 826 2429 5473 147 MR c np
24 W
899 2502 PD
gr

gs 899 389 5357 4227 MR c np
gr

gs 826 2429 5473 147 MR c np
24 W
899 2502 PD
gr

gs 899 389 5357 4227 MR c np
gr

gs 826 2429 5473 147 MR c np
24 W
899 2502 PD
gr

gs 899 389 5357 4227 MR c np
gr

gs 826 2429 5473 147 MR c np
24 W
899 2502 PD
gr

gs 899 389 5357 4227 MR c np
gr

gs 826 2429 5473 147 MR c np
24 W
900 2502 PD
gr

gs 899 389 5357 4227 MR c np
gr

gs 826 2429 5473 147 MR c np
24 W
899 2502 PD
gr

gs 899 389 5357 4227 MR c np
gr

gs 826 2429 5473 147 MR c np
24 W
899 2502 PD
gr

gs 899 389 5357 4227 MR c np
gr

gs 826 2429 5473 147 MR c np
24 W
899 2502 PD
gr

gs 899 389 5357 4227 MR c np
gr

gs 826 2429 5473 147 MR c np
24 W
899 2502 PD
gr

gs 899 389 5357 4227 MR c np
gr

gs 826 2429 5473 147 MR c np
24 W
899 2502 PD
gr

gs 899 389 5357 4227 MR c np
gr

gs 826 2429 5473 147 MR c np
24 W
900 2502 PD
gr

gs 899 389 5357 4227 MR c np
gr

gs 826 2429 5473 147 MR c np
24 W
899 2502 PD
gr

gs 899 389 5357 4227 MR c np
gr

gs 826 2429 5473 147 MR c np
24 W
944 2502 PD
gr

gs 899 389 5357 4227 MR c np
gr

gs 826 2429 5473 147 MR c np
24 W
1395 2502 PD
gr

gs 899 389 5357 4227 MR c np
gr

gs 826 2429 5473 147 MR c np
24 W
1380 2502 PD
gr

gs 899 389 5357 4227 MR c np
gr

gs 826 2429 5473 147 MR c np
24 W
1360 2502 PD
gr

gs 899 389 5357 4227 MR c np
gr

gs 826 2429 5473 147 MR c np
24 W
940 2502 PD
gr

gs 899 389 5357 4227 MR c np
gr

gs 826 2429 5473 147 MR c np
24 W
939 2502 PD
gr

gs 899 389 5357 4227 MR c np
gr

gs 826 2429 5473 147 MR c np
24 W
1330 2502 PD
gr

gs 899 389 5357 4227 MR c np
gr

gs 826 2429 5473 147 MR c np
24 W
1310 2502 PD
gr

gs 899 389 5357 4227 MR c np
gr

gs 826 2429 5473 147 MR c np
24 W
934 2502 PD
gr

gs 899 389 5357 4227 MR c np
gr

gs 826 2429 5473 147 MR c np
24 W
934 2502 PD
gr

gs 899 389 5357 4227 MR c np
gr

gs 826 2429 5473 147 MR c np
24 W
1286 2502 PD
gr

gs 899 389 5357 4227 MR c np
gr

gs 826 2429 5473 147 MR c np
24 W
1265 2502 PD
gr

gs 899 389 5357 4227 MR c np
gr

gs 826 2429 5473 147 MR c np
24 W
929 2502 PD
gr

gs 899 389 5357 4227 MR c np
gr

gs 826 2429 5473 147 MR c np
24 W
929 2502 PD
gr

gs 899 389 5357 4227 MR c np
gr

gs 826 2429 5473 147 MR c np
24 W
1240 2502 PD
gr

gs 899 389 5357 4227 MR c np
gr

gs 826 2429 5473 147 MR c np
24 W
1219 2502 PD
gr

gs 899 389 5357 4227 MR c np
gr

gs 826 2429 5473 147 MR c np
24 W
1200 2502 PD
gr

gs 899 389 5357 4227 MR c np
gr

gs 826 2429 5473 147 MR c np
24 W
924 2502 PD
gr

gs 899 389 5357 4227 MR c np
gr

gs 826 2429 5473 147 MR c np
24 W
1189 2502 PD
gr

gs 899 389 5357 4227 MR c np
gr

gs 826 2429 5473 147 MR c np
24 W
1169 2502 PD
gr

gs 899 389 5357 4227 MR c np
gr

gs 826 2429 5473 147 MR c np
24 W
1149 2502 PD
gr

gs 899 389 5357 4227 MR c np
gr

gs 826 2429 5473 147 MR c np
24 W
919 2502 PD
gr

gs 899 389 5357 4227 MR c np
gr

gs 826 2429 5473 147 MR c np
24 W
1145 2502 PD
gr

gs 899 389 5357 4227 MR c np
gr

gs 826 2429 5473 147 MR c np
24 W
1124 2502 PD
gr

gs 899 389 5357 4227 MR c np
gr

gs 826 2429 5473 147 MR c np
24 W
1106 2502 PD
gr

gs 899 389 5357 4227 MR c np
gr

gs 826 2429 5473 147 MR c np
24 W
914 2502 PD
gr

gs 899 389 5357 4227 MR c np
gr

gs 826 2429 5473 147 MR c np
24 W
1094 2502 PD
gr

gs 899 389 5357 4227 MR c np
gr

gs 826 2429 5473 147 MR c np
24 W
1079 2502 PD
gr

gs 899 389 5357 4227 MR c np
gr

gs 826 2429 5473 147 MR c np
24 W
1060 2502 PD
gr

gs 899 389 5357 4227 MR c np
gr

gs 826 2429 5473 147 MR c np
24 W
909 2502 PD
gr

gs 899 389 5357 4227 MR c np
gr

gs 826 2429 5473 147 MR c np
24 W
910 2502 PD
gr

gs 899 389 5357 4227 MR c np
gr

gs 826 2429 5473 147 MR c np
24 W
1029 2502 PD
gr

gs 899 389 5357 4227 MR c np
gr

gs 826 2429 5473 147 MR c np
24 W
1009 2502 PD
gr

gs 899 389 5357 4227 MR c np
gr

gs 826 2429 5473 147 MR c np
24 W
904 2502 PD
gr

gs 899 389 5357 4227 MR c np
gr

gs 826 2429 5473 147 MR c np
24 W
904 2502 PD
gr

gs 899 389 5357 4227 MR c np
gr

gs 826 2429 5473 147 MR c np
24 W
984 2502 PD
gr

gs 899 389 5357 4227 MR c np
gr

gs 826 2429 5473 147 MR c np
24 W
965 2502 PD
gr

gs 899 389 5357 4227 MR c np
gr

gs 826 2429 5473 147 MR c np
24 W
899 2502 PD
gr

gs 899 389 5357 4227 MR c np
gr

gs 826 2429 5473 147 MR c np
24 W
899 2502 PD
gr

gs 899 389 5357 4227 MR c np
gr

gs 826 2429 5473 147 MR c np
24 W
934 2502 PD
gr

gs 899 389 5357 4227 MR c np
gr

gs 826 2429 5473 147 MR c np
24 W
919 2502 PD
gr

gs 899 389 5357 4227 MR c np
gr

gs 826 2429 5473 147 MR c np
24 W
899 2502 PD
gr

gs 899 389 5357 4227 MR c np
gr

gs 826 2429 5473 147 MR c np
24 W
899 2502 PD
gr

gs 899 389 5357 4227 MR c np
gr

gs 826 2429 5473 147 MR c np
24 W
6048 2502 PD
gr

gs 899 389 5357 4227 MR c np
gr

gs 826 2429 5473 147 MR c np
24 W
6049 2502 PD
gr

gs 899 389 5357 4227 MR c np
gr

gs 826 2429 5473 147 MR c np
24 W
6225 2502 PD
gr

gs 899 389 5357 4227 MR c np
gr

gs 826 2429 5473 147 MR c np
24 W
6205 2502 PD
gr

gs 899 389 5357 4227 MR c np
gr

gs 826 2429 5473 147 MR c np
24 W
6186 2502 PD
gr

gs 899 389 5357 4227 MR c np
gr

gs 826 2429 5473 147 MR c np
24 W
6043 2502 PD
gr

gs 899 389 5357 4227 MR c np
gr

gs 826 2429 5473 147 MR c np
24 W
6174 2502 PD
gr

gs 899 389 5357 4227 MR c np
gr

gs 826 2429 5473 147 MR c np
24 W
6159 2502 PD
gr

gs 899 389 5357 4227 MR c np
gr

gs 826 2429 5473 147 MR c np
24 W
6139 2502 PD
gr

gs 899 389 5357 4227 MR c np
gr

gs 826 2429 5473 147 MR c np
24 W
6039 2502 PD
gr

gs 899 389 5357 4227 MR c np
gr

gs 826 2429 5473 147 MR c np
24 W
6130 2502 PD
gr

gs 899 389 5357 4227 MR c np
gr

gs 826 2429 5473 147 MR c np
24 W
6109 2502 PD
gr

gs 899 389 5357 4227 MR c np
gr

gs 826 2429 5473 147 MR c np
24 W
6088 2502 PD
gr

gs 899 389 5357 4227 MR c np
gr

gs 826 2429 5473 147 MR c np
24 W
6033 2502 PD
gr

gs 899 389 5357 4227 MR c np
gr

gs 826 2429 5473 147 MR c np
24 W
6034 2502 PD
gr

gs 899 389 5357 4227 MR c np
gr

gs 826 2429 5473 147 MR c np
24 W
6064 2502 PD
gr

gs 899 389 5357 4227 MR c np
gr

gs 826 2429 5473 147 MR c np
24 W
6045 2502 PD
gr

gs 899 389 5357 4227 MR c np
gr

gs 826 2429 5473 147 MR c np
24 W
4750 2502 PD
gr

gs 899 389 5357 4227 MR c np
gr

gs 826 2429 5473 147 MR c np
24 W
4750 2502 PD
gr

gs 899 389 5357 4227 MR c np
gr

gs 826 2429 5473 147 MR c np
24 W
4750 2502 PD
gr

gs 899 389 5357 4227 MR c np
gr

gs 826 2429 5473 147 MR c np
24 W
4750 2502 PD
gr

gs 899 389 5357 4227 MR c np
gr

gs 826 2429 5473 147 MR c np
24 W
4750 2502 PD
gr

gs 899 389 5357 4227 MR c np
gr

gs 826 2429 5473 147 MR c np
24 W
4751 2502 PD
gr

gs 899 389 5357 4227 MR c np
gr

gs 826 2429 5473 147 MR c np
24 W
4751 2502 PD
gr

gs 899 389 5357 4227 MR c np
gr

gs 826 2429 5473 147 MR c np
24 W
4750 2502 PD
gr

gs 899 389 5357 4227 MR c np
gr

gs 826 2429 5473 147 MR c np
24 W
4750 2502 PD
gr

gs 899 389 5357 4227 MR c np
gr

gs 826 2429 5473 147 MR c np
24 W
4750 2502 PD
gr

gs 899 389 5357 4227 MR c np
gr

gs 826 2429 5473 147 MR c np
24 W
4750 2502 PD
gr

gs 899 389 5357 4227 MR c np
gr

gs 826 2429 5473 147 MR c np
24 W
4751 2502 PD
gr

gs 899 389 5357 4227 MR c np
gr

gs 826 2429 5473 147 MR c np
24 W
4751 2502 PD
gr

gs 899 389 5357 4227 MR c np
gr

gs 826 2429 5473 147 MR c np
24 W
4750 2502 PD
gr

gs 899 389 5357 4227 MR c np
gr

gs 826 2429 5473 147 MR c np
24 W
4750 2502 PD
gr

gs 899 389 5357 4227 MR c np
gr

gs 826 2429 5473 147 MR c np
24 W
4750 2502 PD
gr

gs 899 389 5357 4227 MR c np
gr

gs 826 2429 5473 147 MR c np
24 W
4750 2502 PD
gr

gs 899 389 5357 4227 MR c np
gr

gs 826 2429 5473 147 MR c np
24 W
4750 2502 PD
gr

gs 899 389 5357 4227 MR c np
gr

gs 826 2429 5473 147 MR c np
24 W
4751 2502 PD
gr

gs 899 389 5357 4227 MR c np
gr

gs 826 2429 5473 147 MR c np
24 W
4750 2502 PD
gr

gs 899 389 5357 4227 MR c np
gr

gs 826 2429 5473 147 MR c np
24 W
4750 2502 PD
gr

gs 899 389 5357 4227 MR c np
gr

gs 826 2429 5473 147 MR c np
24 W
4750 2502 PD
gr

gs 899 389 5357 4227 MR c np
gr

gs 826 2429 5473 147 MR c np
24 W
4750 2502 PD
gr

gs 899 389 5357 4227 MR c np
gr

gs 826 2429 5473 147 MR c np
24 W
4750 2502 PD
gr

gs 899 389 5357 4227 MR c np
gr

gs 826 2429 5473 147 MR c np
24 W
4751 2502 PD
gr

gs 899 389 5357 4227 MR c np
gr

gs 826 2429 5473 147 MR c np
24 W
4795 2502 PD
gr

gs 899 389 5357 4227 MR c np
gr

gs 826 2429 5473 147 MR c np
24 W
4795 2502 PD
gr

gs 899 389 5357 4227 MR c np
gr

gs 826 2429 5473 147 MR c np
24 W
5231 2502 PD
gr

gs 899 389 5357 4227 MR c np
gr

gs 826 2429 5473 147 MR c np
24 W
5216 2502 PD
gr

gs 899 389 5357 4227 MR c np
gr

gs 826 2429 5473 147 MR c np
24 W
4790 2502 PD
gr

gs 899 389 5357 4227 MR c np
gr

gs 826 2429 5473 147 MR c np
24 W
4791 2502 PD
gr

gs 899 389 5357 4227 MR c np
gr

gs 826 2429 5473 147 MR c np
24 W
5186 2502 PD
gr

gs 899 389 5357 4227 MR c np
gr

gs 826 2429 5473 147 MR c np
24 W
5166 2502 PD
gr

gs 899 389 5357 4227 MR c np
gr

gs 826 2429 5473 147 MR c np
24 W
4785 2502 PD
gr

gs 899 389 5357 4227 MR c np
gr

gs 826 2429 5473 147 MR c np
24 W
4785 2502 PD
gr

gs 899 389 5357 4227 MR c np
gr

gs 826 2429 5473 147 MR c np
24 W
5141 2502 PD
gr

gs 899 389 5357 4227 MR c np
gr

gs 826 2429 5473 147 MR c np
24 W
5122 2502 PD
gr

gs 899 389 5357 4227 MR c np
gr

gs 826 2429 5473 147 MR c np
24 W
5101 2502 PD
gr

gs 899 389 5357 4227 MR c np
gr

gs 826 2429 5473 147 MR c np
24 W
4782 2502 PD
gr

gs 899 389 5357 4227 MR c np
gr

gs 826 2429 5473 147 MR c np
24 W
5091 2502 PD
gr

gs 899 389 5357 4227 MR c np
gr

gs 826 2429 5473 147 MR c np
24 W
5071 2502 PD
gr

gs 899 389 5357 4227 MR c np
gr

gs 826 2429 5473 147 MR c np
24 W
5055 2502 PD
gr

gs 899 389 5357 4227 MR c np
gr

gs 826 2429 5473 147 MR c np
24 W
4775 2502 PD
gr

gs 899 389 5357 4227 MR c np
gr

gs 826 2429 5473 147 MR c np
24 W
5046 2502 PD
gr

gs 899 389 5357 4227 MR c np
gr

gs 826 2429 5473 147 MR c np
24 W
5027 2502 PD
gr

gs 899 389 5357 4227 MR c np
gr

gs 826 2429 5473 147 MR c np
24 W
5005 2502 PD
gr

gs 899 389 5357 4227 MR c np
gr

gs 826 2429 5473 147 MR c np
24 W
4770 2502 PD
gr

gs 899 389 5357 4227 MR c np
gr

gs 826 2429 5473 147 MR c np
24 W
4995 2502 PD
gr

gs 899 389 5357 4227 MR c np
gr

gs 826 2429 5473 147 MR c np
24 W
4981 2502 PD
gr

gs 899 389 5357 4227 MR c np
gr

gs 826 2429 5473 147 MR c np
24 W
4960 2502 PD
gr

gs 899 389 5357 4227 MR c np
gr

gs 826 2429 5473 147 MR c np
24 W
4766 2502 PD
gr

gs 899 389 5357 4227 MR c np
gr

gs 826 2429 5473 147 MR c np
24 W
4765 2502 PD
gr

gs 899 389 5357 4227 MR c np
gr

gs 826 2429 5473 147 MR c np
24 W
4930 2502 PD
gr

gs 899 389 5357 4227 MR c np
gr

gs 826 2429 5473 147 MR c np
24 W
4910 2502 PD
gr

gs 899 389 5357 4227 MR c np
gr

gs 826 2429 5473 147 MR c np
24 W
4760 2502 PD
gr

gs 899 389 5357 4227 MR c np
gr

gs 826 2429 5473 147 MR c np
24 W
4760 2502 PD
gr

gs 899 389 5357 4227 MR c np
gr

gs 826 2429 5473 147 MR c np
24 W
4886 2502 PD
gr

gs 899 389 5357 4227 MR c np
gr

gs 826 2429 5473 147 MR c np
24 W
4865 2502 PD
gr

gs 899 389 5357 4227 MR c np
gr

gs 826 2429 5473 147 MR c np
24 W
4755 2502 PD
gr

gs 899 389 5357 4227 MR c np
gr

gs 826 2429 5473 147 MR c np
24 W
4755 2502 PD
gr

gs 899 389 5357 4227 MR c np
gr

gs 826 2429 5473 147 MR c np
24 W
4840 2502 PD
gr

gs 899 389 5357 4227 MR c np
gr

gs 826 2429 5473 147 MR c np
24 W
4820 2502 PD
gr

gs 899 389 5357 4227 MR c np
gr

gs 826 2429 5473 147 MR c np
24 W
4801 2502 PD
gr

gs 899 389 5357 4227 MR c np
gr

gs 826 2429 5473 147 MR c np
24 W
4750 2502 PD
gr

gs 899 389 5357 4227 MR c np
gr

gs 826 2429 5473 147 MR c np
24 W
4790 2502 PD
gr

gs 899 389 5357 4227 MR c np
gr

gs 826 2429 5473 147 MR c np
24 W
4770 2502 PD
gr

gs 899 389 5357 4227 MR c np
gr

gs 826 2429 5473 147 MR c np
24 W
4750 2502 PD
gr

gs 899 389 5357 4227 MR c np
gr

gs 826 2429 5473 147 MR c np
24 W
3466 2502 PD
gr

gs 899 389 5357 4227 MR c np
gr

gs 826 2429 5473 147 MR c np
24 W
3467 2502 PD
gr

gs 899 389 5357 4227 MR c np
gr

gs 826 2429 5473 147 MR c np
24 W
3466 2502 PD
gr

gs 899 389 5357 4227 MR c np
gr

gs 826 2429 5473 147 MR c np
24 W
3468 2502 PD
gr

gs 899 389 5357 4227 MR c np
gr

gs 826 2429 5473 147 MR c np
24 W
3466 2502 PD
gr

gs 899 389 5357 4227 MR c np
gr

gs 826 2429 5473 147 MR c np
24 W
3466 2502 PD
gr

gs 899 389 5357 4227 MR c np
gr

gs 826 2429 5473 147 MR c np
24 W
3466 2502 PD
gr

gs 899 389 5357 4227 MR c np
gr

gs 826 2429 5473 147 MR c np
24 W
3467 2502 PD
gr

gs 899 389 5357 4227 MR c np
gr

gs 826 2429 5473 147 MR c np
24 W
3466 2502 PD
gr

gs 899 389 5357 4227 MR c np
gr

gs 826 2429 5473 147 MR c np
24 W
3468 2502 PD
gr

gs 899 389 5357 4227 MR c np
gr

gs 826 2429 5473 147 MR c np
24 W
3466 2502 PD
gr

gs 899 389 5357 4227 MR c np
gr

gs 826 2429 5473 147 MR c np
24 W
3466 2502 PD
gr

gs 899 389 5357 4227 MR c np
gr

gs 826 2429 5473 147 MR c np
24 W
3466 2502 PD
gr

gs 899 389 5357 4227 MR c np
gr

gs 826 2429 5473 147 MR c np
24 W
3466 2502 PD
gr

gs 899 389 5357 4227 MR c np
gr

gs 826 2429 5473 147 MR c np
24 W
3466 2502 PD
gr

gs 899 389 5357 4227 MR c np
gr

gs 826 2429 5473 147 MR c np
24 W
3467 2502 PD
gr

gs 899 389 5357 4227 MR c np
gr

gs 826 2429 5473 147 MR c np
24 W
3466 2502 PD
gr

gs 899 389 5357 4227 MR c np
gr

gs 826 2429 5473 147 MR c np
24 W
3466 2502 PD
gr

gs 899 389 5357 4227 MR c np
gr

gs 826 2429 5473 147 MR c np
24 W
3466 2502 PD
gr

gs 899 389 5357 4227 MR c np
gr

gs 826 2429 5473 147 MR c np
24 W
3466 2502 PD
gr

gs 899 389 5357 4227 MR c np
gr

gs 826 2429 5473 147 MR c np
24 W
3466 2502 PD
gr

gs 899 389 5357 4227 MR c np
gr

gs 826 2429 5473 147 MR c np
24 W
3467 2502 PD
gr

gs 899 389 5357 4227 MR c np
gr

gs 826 2429 5473 147 MR c np
24 W
3466 2502 PD
gr

gs 899 389 5357 4227 MR c np
gr

gs 826 2429 5473 147 MR c np
24 W
3466 2502 PD
gr

gs 899 389 5357 4227 MR c np
gr

gs 826 2429 5473 147 MR c np
24 W
3466 2502 PD
gr

gs 899 389 5357 4227 MR c np
gr

gs 826 2429 5473 147 MR c np
24 W
3511 2502 PD
gr

gs 899 389 5357 4227 MR c np
gr

gs 826 2429 5473 147 MR c np
24 W
3962 2502 PD
gr

gs 899 389 5357 4227 MR c np
gr

gs 826 2429 5473 147 MR c np
24 W
3943 2502 PD
gr

gs 899 389 5357 4227 MR c np
gr

gs 826 2429 5473 147 MR c np
24 W
3922 2502 PD
gr

gs 899 389 5357 4227 MR c np
gr

gs 826 2429 5473 147 MR c np
24 W
3506 2502 PD
gr

gs 899 389 5357 4227 MR c np
gr

gs 826 2429 5473 147 MR c np
24 W
3912 2502 PD
gr

gs 899 389 5357 4227 MR c np
gr

gs 826 2429 5473 147 MR c np
24 W
3892 2502 PD
gr

gs 899 389 5357 4227 MR c np
gr

gs 826 2429 5473 147 MR c np
24 W
3877 2502 PD
gr

gs 899 389 5357 4227 MR c np
gr

gs 826 2429 5473 147 MR c np
24 W
3502 2502 PD
gr

gs 899 389 5357 4227 MR c np
gr

gs 826 2429 5473 147 MR c np
24 W
3501 2502 PD
gr

gs 899 389 5357 4227 MR c np
gr

gs 826 2429 5473 147 MR c np
24 W
3849 2502 PD
gr

gs 899 389 5357 4227 MR c np
gr

gs 826 2429 5473 147 MR c np
24 W
3827 2502 PD
gr

gs 899 389 5357 4227 MR c np
gr

gs 826 2429 5473 147 MR c np
24 W
929 2502 PD
gr

gs 899 389 5357 4227 MR c np
gr

gs 826 2429 5473 147 MR c np
24 W
3496 2502 PD
gr

gs 899 389 5357 4227 MR c np
gr

gs 826 2429 5473 147 MR c np
24 W
3803 2502 PD
gr

gs 899 389 5357 4227 MR c np
gr

gs 826 2429 5473 147 MR c np
24 W
3782 2502 PD
gr

gs 899 389 5357 4227 MR c np
gr

gs 826 2429 5473 147 MR c np
24 W
3493 2502 PD
gr

gs 899 389 5357 4227 MR c np
gr

gs 826 2429 5473 147 MR c np
24 W
3491 2502 PD
gr

gs 899 389 5357 4227 MR c np
gr

gs 826 2429 5473 147 MR c np
24 W
3752 2502 PD
gr

gs 899 389 5357 4227 MR c np
gr

gs 826 2429 5473 147 MR c np
24 W
3732 2502 PD
gr

gs 899 389 5357 4227 MR c np
gr

gs 826 2429 5473 147 MR c np
24 W
3717 2502 PD
gr

gs 899 389 5357 4227 MR c np
gr

gs 826 2429 5473 147 MR c np
24 W
3486 2502 PD
gr

gs 899 389 5357 4227 MR c np
gr

gs 826 2429 5473 147 MR c np
24 W
3708 2502 PD
gr

gs 899 389 5357 4227 MR c np
gr

gs 826 2429 5473 147 MR c np
24 W
3687 2502 PD
gr

gs 899 389 5357 4227 MR c np
gr

gs 826 2429 5473 147 MR c np
24 W
3666 2502 PD
gr

gs 899 389 5357 4227 MR c np
gr

gs 826 2429 5473 147 MR c np
24 W
3481 2502 PD
gr

gs 899 389 5357 4227 MR c np
gr

gs 826 2429 5473 147 MR c np
24 W
3662 2502 PD
gr

gs 899 389 5357 4227 MR c np
gr

gs 826 2429 5473 147 MR c np
24 W
3641 2502 PD
gr

gs 899 389 5357 4227 MR c np
gr

gs 826 2429 5473 147 MR c np
24 W
3623 2502 PD
gr

gs 899 389 5357 4227 MR c np
gr

gs 826 2429 5473 147 MR c np
24 W
3476 2502 PD
gr

gs 899 389 5357 4227 MR c np
gr

gs 826 2429 5473 147 MR c np
24 W
3611 2502 PD
gr

gs 899 389 5357 4227 MR c np
gr

gs 826 2429 5473 147 MR c np
24 W
3591 2502 PD
gr

gs 899 389 5357 4227 MR c np
gr

gs 826 2429 5473 147 MR c np
24 W
3576 2502 PD
gr

gs 899 389 5357 4227 MR c np
gr

gs 826 2429 5473 147 MR c np
24 W
3471 2502 PD
gr

gs 899 389 5357 4227 MR c np
gr

gs 826 2429 5473 147 MR c np
24 W
3472 2502 PD
gr

gs 899 389 5357 4227 MR c np
gr

gs 826 2429 5473 147 MR c np
24 W
3548 2502 PD
gr

gs 899 389 5357 4227 MR c np
gr

gs 826 2429 5473 147 MR c np
24 W
3526 2502 PD
gr

gs 899 389 5357 4227 MR c np
gr

gs 826 2429 5473 147 MR c np
24 W
3466 2502 PD
gr

gs 899 389 5357 4227 MR c np
gr

gs 826 2429 5473 147 MR c np
24 W
3466 2502 PD
gr

gs 899 389 5357 4227 MR c np
gr

gs 826 2429 5473 147 MR c np
24 W
3501 2502 PD
gr

gs 899 389 5357 4227 MR c np
gr

gs 826 2429 5473 147 MR c np
24 W
3482 2502 PD
gr

gs 899 389 5357 4227 MR c np
gr

gs 826 2429 5473 147 MR c np
24 W
2184 2502 PD
gr

gs 899 389 5357 4227 MR c np
gr

gs 826 2429 5473 147 MR c np
24 W
2184 2502 PD
gr

gs 899 389 5357 4227 MR c np
gr

gs 826 2429 5473 147 MR c np
24 W
2182 2502 PD
gr

gs 899 389 5357 4227 MR c np
gr

gs 826 2429 5473 147 MR c np
24 W
2182 2502 PD
gr

gs 899 389 5357 4227 MR c np
gr

gs 826 2429 5473 147 MR c np
24 W
2182 2502 PD
gr

gs 899 389 5357 4227 MR c np
gr

gs 826 2429 5473 147 MR c np
24 W
2183 2502 PD
gr

gs 899 389 5357 4227 MR c np
gr

gs 826 2429 5473 147 MR c np
24 W
2183 2502 PD
gr

gs 899 389 5357 4227 MR c np
gr

gs 826 2429 5473 147 MR c np
24 W
2184 2502 PD
gr

gs 899 389 5357 4227 MR c np
gr

gs 826 2429 5473 147 MR c np
24 W
2182 2502 PD
gr

gs 899 389 5357 4227 MR c np
gr

gs 826 2429 5473 147 MR c np
24 W
2182 2502 PD
gr

gs 899 389 5357 4227 MR c np
gr

gs 826 2429 5473 147 MR c np
24 W
2182 2502 PD
gr

gs 899 389 5357 4227 MR c np
gr

gs 826 2429 5473 147 MR c np
24 W
2183 2502 PD
gr

gs 899 389 5357 4227 MR c np
gr

gs 826 2429 5473 147 MR c np
24 W
2183 2502 PD
gr

gs 899 389 5357 4227 MR c np
gr

gs 826 2429 5473 147 MR c np
24 W
2184 2502 PD
gr

gs 899 389 5357 4227 MR c np
gr

gs 826 2429 5473 147 MR c np
24 W
2182 2502 PD
gr

gs 899 389 5357 4227 MR c np
gr

gs 826 2429 5473 147 MR c np
24 W
2182 2502 PD
gr

gs 899 389 5357 4227 MR c np
gr

gs 826 2429 5473 147 MR c np
24 W
2182 2502 PD
gr

gs 899 389 5357 4227 MR c np
gr

gs 826 2429 5473 147 MR c np
24 W
2183 2502 PD
gr

gs 899 389 5357 4227 MR c np
gr

gs 826 2429 5473 147 MR c np
24 W
2183 2502 PD
gr

gs 899 389 5357 4227 MR c np
gr

gs 826 2429 5473 147 MR c np
24 W
2184 2502 PD
gr

gs 899 389 5357 4227 MR c np
gr

gs 826 2429 5473 147 MR c np
24 W
2184 2502 PD
gr

gs 899 389 5357 4227 MR c np
gr

gs 826 2429 5473 147 MR c np
24 W
2182 2502 PD
gr

gs 899 389 5357 4227 MR c np
gr

gs 826 2429 5473 147 MR c np
24 W
2182 2502 PD
gr

gs 899 389 5357 4227 MR c np
gr

gs 826 2429 5473 147 MR c np
24 W
2182 2502 PD
gr

gs 899 389 5357 4227 MR c np
gr

gs 826 2429 5473 147 MR c np
24 W
2183 2502 PD
gr

gs 899 389 5357 4227 MR c np
gr

gs 826 2429 5473 147 MR c np
24 W
2228 2502 PD
gr

gs 899 389 5357 4227 MR c np
gr

gs 826 2429 5473 147 MR c np
24 W
2229 2502 PD
gr

gs 899 389 5357 4227 MR c np
gr

gs 826 2429 5473 147 MR c np
24 W
2669 2502 PD
gr

gs 899 389 5357 4227 MR c np
gr

gs 826 2429 5473 147 MR c np
24 W
2649 2502 PD
gr

gs 899 389 5357 4227 MR c np
gr

gs 826 2429 5473 147 MR c np
24 W
2222 2502 PD
gr

gs 899 389 5357 4227 MR c np
gr

gs 826 2429 5473 147 MR c np
24 W
2223 2502 PD
gr

gs 899 389 5357 4227 MR c np
gr

gs 826 2429 5473 147 MR c np
24 W
2624 2502 PD
gr

gs 899 389 5357 4227 MR c np
gr

gs 826 2429 5473 147 MR c np
24 W
2605 2502 PD
gr

gs 899 389 5357 4227 MR c np
gr

gs 826 2429 5473 147 MR c np
24 W
2584 2502 PD
gr

gs 899 389 5357 4227 MR c np
gr

gs 826 2429 5473 147 MR c np
24 W
2217 2502 PD
gr

gs 899 389 5357 4227 MR c np
gr

gs 826 2429 5473 147 MR c np
24 W
2573 2502 PD
gr

gs 899 389 5357 4227 MR c np
gr

gs 826 2429 5473 147 MR c np
24 W
2559 2502 PD
gr

gs 899 389 5357 4227 MR c np
gr

gs 826 2429 5473 147 MR c np
24 W
2538 2502 PD
gr

gs 899 389 5357 4227 MR c np
gr

gs 826 2429 5473 147 MR c np
24 W
900 2502 PD
gr

gs 899 389 5357 4227 MR c np
gr

gs 826 2429 5473 147 MR c np
24 W
2528 2502 PD
gr

gs 899 389 5357 4227 MR c np
gr

gs 826 2429 5473 147 MR c np
24 W
2508 2502 PD
gr

gs 899 389 5357 4227 MR c np
gr

gs 826 2429 5473 147 MR c np
24 W
2488 2502 PD
gr

gs 899 389 5357 4227 MR c np
gr

gs 826 2429 5473 147 MR c np
24 W
2207 2502 PD
gr

gs 899 389 5357 4227 MR c np
gr

gs 826 2429 5473 147 MR c np
24 W
2207 2502 PD
gr

gs 899 389 5357 4227 MR c np
gr

gs 826 2429 5473 147 MR c np
24 W
2464 2502 PD
gr

gs 899 389 5357 4227 MR c np
gr

gs 826 2429 5473 147 MR c np
24 W
2443 2502 PD
gr

gs 899 389 5357 4227 MR c np
gr

gs 826 2429 5473 147 MR c np
24 W
2202 2502 PD
gr

gs 899 389 5357 4227 MR c np
gr

gs 826 2429 5473 147 MR c np
24 W
2202 2502 PD
gr

gs 899 389 5357 4227 MR c np
gr

gs 826 2429 5473 147 MR c np
24 W
2413 2502 PD
gr

gs 899 389 5357 4227 MR c np
gr

gs 826 2429 5473 147 MR c np
24 W
2398 2502 PD
gr

gs 899 389 5357 4227 MR c np
gr

gs 826 2429 5473 147 MR c np
24 W
2198 2502 PD
gr

gs 899 389 5357 4227 MR c np
gr

gs 826 2429 5473 147 MR c np
24 W
2197 2502 PD
gr

gs 899 389 5357 4227 MR c np
gr

gs 826 2429 5473 147 MR c np
24 W
2370 2502 PD
gr

gs 899 389 5357 4227 MR c np
gr

gs 826 2429 5473 147 MR c np
24 W
2348 2502 PD
gr

gs 899 389 5357 4227 MR c np
gr

gs 826 2429 5473 147 MR c np
24 W
2192 2502 PD
gr

gs 899 389 5357 4227 MR c np
gr

gs 826 2429 5473 147 MR c np
24 W
2192 2502 PD
gr

gs 899 389 5357 4227 MR c np
gr

gs 826 2429 5473 147 MR c np
24 W
2323 2502 PD
gr

gs 899 389 5357 4227 MR c np
gr

gs 826 2429 5473 147 MR c np
24 W
2303 2502 PD
gr

gs 899 389 5357 4227 MR c np
gr

gs 826 2429 5473 147 MR c np
24 W
2284 2502 PD
gr

gs 899 389 5357 4227 MR c np
gr

gs 826 2429 5473 147 MR c np
24 W
2187 2502 PD
gr

gs 899 389 5357 4227 MR c np
gr

gs 826 2429 5473 147 MR c np
24 W
2272 2502 PD
gr

gs 899 389 5357 4227 MR c np
gr

gs 826 2429 5473 147 MR c np
24 W
2252 2502 PD
gr

gs 899 389 5357 4227 MR c np
gr

gs 826 2429 5473 147 MR c np
24 W
2238 2502 PD
gr

gs 899 389 5357 4227 MR c np
gr

gs 826 2429 5473 147 MR c np
24 W
2182 2502 PD
gr

gs 899 389 5357 4227 MR c np
gr

gs 826 2429 5473 147 MR c np
24 W
2229 2502 PD
gr

gs 899 389 5357 4227 MR c np
gr

gs 826 2429 5473 147 MR c np
24 W
2207 2502 PD
gr

gs 899 389 5357 4227 MR c np
gr

gs 826 2429 5473 147 MR c np
24 W
2187 2502 PD
gr

gs 899 389 5357 4227 MR c np
gr

gs 826 2429 5473 147 MR c np
24 W
899 2502 PD
gr

gs 899 389 5357 4227 MR c np
gr

gs 826 2429 5473 147 MR c np
24 W
899 2502 PD
gr

gs 899 389 5357 4227 MR c np
gr

gs 826 2429 5473 147 MR c np
24 W
899 2502 PD
gr

gs 899 389 5357 4227 MR c np
gr

gs 826 2429 5473 147 MR c np
24 W
900 2502 PD
gr

gs 899 389 5357 4227 MR c np
gr

gs 826 2429 5473 147 MR c np
24 W
899 2502 PD
gr

gs 899 389 5357 4227 MR c np
gr

gs 826 2429 5473 147 MR c np
24 W
899 2502 PD
gr

gs 899 389 5357 4227 MR c np
gr

gs 826 2429 5473 147 MR c np
24 W
899 2502 PD
gr

gs 899 389 5357 4227 MR c np
gr

gs 826 2429 5473 147 MR c np
24 W
899 2502 PD
gr

gs 899 389 5357 4227 MR c np
gr

gs 826 2429 5473 147 MR c np
24 W
899 2502 PD
gr

gs 899 389 5357 4227 MR c np
gr

gs 826 2429 5473 147 MR c np
24 W
900 2502 PD
gr

gs 899 389 5357 4227 MR c np
gr

gs 826 2429 5473 147 MR c np
24 W
899 2502 PD
gr

gs 899 389 5357 4227 MR c np
gr

gs 826 2429 5473 147 MR c np
24 W
899 2502 PD
gr

gs 899 389 5357 4227 MR c np
gr

gs 826 2429 5473 147 MR c np
24 W
899 2502 PD
gr

gs 899 389 5357 4227 MR c np
gr

gs 826 2429 5473 147 MR c np
24 W
899 2502 PD
gr

gs 899 389 5357 4227 MR c np
gr

gs 826 2429 5473 147 MR c np
24 W
899 2502 PD
gr

gs 899 389 5357 4227 MR c np
gr

gs 826 2429 5473 147 MR c np
24 W
899 2502 PD
gr

gs 899 389 5357 4227 MR c np
gr

gs 826 2429 5473 147 MR c np
24 W
899 2502 PD
gr

gs 899 389 5357 4227 MR c np
gr

gs 826 2429 5473 147 MR c np
24 W
900 2502 PD
gr

gs 899 389 5357 4227 MR c np
gr

gs 826 2429 5473 147 MR c np
24 W
899 2502 PD
gr

gs 899 389 5357 4227 MR c np
gr

gs 826 2429 5473 147 MR c np
24 W
899 2502 PD
gr

gs 899 389 5357 4227 MR c np
gr

gs 826 2429 5473 147 MR c np
24 W
899 2502 PD
gr

gs 899 389 5357 4227 MR c np
gr

gs 826 2429 5473 147 MR c np
24 W
899 2502 PD
gr

gs 899 389 5357 4227 MR c np
gr

gs 826 2429 5473 147 MR c np
24 W
899 2502 PD
gr

gs 899 389 5357 4227 MR c np
gr

gs 826 2429 5473 147 MR c np
24 W
900 2502 PD
gr

gs 899 389 5357 4227 MR c np
gr

gs 826 2429 5473 147 MR c np
24 W
899 2502 PD
gr

gs 899 389 5357 4227 MR c np
gr

gs 826 2429 5473 147 MR c np
24 W
944 2502 PD
gr

gs 899 389 5357 4227 MR c np
gr

gs 826 2429 5473 147 MR c np
24 W
1395 2502 PD
gr

gs 899 389 5357 4227 MR c np
gr

gs 826 2429 5473 147 MR c np
24 W
1380 2502 PD
gr

gs 899 389 5357 4227 MR c np
gr

gs 826 2429 5473 147 MR c np
24 W
1360 2502 PD
gr

gs 899 389 5357 4227 MR c np
gr

gs 826 2429 5473 147 MR c np
24 W
940 2502 PD
gr

gs 899 389 5357 4227 MR c np
gr

gs 826 2429 5473 147 MR c np
24 W
939 2502 PD
gr

gs 899 389 5357 4227 MR c np
gr

gs 826 2429 5473 147 MR c np
24 W
1330 2502 PD
gr

gs 899 389 5357 4227 MR c np
gr

gs 826 2429 5473 147 MR c np
24 W
1310 2502 PD
gr

gs 899 389 5357 4227 MR c np
gr

gs 826 2429 5473 147 MR c np
24 W
934 2502 PD
gr

gs 899 389 5357 4227 MR c np
gr

gs 826 2429 5473 147 MR c np
24 W
934 2502 PD
gr

gs 899 389 5357 4227 MR c np
gr

gs 826 2429 5473 147 MR c np
24 W
1286 2502 PD
gr

gs 899 389 5357 4227 MR c np
gr

gs 826 2429 5473 147 MR c np
24 W
1265 2502 PD
gr

gs 899 389 5357 4227 MR c np
gr

gs 826 2429 5473 147 MR c np
24 W
929 2502 PD
gr

gs 899 389 5357 4227 MR c np
gr

gs 826 2429 5473 147 MR c np
24 W
929 2502 PD
gr

gs 899 389 5357 4227 MR c np
gr

gs 826 2429 5473 147 MR c np
24 W
1240 2502 PD
gr

gs 899 389 5357 4227 MR c np
gr

gs 826 2429 5473 147 MR c np
24 W
1219 2502 PD
gr

gs 899 389 5357 4227 MR c np
gr

gs 826 2429 5473 147 MR c np
24 W
1200 2502 PD
gr

gs 899 389 5357 4227 MR c np
gr

gs 826 2429 5473 147 MR c np
24 W
924 2502 PD
gr

gs 899 389 5357 4227 MR c np
gr

gs 826 2429 5473 147 MR c np
24 W
1189 2502 PD
gr

gs 899 389 5357 4227 MR c np
gr

gs 826 2429 5473 147 MR c np
24 W
1169 2502 PD
gr

gs 899 389 5357 4227 MR c np
gr

gs 826 2429 5473 147 MR c np
24 W
1149 2502 PD
gr

gs 899 389 5357 4227 MR c np
gr

gs 826 2429 5473 147 MR c np
24 W
919 2502 PD
gr

gs 899 389 5357 4227 MR c np
gr

gs 826 2429 5473 147 MR c np
24 W
1145 2502 PD
gr

gs 899 389 5357 4227 MR c np
gr

gs 826 2429 5473 147 MR c np
24 W
1124 2502 PD
gr

gs 899 389 5357 4227 MR c np
gr

gs 826 2429 5473 147 MR c np
24 W
1106 2502 PD
gr

gs 899 389 5357 4227 MR c np
gr

gs 826 2429 5473 147 MR c np
24 W
914 2502 PD
gr

gs 899 389 5357 4227 MR c np
gr

gs 826 2429 5473 147 MR c np
24 W
1094 2502 PD
gr

gs 899 389 5357 4227 MR c np
gr

gs 826 2429 5473 147 MR c np
24 W
1079 2502 PD
gr

gs 899 389 5357 4227 MR c np
gr

gs 826 2429 5473 147 MR c np
24 W
1060 2502 PD
gr

gs 899 389 5357 4227 MR c np
gr

gs 826 2429 5473 147 MR c np
24 W
909 2502 PD
gr

gs 899 389 5357 4227 MR c np
gr

gs 826 2429 5473 147 MR c np
24 W
910 2502 PD
gr

gs 899 389 5357 4227 MR c np
gr

gs 826 2429 5473 147 MR c np
24 W
1029 2502 PD
gr

gs 899 389 5357 4227 MR c np
gr

gs 826 2429 5473 147 MR c np
24 W
1009 2502 PD
gr

gs 899 389 5357 4227 MR c np
gr

gs 826 2429 5473 147 MR c np
24 W
904 2502 PD
gr

gs 899 389 5357 4227 MR c np
gr

gs 826 2429 5473 147 MR c np
24 W
904 2502 PD
gr

gs 899 389 5357 4227 MR c np
gr

gs 826 2429 5473 147 MR c np
24 W
984 2502 PD
gr

gs 899 389 5357 4227 MR c np
gr

gs 826 2429 5473 147 MR c np
24 W
965 2502 PD
gr

gs 899 389 5357 4227 MR c np
gr

gs 826 2429 5473 147 MR c np
24 W
899 2502 PD
gr

gs 899 389 5357 4227 MR c np
gr

gs 826 2429 5473 147 MR c np
24 W
899 2502 PD
gr

gs 899 389 5357 4227 MR c np
gr

gs 826 2429 5473 147 MR c np
24 W
934 2502 PD
gr

gs 899 389 5357 4227 MR c np
gr

gs 826 2429 5473 147 MR c np
24 W
919 2502 PD
gr

gs 899 389 5357 4227 MR c np
gr

gs 826 2429 5473 147 MR c np
24 W
899 2502 PD
gr

gs 899 389 5357 4227 MR c np
gr

gs 826 2429 5473 147 MR c np
24 W
899 2502 PD
gr

gs 899 389 5357 4227 MR c np
gr

gs 826 2429 5473 147 MR c np
24 W
1094 2502 PD
gr

gs 899 389 5357 4227 MR c np
gr

gs 826 2429 5473 147 MR c np
24 W
899 2502 PD
gr

gs 899 389 5357 4227 MR c np
gr

gs 826 2429 5473 147 MR c np
24 W
1060 2502 PD
gr

gs 899 389 5357 4227 MR c np
gr

gs 826 2429 5473 147 MR c np
24 W
909 2502 PD
gr

gs 899 389 5357 4227 MR c np
gr

gs 826 2429 5473 147 MR c np
24 W
910 2502 PD
gr

gs 899 389 5357 4227 MR c np
gr

gs 826 2429 5473 147 MR c np
24 W
1029 2502 PD
gr

gs 899 389 5357 4227 MR c np
gr

gs 826 2429 5473 147 MR c np
24 W
1009 2502 PD
gr

gs 899 389 5357 4227 MR c np
gr

gs 826 2429 5473 147 MR c np
24 W
904 2502 PD
gr

gs 899 389 5357 4227 MR c np
gr

gs 826 2429 5473 147 MR c np
24 W
904 2502 PD
gr

gs 899 389 5357 4227 MR c np
gr

gs 826 2429 5473 147 MR c np
24 W
984 2502 PD
gr

gs 899 389 5357 4227 MR c np
gr

gs 826 2429 5473 147 MR c np
24 W
965 2502 PD
gr

gs 899 389 5357 4227 MR c np
gr

gs 826 2429 5473 147 MR c np
24 W
899 2502 PD
gr

gs 899 389 5357 4227 MR c np
gr

gs 826 2429 5473 147 MR c np
24 W
899 2502 PD
gr

gs 899 389 5357 4227 MR c np
gr

gs 826 2429 5473 147 MR c np
24 W
934 2502 PD
gr

gs 899 389 5357 4227 MR c np
gr

gs 826 2429 5473 147 MR c np
24 W
919 2502 PD
gr

gs 899 389 5357 4227 MR c np
gr

gs 826 2429 5473 147 MR c np
24 W
899 2502 PD
gr

gs 899 389 5357 4227 MR c np
gr

3115  294 mt 
(iri004-validgpsfix) s

end %%Color Dict

eplot
%%EndObject

epage
end

showpage

%%Trailer
%%EOF
