%!PS-Adobe-2.0 EPSF-1.2
%%Creator: MATLAB, The Mathworks, Inc. Version 7.9.0.529 (R2009b). Operating System: Linux 2.6.35-28-generic #49-Ubuntu SMP Tue Mar 1 14:39:03 UTC 2011 x86_64.
%%Title: ./iri009-sog.eps
%%CreationDate: 03/22/2011  17:08:26
%%DocumentNeededFonts: Helvetica
%%DocumentProcessColors: Cyan Magenta Yellow Black
%%Pages: 1
%%BoundingBox:    70   198   548   602
%%EndComments

%%BeginProlog
% MathWorks dictionary
/MathWorks 160 dict begin
% definition operators
/bdef {bind def} bind def
/ldef {load def} bind def
/xdef {exch def} bdef
/xstore {exch store} bdef
% operator abbreviations
/c  /clip ldef
/cc /concat ldef
/cp /closepath ldef
/gr /grestore ldef
/gs /gsave ldef
/mt /moveto ldef
/np /newpath ldef
/cm /currentmatrix ldef
/sm /setmatrix ldef
/rm /rmoveto ldef
/rl /rlineto ldef
/s {show newpath} bdef
/sc {setcmykcolor} bdef
/sr /setrgbcolor ldef
/sg /setgray ldef
/w /setlinewidth ldef
/j /setlinejoin ldef
/cap /setlinecap ldef
/rc {rectclip} bdef
/rf {rectfill} bdef
% page state control
/pgsv () def
/bpage {/pgsv save def} bdef
/epage {pgsv restore} bdef
/bplot /gsave ldef
/eplot {stroke grestore} bdef
% orientation switch
/portraitMode 0 def /landscapeMode 1 def /rotateMode 2 def
% coordinate system mappings
/dpi2point 0 def
% font control
/FontSize 0 def
/FMS {/FontSize xstore findfont [FontSize 0 0 FontSize neg 0 0]
  makefont setfont} bdef
/reencode {exch dup where {pop load} {pop StandardEncoding} ifelse
  exch dup 3 1 roll findfont dup length dict begin
  { 1 index /FID ne {def}{pop pop} ifelse } forall
  /Encoding exch def currentdict end definefont pop} bdef
/isroman {findfont /CharStrings get /Agrave known} bdef
/FMSR {3 1 roll 1 index dup isroman {reencode} {pop pop} ifelse
  exch FMS} bdef
/csm {1 dpi2point div -1 dpi2point div scale neg translate
 dup landscapeMode eq {pop -90 rotate}
  {rotateMode eq {90 rotate} if} ifelse} bdef
% line types: solid, dotted, dashed, dotdash
/SO { [] 0 setdash } bdef
/DO { [.5 dpi2point mul 4 dpi2point mul] 0 setdash } bdef
/DA { [6 dpi2point mul] 0 setdash } bdef
/DD { [.5 dpi2point mul 4 dpi2point mul 6 dpi2point mul 4
  dpi2point mul] 0 setdash } bdef
% macros for lines and objects
/L {lineto stroke} bdef
/MP {3 1 roll moveto 1 sub {rlineto} repeat} bdef
/AP {{rlineto} repeat} bdef
/PDlw -1 def
/W {/PDlw currentlinewidth def setlinewidth} def
/PP {closepath eofill} bdef
/DP {closepath stroke} bdef
/MR {4 -2 roll moveto dup  0 exch rlineto exch 0 rlineto
  neg 0 exch rlineto closepath} bdef
/FR {MR stroke} bdef
/PR {MR fill} bdef
/L1i {{currentfile picstr readhexstring pop} image} bdef
/tMatrix matrix def
/MakeOval {newpath tMatrix currentmatrix pop translate scale
0 0 1 0 360 arc tMatrix setmatrix} bdef
/FO {MakeOval stroke} bdef
/PO {MakeOval fill} bdef
/PD {currentlinewidth 2 div 0 360 arc fill
   PDlw -1 eq not {PDlw w /PDlw -1 def} if} def
/FA {newpath tMatrix currentmatrix pop translate scale
  0 0 1 5 -2 roll arc tMatrix setmatrix stroke} bdef
/PA {newpath tMatrix currentmatrix pop	translate 0 0 moveto scale
  0 0 1 5 -2 roll arc closepath tMatrix setmatrix fill} bdef
/FAn {newpath tMatrix currentmatrix pop translate scale
  0 0 1 5 -2 roll arcn tMatrix setmatrix stroke} bdef
/PAn {newpath tMatrix currentmatrix pop translate 0 0 moveto scale
  0 0 1 5 -2 roll arcn closepath tMatrix setmatrix fill} bdef
/vradius 0 def /hradius 0 def /lry 0 def
/lrx 0 def /uly 0 def /ulx 0 def /rad 0 def
/MRR {/vradius xdef /hradius xdef /lry xdef /lrx xdef /uly xdef
  /ulx xdef newpath tMatrix currentmatrix pop ulx hradius add uly
  vradius add translate hradius vradius scale 0 0 1 180 270 arc 
  tMatrix setmatrix lrx hradius sub uly vradius add translate
  hradius vradius scale 0 0 1 270 360 arc tMatrix setmatrix
  lrx hradius sub lry vradius sub translate hradius vradius scale
  0 0 1 0 90 arc tMatrix setmatrix ulx hradius add lry vradius sub
  translate hradius vradius scale 0 0 1 90 180 arc tMatrix setmatrix
  closepath} bdef
/FRR {MRR stroke } bdef
/PRR {MRR fill } bdef
/MlrRR {/lry xdef /lrx xdef /uly xdef /ulx xdef /rad lry uly sub 2 div def
  newpath tMatrix currentmatrix pop ulx rad add uly rad add translate
  rad rad scale 0 0 1 90 270 arc tMatrix setmatrix lrx rad sub lry rad
  sub translate rad rad scale 0 0 1 270 90 arc tMatrix setmatrix
  closepath} bdef
/FlrRR {MlrRR stroke } bdef
/PlrRR {MlrRR fill } bdef
/MtbRR {/lry xdef /lrx xdef /uly xdef /ulx xdef /rad lrx ulx sub 2 div def
  newpath tMatrix currentmatrix pop ulx rad add uly rad add translate
  rad rad scale 0 0 1 180 360 arc tMatrix setmatrix lrx rad sub lry rad
  sub translate rad rad scale 0 0 1 0 180 arc tMatrix setmatrix
  closepath} bdef
/FtbRR {MtbRR stroke } bdef
/PtbRR {MtbRR fill } bdef
/stri 6 array def /dtri 6 array def
/smat 6 array def /dmat 6 array def
/tmat1 6 array def /tmat2 6 array def /dif 3 array def
/asub {/ind2 exch def /ind1 exch def dup dup
  ind1 get exch ind2 get sub exch } bdef
/tri_to_matrix {
  2 0 asub 3 1 asub 4 0 asub 5 1 asub
  dup 0 get exch 1 get 7 -1 roll astore } bdef
/compute_transform {
  dmat dtri tri_to_matrix tmat1 invertmatrix 
  smat stri tri_to_matrix tmat2 concatmatrix } bdef
/ds {stri astore pop} bdef
/dt {dtri astore pop} bdef
/db {2 copy /cols xdef /rows xdef mul dup string
  currentfile exch readhexstring pop
  /bmap xdef pop pop} bdef
/it {gs np dtri aload pop moveto lineto lineto cp c
  cols rows 8 compute_transform 
  {bmap} image gr}bdef
/il {newpath moveto lineto stroke}bdef
currentdict end def
%%EndProlog

%%BeginSetup
MathWorks begin

0 cap

end
%%EndSetup

%%Page: 1 1
%%BeginPageSetup
%%PageBoundingBox:    70   198   548   602
MathWorks begin
bpage
%%EndPageSetup

%%BeginObject: obj1
bplot

/dpi2point 12 def
portraitMode 0216 7344 csm

  628   110  5743  4853 MR c np
85 dict begin %Colortable dictionary
/c0 { 0.000000 0.000000 0.000000 sr} bdef
/c1 { 1.000000 1.000000 1.000000 sr} bdef
/c2 { 0.900000 0.000000 0.000000 sr} bdef
/c3 { 0.000000 0.820000 0.000000 sr} bdef
/c4 { 0.000000 0.000000 0.800000 sr} bdef
/c5 { 0.910000 0.820000 0.320000 sr} bdef
/c6 { 1.000000 0.260000 0.820000 sr} bdef
/c7 { 0.000000 0.820000 0.820000 sr} bdef
c0
1 j
1 sg
   0    0 6913 5186 PR
6 w
0 4226 5356 0 0 -4226 899 4615 4 MP
PP
-5356 0 0 4226 5356 0 0 -4226 899 4615 5 MP stroke
4 w
DO
SO
6 w
0 sg
 899 4615 mt 6255 4615 L
 899 4615 mt  899  389 L
 899 4615 mt  899 4561 L
%%IncludeResource: font Helvetica
/Helvetica /ISOLatin1Encoding 120 FMSR

 866 4760 mt 
(0) s
1791 4615 mt 1791 4561 L
1758 4760 mt 
(2) s
2684 4615 mt 2684 4561 L
2651 4760 mt 
(4) s
3577 4615 mt 3577 4561 L
3544 4760 mt 
(6) s
4469 4615 mt 4469 4561 L
4436 4760 mt 
(8) s
5362 4615 mt 5362 4561 L
5296 4760 mt 
(10) s
6255 4615 mt 6255 4561 L
6189 4760 mt 
(12) s
5985 4962 mt 
(x 10) s
%%IncludeResource: font Helvetica
/Helvetica /ISOLatin1Encoding 80 FMSR

6211 4888 mt 
(7) s
 899 4615 mt  952 4615 L
%%IncludeResource: font Helvetica
/Helvetica /ISOLatin1Encoding 120 FMSR

 728 4659 mt 
(-1) s
 899 4192 mt  952 4192 L
 628 4236 mt 
(-0.8) s
 899 3769 mt  952 3769 L
 628 3813 mt 
(-0.6) s
 899 3347 mt  952 3347 L
 628 3391 mt 
(-0.4) s
 899 2924 mt  952 2924 L
 628 2968 mt 
(-0.2) s
 899 2502 mt  952 2502 L
 798 2546 mt 
(0) s
 899 2079 mt  952 2079 L
 698 2123 mt 
(0.2) s
 899 1656 mt  952 1656 L
 698 1700 mt 
(0.4) s
 899 1234 mt  952 1234 L
 698 1278 mt 
(0.6) s
 899  811 mt  952  811 L
 698  855 mt 
(0.8) s
 899  389 mt  952  389 L
 798  433 mt 
(1) s
gs 899 389 5357 4227 MR c np
0 j
gr

gs 826 2429 4897 147 MR c np
24 W
5415 2502 PD
gr

gs 899 389 5357 4227 MR c np
gr

gs 826 2429 4897 147 MR c np
24 W
5415 2502 PD
gr

gs 899 389 5357 4227 MR c np
gr

gs 826 2429 4897 147 MR c np
24 W
5649 2502 PD
gr

gs 899 389 5357 4227 MR c np
gr

gs 826 2429 4897 147 MR c np
24 W
5638 2502 PD
gr

gs 899 389 5357 4227 MR c np
gr

gs 826 2429 4897 147 MR c np
24 W
5626 2502 PD
gr

gs 899 389 5357 4227 MR c np
gr

gs 826 2429 4897 147 MR c np
24 W
5412 2502 PD
gr

gs 899 389 5357 4227 MR c np
gr

gs 826 2429 4897 147 MR c np
24 W
5620 2502 PD
gr

gs 899 389 5357 4227 MR c np
gr

gs 826 2429 4897 147 MR c np
24 W
5611 2502 PD
gr

gs 899 389 5357 4227 MR c np
gr

gs 826 2429 4897 147 MR c np
24 W
5599 2502 PD
gr

gs 899 389 5357 4227 MR c np
gr

gs 826 2429 4897 147 MR c np
24 W
5410 2502 PD
gr

gs 899 389 5357 4227 MR c np
gr

gs 826 2429 4897 147 MR c np
24 W
5593 2502 PD
gr

gs 899 389 5357 4227 MR c np
gr

gs 826 2429 4897 147 MR c np
24 W
5582 2502 PD
gr

gs 899 389 5357 4227 MR c np
gr

gs 826 2429 4897 147 MR c np
24 W
5570 2502 PD
gr

gs 899 389 5357 4227 MR c np
gr

gs 826 2429 4897 147 MR c np
24 W
5406 2502 PD
gr

gs 899 389 5357 4227 MR c np
gr

gs 826 2429 4897 147 MR c np
24 W
5406 2502 PD
gr

gs 899 389 5357 4227 MR c np
gr

gs 826 2429 4897 147 MR c np
24 W
5556 2502 PD
gr

gs 899 389 5357 4227 MR c np
gr

gs 826 2429 4897 147 MR c np
24 W
5544 2502 PD
gr

gs 899 389 5357 4227 MR c np
gr

gs 826 2429 4897 147 MR c np
24 W
5404 2502 PD
gr

gs 899 389 5357 4227 MR c np
gr

gs 826 2429 4897 147 MR c np
24 W
5403 2502 PD
gr

gs 899 389 5357 4227 MR c np
gr

gs 826 2429 4897 147 MR c np
24 W
5526 2502 PD
gr

gs 899 389 5357 4227 MR c np
gr

gs 826 2429 4897 147 MR c np
24 W
5517 2502 PD
gr

gs 899 389 5357 4227 MR c np
gr

gs 826 2429 4897 147 MR c np
24 W
5401 2502 PD
gr

gs 899 389 5357 4227 MR c np
gr

gs 826 2429 4897 147 MR c np
24 W
5400 2502 PD
gr

gs 899 389 5357 4227 MR c np
gr

gs 826 2429 4897 147 MR c np
24 W
5501 2502 PD
gr

gs 899 389 5357 4227 MR c np
gr

gs 826 2429 4897 147 MR c np
24 W
5488 2502 PD
gr

gs 899 389 5357 4227 MR c np
gr

gs 826 2429 4897 147 MR c np
24 W
5397 2502 PD
gr

gs 899 389 5357 4227 MR c np
gr

gs 826 2429 4897 147 MR c np
24 W
5397 2502 PD
gr

gs 899 389 5357 4227 MR c np
gr

gs 826 2429 4897 147 MR c np
24 W
5474 2502 PD
gr

gs 899 389 5357 4227 MR c np
gr

gs 826 2429 4897 147 MR c np
24 W
5462 2502 PD
gr

gs 899 389 5357 4227 MR c np
gr

gs 826 2429 4897 147 MR c np
24 W
5451 2502 PD
gr

gs 899 389 5357 4227 MR c np
gr

gs 826 2429 4897 147 MR c np
24 W
5394 2502 PD
gr

gs 899 389 5357 4227 MR c np
gr

gs 826 2429 4897 147 MR c np
24 W
5444 2502 PD
gr

gs 899 389 5357 4227 MR c np
gr

gs 826 2429 4897 147 MR c np
24 W
5432 2502 PD
gr

gs 899 389 5357 4227 MR c np
gr

gs 826 2429 4897 147 MR c np
24 W
5424 2502 PD
gr

gs 899 389 5357 4227 MR c np
gr

gs 826 2429 4897 147 MR c np
24 W
5391 2502 PD
gr

gs 899 389 5357 4227 MR c np
gr

gs 826 2429 4897 147 MR c np
24 W
5419 2502 PD
gr

gs 899 389 5357 4227 MR c np
gr

gs 826 2429 4897 147 MR c np
24 W
5406 2502 PD
gr

gs 899 389 5357 4227 MR c np
gr

gs 826 2429 4897 147 MR c np
24 W
5394 2502 PD
gr

gs 899 389 5357 4227 MR c np
gr

gs 826 2429 4897 147 MR c np
24 W
4643 2502 PD
gr

gs 899 389 5357 4227 MR c np
gr

gs 826 2429 4897 147 MR c np
24 W
4643 2502 PD
gr

gs 899 389 5357 4227 MR c np
gr

gs 826 2429 4897 147 MR c np
24 W
4643 2502 PD
gr

gs 899 389 5357 4227 MR c np
gr

gs 826 2429 4897 147 MR c np
24 W
4643 2502 PD
gr

gs 899 389 5357 4227 MR c np
gr

gs 826 2429 4897 147 MR c np
24 W
4643 2502 PD
gr

gs 899 389 5357 4227 MR c np
gr

gs 826 2429 4897 147 MR c np
24 W
4643 2502 PD
gr

gs 899 389 5357 4227 MR c np
gr

gs 826 2429 4897 147 MR c np
24 W
4643 2502 PD
gr

gs 899 389 5357 4227 MR c np
gr

gs 826 2429 4897 147 MR c np
24 W
4643 2502 PD
gr

gs 899 389 5357 4227 MR c np
gr

gs 826 2429 4897 147 MR c np
24 W
4643 2502 PD
gr

gs 899 389 5357 4227 MR c np
gr

gs 826 2429 4897 147 MR c np
24 W
4643 2502 PD
gr

gs 899 389 5357 4227 MR c np
gr

gs 826 2429 4897 147 MR c np
24 W
4643 2502 PD
gr

gs 899 389 5357 4227 MR c np
gr

gs 826 2429 4897 147 MR c np
24 W
4644 2502 PD
gr

gs 899 389 5357 4227 MR c np
gr

gs 826 2429 4897 147 MR c np
24 W
4643 2502 PD
gr

gs 899 389 5357 4227 MR c np
gr

gs 826 2429 4897 147 MR c np
24 W
4643 2502 PD
gr

gs 899 389 5357 4227 MR c np
gr

gs 826 2429 4897 147 MR c np
24 W
4643 2502 PD
gr

gs 899 389 5357 4227 MR c np
gr

gs 826 2429 4897 147 MR c np
24 W
4643 2502 PD
gr

gs 899 389 5357 4227 MR c np
gr

gs 826 2429 4897 147 MR c np
24 W
4643 2502 PD
gr

gs 899 389 5357 4227 MR c np
gr

gs 826 2429 4897 147 MR c np
24 W
4644 2502 PD
gr

gs 899 389 5357 4227 MR c np
gr

gs 826 2429 4897 147 MR c np
24 W
4643 2502 PD
gr

gs 899 389 5357 4227 MR c np
gr

gs 826 2429 4897 147 MR c np
24 W
4643 2502 PD
gr

gs 899 389 5357 4227 MR c np
gr

gs 826 2429 4897 147 MR c np
24 W
4643 2502 PD
gr

gs 899 389 5357 4227 MR c np
gr

gs 826 2429 4897 147 MR c np
24 W
4643 2502 PD
gr

gs 899 389 5357 4227 MR c np
gr

gs 826 2429 4897 147 MR c np
24 W
4643 2502 PD
gr

gs 899 389 5357 4227 MR c np
gr

gs 826 2429 4897 147 MR c np
24 W
4643 2502 PD
gr

gs 899 389 5357 4227 MR c np
gr

gs 826 2429 4897 147 MR c np
24 W
4643 2502 PD
gr

gs 899 389 5357 4227 MR c np
gr

gs 826 2429 4897 147 MR c np
24 W
4669 2502 PD
gr

gs 899 389 5357 4227 MR c np
gr

gs 826 2429 4897 147 MR c np
24 W
4932 2502 PD
gr

gs 899 389 5357 4227 MR c np
gr

gs 826 2429 4897 147 MR c np
24 W
4924 2502 PD
gr

gs 899 389 5357 4227 MR c np
gr

gs 826 2429 4897 147 MR c np
24 W
4912 2502 PD
gr

gs 899 389 5357 4227 MR c np
gr

gs 826 2429 4897 147 MR c np
24 W
4667 2502 PD
gr

gs 899 389 5357 4227 MR c np
gr

gs 826 2429 4897 147 MR c np
24 W
4666 2502 PD
gr

gs 899 389 5357 4227 MR c np
gr

gs 826 2429 4897 147 MR c np
24 W
4894 2502 PD
gr

gs 899 389 5357 4227 MR c np
gr

gs 826 2429 4897 147 MR c np
24 W
4882 2502 PD
gr

gs 899 389 5357 4227 MR c np
gr

gs 826 2429 4897 147 MR c np
24 W
4663 2502 PD
gr

gs 899 389 5357 4227 MR c np
gr

gs 826 2429 4897 147 MR c np
24 W
4663 2502 PD
gr

gs 899 389 5357 4227 MR c np
gr

gs 826 2429 4897 147 MR c np
24 W
4868 2502 PD
gr

gs 899 389 5357 4227 MR c np
gr

gs 826 2429 4897 147 MR c np
24 W
4856 2502 PD
gr

gs 899 389 5357 4227 MR c np
gr

gs 826 2429 4897 147 MR c np
24 W
4660 2502 PD
gr

gs 899 389 5357 4227 MR c np
gr

gs 826 2429 4897 147 MR c np
24 W
4660 2502 PD
gr

gs 899 389 5357 4227 MR c np
gr

gs 826 2429 4897 147 MR c np
24 W
4839 2502 PD
gr

gs 899 389 5357 4227 MR c np
gr

gs 826 2429 4897 147 MR c np
24 W
4830 2502 PD
gr

gs 899 389 5357 4227 MR c np
gr

gs 826 2429 4897 147 MR c np
24 W
4819 2502 PD
gr

gs 899 389 5357 4227 MR c np
gr

gs 826 2429 4897 147 MR c np
24 W
4657 2502 PD
gr

gs 899 389 5357 4227 MR c np
gr

gs 826 2429 4897 147 MR c np
24 W
4813 2502 PD
gr

gs 899 389 5357 4227 MR c np
gr

gs 826 2429 4897 147 MR c np
24 W
4801 2502 PD
gr

gs 899 389 5357 4227 MR c np
gr

gs 826 2429 4897 147 MR c np
24 W
4789 2502 PD
gr

gs 899 389 5357 4227 MR c np
gr

gs 826 2429 4897 147 MR c np
24 W
4654 2502 PD
gr

gs 899 389 5357 4227 MR c np
gr

gs 826 2429 4897 147 MR c np
24 W
4786 2502 PD
gr

gs 899 389 5357 4227 MR c np
gr

gs 826 2429 4897 147 MR c np
24 W
4774 2502 PD
gr

gs 899 389 5357 4227 MR c np
gr

gs 826 2429 4897 147 MR c np
24 W
4764 2502 PD
gr

gs 899 389 5357 4227 MR c np
gr

gs 826 2429 4897 147 MR c np
24 W
4651 2502 PD
gr

gs 899 389 5357 4227 MR c np
gr

gs 826 2429 4897 147 MR c np
24 W
4757 2502 PD
gr

gs 899 389 5357 4227 MR c np
gr

gs 826 2429 4897 147 MR c np
24 W
4745 2502 PD
gr

gs 899 389 5357 4227 MR c np
gr

gs 826 2429 4897 147 MR c np
24 W
4737 2502 PD
gr

gs 899 389 5357 4227 MR c np
gr

gs 826 2429 4897 147 MR c np
24 W
4649 2502 PD
gr

gs 899 389 5357 4227 MR c np
gr

gs 826 2429 4897 147 MR c np
24 W
4649 2502 PD
gr

gs 899 389 5357 4227 MR c np
gr

gs 826 2429 4897 147 MR c np
24 W
4719 2502 PD
gr

gs 899 389 5357 4227 MR c np
gr

gs 826 2429 4897 147 MR c np
24 W
4707 2502 PD
gr

gs 899 389 5357 4227 MR c np
gr

gs 826 2429 4897 147 MR c np
24 W
4646 2502 PD
gr

gs 899 389 5357 4227 MR c np
gr

gs 826 2429 4897 147 MR c np
24 W
4646 2502 PD
gr

gs 899 389 5357 4227 MR c np
gr

gs 826 2429 4897 147 MR c np
24 W
4692 2502 PD
gr

gs 899 389 5357 4227 MR c np
gr

gs 826 2429 4897 147 MR c np
24 W
4681 2502 PD
gr

gs 899 389 5357 4227 MR c np
gr

gs 826 2429 4897 147 MR c np
24 W
4643 2502 PD
gr

gs 899 389 5357 4227 MR c np
gr

gs 826 2429 4897 147 MR c np
24 W
4643 2502 PD
gr

gs 899 389 5357 4227 MR c np
gr

gs 826 2429 4897 147 MR c np
24 W
4663 2502 PD
gr

gs 899 389 5357 4227 MR c np
gr

gs 826 2429 4897 147 MR c np
24 W
4654 2502 PD
gr

gs 899 389 5357 4227 MR c np
gr

gs 826 2429 4897 147 MR c np
24 W
4643 2502 PD
gr

gs 899 389 5357 4227 MR c np
gr

gs 826 2429 4897 147 MR c np
24 W
3894 2502 PD
gr

gs 899 389 5357 4227 MR c np
gr

gs 826 2429 4897 147 MR c np
24 W
3894 2502 PD
gr

gs 899 389 5357 4227 MR c np
gr

gs 826 2429 4897 147 MR c np
24 W
3894 2502 PD
gr

gs 899 389 5357 4227 MR c np
gr

gs 826 2429 4897 147 MR c np
24 W
3894 2502 PD
gr

gs 899 389 5357 4227 MR c np
gr

gs 826 2429 4897 147 MR c np
24 W
3894 2502 PD
gr

gs 899 389 5357 4227 MR c np
gr

gs 826 2429 4897 147 MR c np
24 W
3894 2502 PD
gr

gs 899 389 5357 4227 MR c np
gr

gs 826 2429 4897 147 MR c np
24 W
3894 2502 PD
gr

gs 899 389 5357 4227 MR c np
gr

gs 826 2429 4897 147 MR c np
24 W
3894 2502 PD
gr

gs 899 389 5357 4227 MR c np
gr

gs 826 2429 4897 147 MR c np
24 W
3895 2502 PD
gr

gs 899 389 5357 4227 MR c np
gr

gs 826 2429 4897 147 MR c np
24 W
3894 2502 PD
gr

gs 899 389 5357 4227 MR c np
gr

gs 826 2429 4897 147 MR c np
24 W
3894 2502 PD
gr

gs 899 389 5357 4227 MR c np
gr

gs 826 2429 4897 147 MR c np
24 W
3894 2502 PD
gr

gs 899 389 5357 4227 MR c np
gr

gs 826 2429 4897 147 MR c np
24 W
3894 2502 PD
gr

gs 899 389 5357 4227 MR c np
gr

gs 826 2429 4897 147 MR c np
24 W
3894 2502 PD
gr

gs 899 389 5357 4227 MR c np
gr

gs 826 2429 4897 147 MR c np
24 W
3895 2502 PD
gr

gs 899 389 5357 4227 MR c np
gr

gs 826 2429 4897 147 MR c np
24 W
3894 2502 PD
gr

gs 899 389 5357 4227 MR c np
gr

gs 826 2429 4897 147 MR c np
24 W
3894 2502 PD
gr

gs 899 389 5357 4227 MR c np
gr

gs 826 2429 4897 147 MR c np
24 W
3894 2502 PD
gr

gs 899 389 5357 4227 MR c np
gr

gs 826 2429 4897 147 MR c np
24 W
3894 2502 PD
gr

gs 899 389 5357 4227 MR c np
gr

gs 826 2429 4897 147 MR c np
24 W
3894 2502 PD
gr

gs 899 389 5357 4227 MR c np
gr

gs 826 2429 4897 147 MR c np
24 W
3895 2502 PD
gr

gs 899 389 5357 4227 MR c np
gr

gs 826 2429 4897 147 MR c np
24 W
3894 2502 PD
gr

gs 899 389 5357 4227 MR c np
gr

gs 826 2429 4897 147 MR c np
24 W
3894 2502 PD
gr

gs 899 389 5357 4227 MR c np
gr

gs 826 2429 4897 147 MR c np
24 W
3894 2502 PD
gr

gs 899 389 5357 4227 MR c np
gr

gs 826 2429 4897 147 MR c np
24 W
3894 2502 PD
gr

gs 899 389 5357 4227 MR c np
gr

gs 826 2429 4897 147 MR c np
24 W
3920 2502 PD
gr

gs 899 389 5357 4227 MR c np
gr

gs 826 2429 4897 147 MR c np
24 W
4181 2502 PD
gr

gs 899 389 5357 4227 MR c np
gr

gs 826 2429 4897 147 MR c np
24 W
4169 2502 PD
gr

gs 899 389 5357 4227 MR c np
gr

gs 826 2429 4897 147 MR c np
24 W
4157 2502 PD
gr

gs 899 389 5357 4227 MR c np
gr

gs 826 2429 4897 147 MR c np
24 W
3917 2502 PD
gr

gs 899 389 5357 4227 MR c np
gr

gs 826 2429 4897 147 MR c np
24 W
4154 2502 PD
gr

gs 899 389 5357 4227 MR c np
gr

gs 826 2429 4897 147 MR c np
24 W
4142 2502 PD
gr

gs 899 389 5357 4227 MR c np
gr

gs 826 2429 4897 147 MR c np
24 W
4131 2502 PD
gr

gs 899 389 5357 4227 MR c np
gr

gs 826 2429 4897 147 MR c np
24 W
3914 2502 PD
gr

gs 899 389 5357 4227 MR c np
gr

gs 826 2429 4897 147 MR c np
24 W
4125 2502 PD
gr

gs 899 389 5357 4227 MR c np
gr

gs 826 2429 4897 147 MR c np
24 W
4113 2502 PD
gr

gs 899 389 5357 4227 MR c np
gr

gs 826 2429 4897 147 MR c np
24 W
4101 2502 PD
gr

gs 899 389 5357 4227 MR c np
gr

gs 826 2429 4897 147 MR c np
24 W
3911 2502 PD
gr

gs 899 389 5357 4227 MR c np
gr

gs 826 2429 4897 147 MR c np
24 W
3912 2502 PD
gr

gs 899 389 5357 4227 MR c np
gr

gs 826 2429 4897 147 MR c np
24 W
4087 2502 PD
gr

gs 899 389 5357 4227 MR c np
gr

gs 826 2429 4897 147 MR c np
24 W
4076 2502 PD
gr

gs 899 389 5357 4227 MR c np
gr

gs 826 2429 4897 147 MR c np
24 W
3908 2502 PD
gr

gs 899 389 5357 4227 MR c np
gr

gs 826 2429 4897 147 MR c np
24 W
3908 2502 PD
gr

gs 899 389 5357 4227 MR c np
gr

gs 826 2429 4897 147 MR c np
24 W
4061 2502 PD
gr

gs 899 389 5357 4227 MR c np
gr

gs 826 2429 4897 147 MR c np
24 W
4049 2502 PD
gr

gs 899 389 5357 4227 MR c np
gr

gs 826 2429 4897 147 MR c np
24 W
3906 2502 PD
gr

gs 899 389 5357 4227 MR c np
gr

gs 826 2429 4897 147 MR c np
24 W
3906 2502 PD
gr

gs 899 389 5357 4227 MR c np
gr

gs 826 2429 4897 147 MR c np
24 W
4031 2502 PD
gr

gs 899 389 5357 4227 MR c np
gr

gs 826 2429 4897 147 MR c np
24 W
4020 2502 PD
gr

gs 899 389 5357 4227 MR c np
gr

gs 826 2429 4897 147 MR c np
24 W
3903 2502 PD
gr

gs 899 389 5357 4227 MR c np
gr

gs 826 2429 4897 147 MR c np
24 W
3903 2502 PD
gr

gs 899 389 5357 4227 MR c np
gr

gs 826 2429 4897 147 MR c np
24 W
4005 2502 PD
gr

gs 899 389 5357 4227 MR c np
gr

gs 826 2429 4897 147 MR c np
24 W
3994 2502 PD
gr

gs 899 389 5357 4227 MR c np
gr

gs 826 2429 4897 147 MR c np
24 W
3982 2502 PD
gr

gs 899 389 5357 4227 MR c np
gr

gs 826 2429 4897 147 MR c np
24 W
3900 2502 PD
gr

gs 899 389 5357 4227 MR c np
gr

gs 826 2429 4897 147 MR c np
24 W
3976 2502 PD
gr

gs 899 389 5357 4227 MR c np
gr

gs 826 2429 4897 147 MR c np
24 W
3967 2502 PD
gr

gs 899 389 5357 4227 MR c np
gr

gs 826 2429 4897 147 MR c np
24 W
3955 2502 PD
gr

gs 899 389 5357 4227 MR c np
gr

gs 826 2429 4897 147 MR c np
24 W
3897 2502 PD
gr

gs 899 389 5357 4227 MR c np
gr

gs 826 2429 4897 147 MR c np
24 W
3949 2502 PD
gr

gs 899 389 5357 4227 MR c np
gr

gs 826 2429 4897 147 MR c np
24 W
3938 2502 PD
gr

gs 899 389 5357 4227 MR c np
gr

gs 826 2429 4897 147 MR c np
24 W
3926 2502 PD
gr

gs 899 389 5357 4227 MR c np
gr

gs 826 2429 4897 147 MR c np
24 W
3894 2502 PD
gr

gs 899 389 5357 4227 MR c np
gr

gs 826 2429 4897 147 MR c np
24 W
3894 2502 PD
gr

gs 899 389 5357 4227 MR c np
gr

gs 826 2429 4897 147 MR c np
24 W
899 2502 PD
gr

gs 899 389 5357 4227 MR c np
gr

gs 826 2429 4897 147 MR c np
24 W
3900 2502 PD
gr

gs 899 389 5357 4227 MR c np
gr

gs 826 2429 4897 147 MR c np
24 W
3145 2502 PD
gr

gs 899 389 5357 4227 MR c np
gr

gs 826 2429 4897 147 MR c np
24 W
3145 2502 PD
gr

gs 899 389 5357 4227 MR c np
gr

gs 826 2429 4897 147 MR c np
24 W
3145 2502 PD
gr

gs 899 389 5357 4227 MR c np
gr

gs 826 2429 4897 147 MR c np
24 W
3145 2502 PD
gr

gs 899 389 5357 4227 MR c np
gr

gs 826 2429 4897 147 MR c np
24 W
3146 2502 PD
gr

gs 899 389 5357 4227 MR c np
gr

gs 826 2429 4897 147 MR c np
24 W
3145 2502 PD
gr

gs 899 389 5357 4227 MR c np
gr

gs 826 2429 4897 147 MR c np
24 W
3146 2502 PD
gr

gs 899 389 5357 4227 MR c np
gr

gs 826 2429 4897 147 MR c np
24 W
3145 2502 PD
gr

gs 899 389 5357 4227 MR c np
gr

gs 826 2429 4897 147 MR c np
24 W
3145 2502 PD
gr

gs 899 389 5357 4227 MR c np
gr

gs 826 2429 4897 147 MR c np
24 W
3145 2502 PD
gr

gs 899 389 5357 4227 MR c np
gr

gs 826 2429 4897 147 MR c np
24 W
3145 2502 PD
gr

gs 899 389 5357 4227 MR c np
gr

gs 826 2429 4897 147 MR c np
24 W
3146 2502 PD
gr

gs 899 389 5357 4227 MR c np
gr

gs 826 2429 4897 147 MR c np
24 W
3146 2502 PD
gr

gs 899 389 5357 4227 MR c np
gr

gs 826 2429 4897 147 MR c np
24 W
3145 2502 PD
gr

gs 899 389 5357 4227 MR c np
gr

gs 826 2429 4897 147 MR c np
24 W
3145 2502 PD
gr

gs 899 389 5357 4227 MR c np
gr

gs 826 2429 4897 147 MR c np
24 W
3145 2502 PD
gr

gs 899 389 5357 4227 MR c np
gr

gs 826 2429 4897 147 MR c np
24 W
3145 2502 PD
gr

gs 899 389 5357 4227 MR c np
gr

gs 826 2429 4897 147 MR c np
24 W
3146 2502 PD
gr

gs 899 389 5357 4227 MR c np
gr

gs 826 2429 4897 147 MR c np
24 W
3146 2502 PD
gr

gs 899 389 5357 4227 MR c np
gr

gs 826 2429 4897 147 MR c np
24 W
3145 2502 PD
gr

gs 899 389 5357 4227 MR c np
gr

gs 826 2429 4897 147 MR c np
24 W
3145 2502 PD
gr

gs 899 389 5357 4227 MR c np
gr

gs 826 2429 4897 147 MR c np
24 W
3145 2502 PD
gr

gs 899 389 5357 4227 MR c np
gr

gs 826 2429 4897 147 MR c np
24 W
3145 2502 PD
gr

gs 899 389 5357 4227 MR c np
gr

gs 826 2429 4897 147 MR c np
24 W
3145 2502 PD
gr

gs 899 389 5357 4227 MR c np
gr

gs 826 2429 4897 147 MR c np
24 W
3146 2502 PD
gr

gs 899 389 5357 4227 MR c np
gr

gs 826 2429 4897 147 MR c np
24 W
3172 2502 PD
gr

gs 899 389 5357 4227 MR c np
gr

gs 826 2429 4897 147 MR c np
24 W
3171 2502 PD
gr

gs 899 389 5357 4227 MR c np
gr

gs 826 2429 4897 147 MR c np
24 W
3426 2502 PD
gr

gs 899 389 5357 4227 MR c np
gr

gs 826 2429 4897 147 MR c np
24 W
3417 2502 PD
gr

gs 899 389 5357 4227 MR c np
gr

gs 826 2429 4897 147 MR c np
24 W
3169 2502 PD
gr

gs 899 389 5357 4227 MR c np
gr

gs 826 2429 4897 147 MR c np
24 W
3169 2502 PD
gr

gs 899 389 5357 4227 MR c np
gr

gs 826 2429 4897 147 MR c np
24 W
3400 2502 PD
gr

gs 899 389 5357 4227 MR c np
gr

gs 826 2429 4897 147 MR c np
24 W
3388 2502 PD
gr

gs 899 389 5357 4227 MR c np
gr

gs 826 2429 4897 147 MR c np
24 W
3165 2502 PD
gr

gs 899 389 5357 4227 MR c np
gr

gs 826 2429 4897 147 MR c np
24 W
3165 2502 PD
gr

gs 899 389 5357 4227 MR c np
gr

gs 826 2429 4897 147 MR c np
24 W
3373 2502 PD
gr

gs 899 389 5357 4227 MR c np
gr

gs 826 2429 4897 147 MR c np
24 W
3362 2502 PD
gr

gs 899 389 5357 4227 MR c np
gr

gs 826 2429 4897 147 MR c np
24 W
3351 2502 PD
gr

gs 899 389 5357 4227 MR c np
gr

gs 826 2429 4897 147 MR c np
24 W
3164 2502 PD
gr

gs 899 389 5357 4227 MR c np
gr

gs 826 2429 4897 147 MR c np
24 W
3344 2502 PD
gr

gs 899 389 5357 4227 MR c np
gr

gs 826 2429 4897 147 MR c np
24 W
3332 2502 PD
gr

gs 899 389 5357 4227 MR c np
gr

gs 826 2429 4897 147 MR c np
24 W
3324 2502 PD
gr

gs 899 389 5357 4227 MR c np
gr

gs 826 2429 4897 147 MR c np
24 W
3160 2502 PD
gr

gs 899 389 5357 4227 MR c np
gr

gs 826 2429 4897 147 MR c np
24 W
3318 2502 PD
gr

gs 899 389 5357 4227 MR c np
gr

gs 826 2429 4897 147 MR c np
24 W
3307 2502 PD
gr

gs 899 389 5357 4227 MR c np
gr

gs 826 2429 4897 147 MR c np
24 W
3294 2502 PD
gr

gs 899 389 5357 4227 MR c np
gr

gs 826 2429 4897 147 MR c np
24 W
3157 2502 PD
gr

gs 899 389 5357 4227 MR c np
gr

gs 826 2429 4897 147 MR c np
24 W
3157 2502 PD
gr

gs 899 389 5357 4227 MR c np
gr

gs 826 2429 4897 147 MR c np
24 W
3280 2502 PD
gr

gs 899 389 5357 4227 MR c np
gr

gs 826 2429 4897 147 MR c np
24 W
3268 2502 PD
gr

gs 899 389 5357 4227 MR c np
gr

gs 826 2429 4897 147 MR c np
24 W
3155 2502 PD
gr

gs 899 389 5357 4227 MR c np
gr

gs 826 2429 4897 147 MR c np
24 W
3154 2502 PD
gr

gs 899 389 5357 4227 MR c np
gr

gs 826 2429 4897 147 MR c np
24 W
3250 2502 PD
gr

gs 899 389 5357 4227 MR c np
gr

gs 826 2429 4897 147 MR c np
24 W
3239 2502 PD
gr

gs 899 389 5357 4227 MR c np
gr

gs 826 2429 4897 147 MR c np
24 W
3151 2502 PD
gr

gs 899 389 5357 4227 MR c np
gr

gs 826 2429 4897 147 MR c np
24 W
3151 2502 PD
gr

gs 899 389 5357 4227 MR c np
gr

gs 826 2429 4897 147 MR c np
24 W
3225 2502 PD
gr

gs 899 389 5357 4227 MR c np
gr

gs 826 2429 4897 147 MR c np
24 W
3213 2502 PD
gr

gs 899 389 5357 4227 MR c np
gr

gs 826 2429 4897 147 MR c np
24 W
3148 2502 PD
gr

gs 899 389 5357 4227 MR c np
gr

gs 826 2429 4897 147 MR c np
24 W
3148 2502 PD
gr

gs 899 389 5357 4227 MR c np
gr

gs 826 2429 4897 147 MR c np
24 W
3198 2502 PD
gr

gs 899 389 5357 4227 MR c np
gr

gs 826 2429 4897 147 MR c np
24 W
3186 2502 PD
gr

gs 899 389 5357 4227 MR c np
gr

gs 826 2429 4897 147 MR c np
24 W
3175 2502 PD
gr

gs 899 389 5357 4227 MR c np
gr

gs 826 2429 4897 147 MR c np
24 W
3146 2502 PD
gr

gs 899 389 5357 4227 MR c np
gr

gs 826 2429 4897 147 MR c np
24 W
3168 2502 PD
gr

gs 899 389 5357 4227 MR c np
gr

gs 826 2429 4897 147 MR c np
24 W
3157 2502 PD
gr

gs 899 389 5357 4227 MR c np
gr

gs 826 2429 4897 147 MR c np
24 W
3145 2502 PD
gr

gs 899 389 5357 4227 MR c np
gr

gs 826 2429 4897 147 MR c np
24 W
2396 2502 PD
gr

gs 899 389 5357 4227 MR c np
gr

gs 826 2429 4897 147 MR c np
24 W
2397 2502 PD
gr

gs 899 389 5357 4227 MR c np
gr

gs 826 2429 4897 147 MR c np
24 W
2397 2502 PD
gr

gs 899 389 5357 4227 MR c np
gr

gs 826 2429 4897 147 MR c np
24 W
2397 2502 PD
gr

gs 899 389 5357 4227 MR c np
gr

gs 826 2429 4897 147 MR c np
24 W
2396 2502 PD
gr

gs 899 389 5357 4227 MR c np
gr

gs 826 2429 4897 147 MR c np
24 W
2396 2502 PD
gr

gs 899 389 5357 4227 MR c np
gr

gs 826 2429 4897 147 MR c np
24 W
2396 2502 PD
gr

gs 899 389 5357 4227 MR c np
gr

gs 826 2429 4897 147 MR c np
24 W
2397 2502 PD
gr

gs 899 389 5357 4227 MR c np
gr

gs 826 2429 4897 147 MR c np
24 W
2397 2502 PD
gr

gs 899 389 5357 4227 MR c np
gr

gs 826 2429 4897 147 MR c np
24 W
2397 2502 PD
gr

gs 899 389 5357 4227 MR c np
gr

gs 826 2429 4897 147 MR c np
24 W
2396 2502 PD
gr

gs 899 389 5357 4227 MR c np
gr

gs 826 2429 4897 147 MR c np
24 W
2396 2502 PD
gr

gs 899 389 5357 4227 MR c np
gr

gs 826 2429 4897 147 MR c np
24 W
2396 2502 PD
gr

gs 899 389 5357 4227 MR c np
gr

gs 826 2429 4897 147 MR c np
24 W
2396 2502 PD
gr

gs 899 389 5357 4227 MR c np
gr

gs 826 2429 4897 147 MR c np
24 W
2397 2502 PD
gr

gs 899 389 5357 4227 MR c np
gr

gs 826 2429 4897 147 MR c np
24 W
2397 2502 PD
gr

gs 899 389 5357 4227 MR c np
gr

gs 826 2429 4897 147 MR c np
24 W
2396 2502 PD
gr

gs 899 389 5357 4227 MR c np
gr

gs 826 2429 4897 147 MR c np
24 W
2396 2502 PD
gr

gs 899 389 5357 4227 MR c np
gr

gs 826 2429 4897 147 MR c np
24 W
2396 2502 PD
gr

gs 899 389 5357 4227 MR c np
gr

gs 826 2429 4897 147 MR c np
24 W
2396 2502 PD
gr

gs 899 389 5357 4227 MR c np
gr

gs 826 2429 4897 147 MR c np
24 W
2397 2502 PD
gr

gs 899 389 5357 4227 MR c np
gr

gs 826 2429 4897 147 MR c np
24 W
2397 2502 PD
gr

gs 899 389 5357 4227 MR c np
gr

gs 826 2429 4897 147 MR c np
24 W
2397 2502 PD
gr

gs 899 389 5357 4227 MR c np
gr

gs 826 2429 4897 147 MR c np
24 W
2396 2502 PD
gr

gs 899 389 5357 4227 MR c np
gr

gs 826 2429 4897 147 MR c np
24 W
2396 2502 PD
gr

gs 899 389 5357 4227 MR c np
gr

gs 826 2429 4897 147 MR c np
24 W
2422 2502 PD
gr

gs 899 389 5357 4227 MR c np
gr

gs 826 2429 4897 147 MR c np
24 W
2686 2502 PD
gr

gs 899 389 5357 4227 MR c np
gr

gs 826 2429 4897 147 MR c np
24 W
2674 2502 PD
gr

gs 899 389 5357 4227 MR c np
gr

gs 826 2429 4897 147 MR c np
24 W
2663 2502 PD
gr

gs 899 389 5357 4227 MR c np
gr

gs 826 2429 4897 147 MR c np
24 W
2420 2502 PD
gr

gs 899 389 5357 4227 MR c np
gr

gs 826 2429 4897 147 MR c np
24 W
2656 2502 PD
gr

gs 899 389 5357 4227 MR c np
gr

gs 826 2429 4897 147 MR c np
24 W
2645 2502 PD
gr

gs 899 389 5357 4227 MR c np
gr

gs 826 2429 4897 147 MR c np
24 W
2636 2502 PD
gr

gs 899 389 5357 4227 MR c np
gr

gs 826 2429 4897 147 MR c np
24 W
2417 2502 PD
gr

gs 899 389 5357 4227 MR c np
gr

gs 826 2429 4897 147 MR c np
24 W
2417 2502 PD
gr

gs 899 389 5357 4227 MR c np
gr

gs 826 2429 4897 147 MR c np
24 W
2619 2502 PD
gr

gs 899 389 5357 4227 MR c np
gr

gs 826 2429 4897 147 MR c np
24 W
2607 2502 PD
gr

gs 899 389 5357 4227 MR c np
gr

gs 826 2429 4897 147 MR c np
24 W
2414 2502 PD
gr

gs 899 389 5357 4227 MR c np
gr

gs 826 2429 4897 147 MR c np
24 W
2414 2502 PD
gr

gs 899 389 5357 4227 MR c np
gr

gs 826 2429 4897 147 MR c np
24 W
2592 2502 PD
gr

gs 899 389 5357 4227 MR c np
gr

gs 826 2429 4897 147 MR c np
24 W
2581 2502 PD
gr

gs 899 389 5357 4227 MR c np
gr

gs 826 2429 4897 147 MR c np
24 W
2411 2502 PD
gr

gs 899 389 5357 4227 MR c np
gr

gs 826 2429 4897 147 MR c np
24 W
2411 2502 PD
gr

gs 899 389 5357 4227 MR c np
gr

gs 826 2429 4897 147 MR c np
24 W
2563 2502 PD
gr

gs 899 389 5357 4227 MR c np
gr

gs 826 2429 4897 147 MR c np
24 W
2554 2502 PD
gr

gs 899 389 5357 4227 MR c np
gr

gs 826 2429 4897 147 MR c np
24 W
2542 2502 PD
gr

gs 899 389 5357 4227 MR c np
gr

gs 826 2429 4897 147 MR c np
24 W
2408 2502 PD
gr

gs 899 389 5357 4227 MR c np
gr

gs 826 2429 4897 147 MR c np
24 W
2537 2502 PD
gr

gs 899 389 5357 4227 MR c np
gr

gs 826 2429 4897 147 MR c np
24 W
2525 2502 PD
gr

gs 899 389 5357 4227 MR c np
gr

gs 826 2429 4897 147 MR c np
24 W
2513 2502 PD
gr

gs 899 389 5357 4227 MR c np
gr

gs 826 2429 4897 147 MR c np
24 W
2405 2502 PD
gr

gs 899 389 5357 4227 MR c np
gr

gs 826 2429 4897 147 MR c np
24 W
2510 2502 PD
gr

gs 899 389 5357 4227 MR c np
gr

gs 826 2429 4897 147 MR c np
24 W
2499 2502 PD
gr

gs 899 389 5357 4227 MR c np
gr

gs 826 2429 4897 147 MR c np
24 W
2487 2502 PD
gr

gs 899 389 5357 4227 MR c np
gr

gs 826 2429 4897 147 MR c np
24 W
2403 2502 PD
gr

gs 899 389 5357 4227 MR c np
gr

gs 826 2429 4897 147 MR c np
24 W
2481 2502 PD
gr

gs 899 389 5357 4227 MR c np
gr

gs 826 2429 4897 147 MR c np
24 W
2469 2502 PD
gr

gs 899 389 5357 4227 MR c np
gr

gs 826 2429 4897 147 MR c np
24 W
2460 2502 PD
gr

gs 899 389 5357 4227 MR c np
gr

gs 826 2429 4897 147 MR c np
24 W
2399 2502 PD
gr

gs 899 389 5357 4227 MR c np
gr

gs 826 2429 4897 147 MR c np
24 W
2399 2502 PD
gr

gs 899 389 5357 4227 MR c np
gr

gs 826 2429 4897 147 MR c np
24 W
2444 2502 PD
gr

gs 899 389 5357 4227 MR c np
gr

gs 826 2429 4897 147 MR c np
24 W
2431 2502 PD
gr

gs 899 389 5357 4227 MR c np
gr

gs 826 2429 4897 147 MR c np
24 W
2396 2502 PD
gr

gs 899 389 5357 4227 MR c np
gr

gs 826 2429 4897 147 MR c np
24 W
2396 2502 PD
gr

gs 899 389 5357 4227 MR c np
gr

gs 826 2429 4897 147 MR c np
24 W
2417 2502 PD
gr

gs 899 389 5357 4227 MR c np
gr

gs 826 2429 4897 147 MR c np
24 W
2405 2502 PD
gr

gs 899 389 5357 4227 MR c np
gr

gs 826 2429 4897 147 MR c np
24 W
1648 2502 PD
gr

gs 899 389 5357 4227 MR c np
gr

gs 826 2429 4897 147 MR c np
24 W
1647 2502 PD
gr

gs 899 389 5357 4227 MR c np
gr

gs 826 2429 4897 147 MR c np
24 W
1647 2502 PD
gr

gs 899 389 5357 4227 MR c np
gr

gs 826 2429 4897 147 MR c np
24 W
1647 2502 PD
gr

gs 899 389 5357 4227 MR c np
gr

gs 826 2429 4897 147 MR c np
24 W
1647 2502 PD
gr

gs 899 389 5357 4227 MR c np
gr

gs 826 2429 4897 147 MR c np
24 W
1647 2502 PD
gr

gs 899 389 5357 4227 MR c np
gr

gs 826 2429 4897 147 MR c np
24 W
1648 2502 PD
gr

gs 899 389 5357 4227 MR c np
gr

gs 826 2429 4897 147 MR c np
24 W
1647 2502 PD
gr

gs 899 389 5357 4227 MR c np
gr

gs 826 2429 4897 147 MR c np
24 W
1647 2502 PD
gr

gs 899 389 5357 4227 MR c np
gr

gs 826 2429 4897 147 MR c np
24 W
1647 2502 PD
gr

gs 899 389 5357 4227 MR c np
gr

gs 826 2429 4897 147 MR c np
24 W
1647 2502 PD
gr

gs 899 389 5357 4227 MR c np
gr

gs 826 2429 4897 147 MR c np
24 W
1647 2502 PD
gr

gs 899 389 5357 4227 MR c np
gr

gs 826 2429 4897 147 MR c np
24 W
1648 2502 PD
gr

gs 899 389 5357 4227 MR c np
gr

gs 826 2429 4897 147 MR c np
24 W
1647 2502 PD
gr

gs 899 389 5357 4227 MR c np
gr

gs 826 2429 4897 147 MR c np
24 W
1647 2502 PD
gr

gs 899 389 5357 4227 MR c np
gr

gs 826 2429 4897 147 MR c np
24 W
1647 2502 PD
gr

gs 899 389 5357 4227 MR c np
gr

gs 826 2429 4897 147 MR c np
24 W
1647 2502 PD
gr

gs 899 389 5357 4227 MR c np
gr

gs 826 2429 4897 147 MR c np
24 W
1647 2502 PD
gr

gs 899 389 5357 4227 MR c np
gr

gs 826 2429 4897 147 MR c np
24 W
1648 2502 PD
gr

gs 899 389 5357 4227 MR c np
gr

gs 826 2429 4897 147 MR c np
24 W
1647 2502 PD
gr

gs 899 389 5357 4227 MR c np
gr

gs 826 2429 4897 147 MR c np
24 W
1648 2502 PD
gr

gs 899 389 5357 4227 MR c np
gr

gs 826 2429 4897 147 MR c np
24 W
1647 2502 PD
gr

gs 899 389 5357 4227 MR c np
gr

gs 826 2429 4897 147 MR c np
24 W
1647 2502 PD
gr

gs 899 389 5357 4227 MR c np
gr

gs 826 2429 4897 147 MR c np
24 W
1647 2502 PD
gr

gs 899 389 5357 4227 MR c np
gr

gs 826 2429 4897 147 MR c np
24 W
1648 2502 PD
gr

gs 899 389 5357 4227 MR c np
gr

gs 826 2429 4897 147 MR c np
24 W
1674 2502 PD
gr

gs 899 389 5357 4227 MR c np
gr

gs 826 2429 4897 147 MR c np
24 W
1675 2502 PD
gr

gs 899 389 5357 4227 MR c np
gr

gs 826 2429 4897 147 MR c np
24 W
1931 2502 PD
gr

gs 899 389 5357 4227 MR c np
gr

gs 826 2429 4897 147 MR c np
24 W
1919 2502 PD
gr

gs 899 389 5357 4227 MR c np
gr

gs 826 2429 4897 147 MR c np
24 W
1671 2502 PD
gr

gs 899 389 5357 4227 MR c np
gr

gs 826 2429 4897 147 MR c np
24 W
1671 2502 PD
gr

gs 899 389 5357 4227 MR c np
gr

gs 826 2429 4897 147 MR c np
24 W
1905 2502 PD
gr

gs 899 389 5357 4227 MR c np
gr

gs 826 2429 4897 147 MR c np
24 W
1894 2502 PD
gr

gs 899 389 5357 4227 MR c np
gr

gs 826 2429 4897 147 MR c np
24 W
1881 2502 PD
gr

gs 899 389 5357 4227 MR c np
gr

gs 826 2429 4897 147 MR c np
24 W
1668 2502 PD
gr

gs 899 389 5357 4227 MR c np
gr

gs 826 2429 4897 147 MR c np
24 W
1875 2502 PD
gr

gs 899 389 5357 4227 MR c np
gr

gs 826 2429 4897 147 MR c np
24 W
1867 2502 PD
gr

gs 899 389 5357 4227 MR c np
gr

gs 826 2429 4897 147 MR c np
24 W
1855 2502 PD
gr

gs 899 389 5357 4227 MR c np
gr

gs 826 2429 4897 147 MR c np
24 W
1666 2502 PD
gr

gs 899 389 5357 4227 MR c np
gr

gs 826 2429 4897 147 MR c np
24 W
1849 2502 PD
gr

gs 899 389 5357 4227 MR c np
gr

gs 826 2429 4897 147 MR c np
24 W
1837 2502 PD
gr

gs 899 389 5357 4227 MR c np
gr

gs 826 2429 4897 147 MR c np
24 W
1826 2502 PD
gr

gs 899 389 5357 4227 MR c np
gr

gs 826 2429 4897 147 MR c np
24 W
1662 2502 PD
gr

gs 899 389 5357 4227 MR c np
gr

gs 826 2429 4897 147 MR c np
24 W
1662 2502 PD
gr

gs 899 389 5357 4227 MR c np
gr

gs 826 2429 4897 147 MR c np
24 W
1812 2502 PD
gr

gs 899 389 5357 4227 MR c np
gr

gs 826 2429 4897 147 MR c np
24 W
1800 2502 PD
gr

gs 899 389 5357 4227 MR c np
gr

gs 826 2429 4897 147 MR c np
24 W
1659 2502 PD
gr

gs 899 389 5357 4227 MR c np
gr

gs 826 2429 4897 147 MR c np
24 W
1659 2502 PD
gr

gs 899 389 5357 4227 MR c np
gr

gs 826 2429 4897 147 MR c np
24 W
1782 2502 PD
gr

gs 899 389 5357 4227 MR c np
gr

gs 826 2429 4897 147 MR c np
24 W
1773 2502 PD
gr

gs 899 389 5357 4227 MR c np
gr

gs 826 2429 4897 147 MR c np
24 W
1657 2502 PD
gr

gs 899 389 5357 4227 MR c np
gr

gs 826 2429 4897 147 MR c np
24 W
1656 2502 PD
gr

gs 899 389 5357 4227 MR c np
gr

gs 826 2429 4897 147 MR c np
24 W
1757 2502 PD
gr

gs 899 389 5357 4227 MR c np
gr

gs 826 2429 4897 147 MR c np
24 W
1744 2502 PD
gr

gs 899 389 5357 4227 MR c np
gr

gs 826 2429 4897 147 MR c np
24 W
1653 2502 PD
gr

gs 899 389 5357 4227 MR c np
gr

gs 826 2429 4897 147 MR c np
24 W
1653 2502 PD
gr

gs 899 389 5357 4227 MR c np
gr

gs 826 2429 4897 147 MR c np
24 W
1730 2502 PD
gr

gs 899 389 5357 4227 MR c np
gr

gs 826 2429 4897 147 MR c np
24 W
1718 2502 PD
gr

gs 899 389 5357 4227 MR c np
gr

gs 826 2429 4897 147 MR c np
24 W
1707 2502 PD
gr

gs 899 389 5357 4227 MR c np
gr

gs 826 2429 4897 147 MR c np
24 W
1650 2502 PD
gr

gs 899 389 5357 4227 MR c np
gr

gs 826 2429 4897 147 MR c np
24 W
1700 2502 PD
gr

gs 899 389 5357 4227 MR c np
gr

gs 826 2429 4897 147 MR c np
24 W
1688 2502 PD
gr

gs 899 389 5357 4227 MR c np
gr

gs 826 2429 4897 147 MR c np
24 W
1680 2502 PD
gr

gs 899 389 5357 4227 MR c np
gr

gs 826 2429 4897 147 MR c np
24 W
1647 2502 PD
gr

gs 899 389 5357 4227 MR c np
gr

gs 826 2429 4897 147 MR c np
24 W
1675 2502 PD
gr

gs 899 389 5357 4227 MR c np
gr

gs 826 2429 4897 147 MR c np
24 W
1662 2502 PD
gr

gs 899 389 5357 4227 MR c np
gr

gs 826 2429 4897 147 MR c np
24 W
1650 2502 PD
gr

gs 899 389 5357 4227 MR c np
gr

gs 826 2429 4897 147 MR c np
24 W
899 2502 PD
gr

gs 899 389 5357 4227 MR c np
gr

gs 826 2429 4897 147 MR c np
24 W
899 2502 PD
gr

gs 899 389 5357 4227 MR c np
gr

gs 826 2429 4897 147 MR c np
24 W
899 2502 PD
gr

gs 899 389 5357 4227 MR c np
gr

gs 826 2429 4897 147 MR c np
24 W
899 2502 PD
gr

gs 899 389 5357 4227 MR c np
gr

gs 826 2429 4897 147 MR c np
24 W
899 2502 PD
gr

gs 899 389 5357 4227 MR c np
gr

gs 826 2429 4897 147 MR c np
24 W
899 2502 PD
gr

gs 899 389 5357 4227 MR c np
gr

gs 826 2429 4897 147 MR c np
24 W
899 2502 PD
gr

gs 899 389 5357 4227 MR c np
gr

gs 826 2429 4897 147 MR c np
24 W
899 2502 PD
gr

gs 899 389 5357 4227 MR c np
gr

gs 826 2429 4897 147 MR c np
24 W
899 2502 PD
gr

gs 899 389 5357 4227 MR c np
gr

gs 826 2429 4897 147 MR c np
24 W
899 2502 PD
gr

gs 899 389 5357 4227 MR c np
gr

gs 826 2429 4897 147 MR c np
24 W
899 2502 PD
gr

gs 899 389 5357 4227 MR c np
gr

gs 826 2429 4897 147 MR c np
24 W
899 2502 PD
gr

gs 899 389 5357 4227 MR c np
gr

gs 826 2429 4897 147 MR c np
24 W
899 2502 PD
gr

gs 899 389 5357 4227 MR c np
gr

gs 826 2429 4897 147 MR c np
24 W
899 2502 PD
gr

gs 899 389 5357 4227 MR c np
gr

gs 826 2429 4897 147 MR c np
24 W
899 2502 PD
gr

gs 899 389 5357 4227 MR c np
gr

gs 826 2429 4897 147 MR c np
24 W
899 2502 PD
gr

gs 899 389 5357 4227 MR c np
gr

gs 826 2429 4897 147 MR c np
24 W
899 2502 PD
gr

gs 899 389 5357 4227 MR c np
gr

gs 826 2429 4897 147 MR c np
24 W
900 2502 PD
gr

gs 899 389 5357 4227 MR c np
gr

gs 826 2429 4897 147 MR c np
24 W
899 2502 PD
gr

gs 899 389 5357 4227 MR c np
gr

gs 826 2429 4897 147 MR c np
24 W
899 2502 PD
gr

gs 899 389 5357 4227 MR c np
gr

gs 826 2429 4897 147 MR c np
24 W
899 2502 PD
gr

gs 899 389 5357 4227 MR c np
gr

gs 826 2429 4897 147 MR c np
24 W
899 2502 PD
gr

gs 899 389 5357 4227 MR c np
gr

gs 826 2429 4897 147 MR c np
24 W
899 2502 PD
gr

gs 899 389 5357 4227 MR c np
gr

gs 826 2429 4897 147 MR c np
24 W
899 2502 PD
gr

gs 899 389 5357 4227 MR c np
gr

gs 826 2429 4897 147 MR c np
24 W
899 2502 PD
gr

gs 899 389 5357 4227 MR c np
gr

gs 826 2429 4897 147 MR c np
24 W
925 2502 PD
gr

gs 899 389 5357 4227 MR c np
gr

gs 826 2429 4897 147 MR c np
24 W
1188 2502 PD
gr

gs 899 389 5357 4227 MR c np
gr

gs 826 2429 4897 147 MR c np
24 W
1180 2502 PD
gr

gs 899 389 5357 4227 MR c np
gr

gs 826 2429 4897 147 MR c np
24 W
1168 2502 PD
gr

gs 899 389 5357 4227 MR c np
gr

gs 826 2429 4897 147 MR c np
24 W
923 2502 PD
gr

gs 899 389 5357 4227 MR c np
gr

gs 826 2429 4897 147 MR c np
24 W
922 2502 PD
gr

gs 899 389 5357 4227 MR c np
gr

gs 826 2429 4897 147 MR c np
24 W
1150 2502 PD
gr

gs 899 389 5357 4227 MR c np
gr

gs 826 2429 4897 147 MR c np
24 W
1138 2502 PD
gr

gs 899 389 5357 4227 MR c np
gr

gs 826 2429 4897 147 MR c np
24 W
919 2502 PD
gr

gs 899 389 5357 4227 MR c np
gr

gs 826 2429 4897 147 MR c np
24 W
919 2502 PD
gr

gs 899 389 5357 4227 MR c np
gr

gs 826 2429 4897 147 MR c np
24 W
1124 2502 PD
gr

gs 899 389 5357 4227 MR c np
gr

gs 826 2429 4897 147 MR c np
24 W
1112 2502 PD
gr

gs 899 389 5357 4227 MR c np
gr

gs 826 2429 4897 147 MR c np
24 W
916 2502 PD
gr

gs 899 389 5357 4227 MR c np
gr

gs 826 2429 4897 147 MR c np
24 W
916 2502 PD
gr

gs 899 389 5357 4227 MR c np
gr

gs 826 2429 4897 147 MR c np
24 W
1097 2502 PD
gr

gs 899 389 5357 4227 MR c np
gr

gs 826 2429 4897 147 MR c np
24 W
1086 2502 PD
gr

gs 899 389 5357 4227 MR c np
gr

gs 826 2429 4897 147 MR c np
24 W
1075 2502 PD
gr

gs 899 389 5357 4227 MR c np
gr

gs 826 2429 4897 147 MR c np
24 W
913 2502 PD
gr

gs 899 389 5357 4227 MR c np
gr

gs 826 2429 4897 147 MR c np
24 W
1068 2502 PD
gr

gs 899 389 5357 4227 MR c np
gr

gs 826 2429 4897 147 MR c np
24 W
1056 2502 PD
gr

gs 899 389 5357 4227 MR c np
gr

gs 826 2429 4897 147 MR c np
24 W
1045 2502 PD
gr

gs 899 389 5357 4227 MR c np
gr

gs 826 2429 4897 147 MR c np
24 W
910 2502 PD
gr

gs 899 389 5357 4227 MR c np
gr

gs 826 2429 4897 147 MR c np
24 W
1042 2502 PD
gr

gs 899 389 5357 4227 MR c np
gr

gs 826 2429 4897 147 MR c np
24 W
1030 2502 PD
gr

gs 899 389 5357 4227 MR c np
gr

gs 826 2429 4897 147 MR c np
24 W
1020 2502 PD
gr

gs 899 389 5357 4227 MR c np
gr

gs 826 2429 4897 147 MR c np
24 W
907 2502 PD
gr

gs 899 389 5357 4227 MR c np
gr

gs 826 2429 4897 147 MR c np
24 W
1013 2502 PD
gr

gs 899 389 5357 4227 MR c np
gr

gs 826 2429 4897 147 MR c np
24 W
1004 2502 PD
gr

gs 899 389 5357 4227 MR c np
gr

gs 826 2429 4897 147 MR c np
24 W
993 2502 PD
gr

gs 899 389 5357 4227 MR c np
gr

gs 826 2429 4897 147 MR c np
24 W
904 2502 PD
gr

gs 899 389 5357 4227 MR c np
gr

gs 826 2429 4897 147 MR c np
24 W
905 2502 PD
gr

gs 899 389 5357 4227 MR c np
gr

gs 826 2429 4897 147 MR c np
24 W
975 2502 PD
gr

gs 899 389 5357 4227 MR c np
gr

gs 826 2429 4897 147 MR c np
24 W
963 2502 PD
gr

gs 899 389 5357 4227 MR c np
gr

gs 826 2429 4897 147 MR c np
24 W
901 2502 PD
gr

gs 899 389 5357 4227 MR c np
gr

gs 826 2429 4897 147 MR c np
24 W
902 2502 PD
gr

gs 899 389 5357 4227 MR c np
gr

gs 826 2429 4897 147 MR c np
24 W
948 2502 PD
gr

gs 899 389 5357 4227 MR c np
gr

gs 826 2429 4897 147 MR c np
24 W
937 2502 PD
gr

gs 899 389 5357 4227 MR c np
gr

gs 826 2429 4897 147 MR c np
24 W
899 2502 PD
gr

gs 899 389 5357 4227 MR c np
gr

gs 826 2429 4897 147 MR c np
24 W
899 2502 PD
gr

gs 899 389 5357 4227 MR c np
gr

gs 826 2429 4897 147 MR c np
24 W
919 2502 PD
gr

gs 899 389 5357 4227 MR c np
gr

gs 826 2429 4897 147 MR c np
24 W
910 2502 PD
gr

gs 899 389 5357 4227 MR c np
gr

gs 826 2429 4897 147 MR c np
24 W
899 2502 PD
gr

gs 899 389 5357 4227 MR c np
gr

3297  294 mt 
(iri009-sog) s

end %%Color Dict

eplot
%%EndObject

epage
end

showpage

%%Trailer
%%EOF
