%!PS-Adobe-2.0 EPSF-1.2
%%Creator: MATLAB, The Mathworks, Inc. Version 7.9.0.529 (R2009b). Operating System: Linux 2.6.35-28-generic #49-Ubuntu SMP Tue Mar 1 14:39:03 UTC 2011 x86_64.
%%Title: ./iri0xx-altitude.eps
%%CreationDate: 03/22/2011  17:11:09
%%DocumentNeededFonts: Helvetica
%%DocumentProcessColors: Cyan Magenta Yellow Black
%%Pages: 1
%%BoundingBox:    70   215   546   602
%%EndComments

%%BeginProlog
% MathWorks dictionary
/MathWorks 160 dict begin
% definition operators
/bdef {bind def} bind def
/ldef {load def} bind def
/xdef {exch def} bdef
/xstore {exch store} bdef
% operator abbreviations
/c  /clip ldef
/cc /concat ldef
/cp /closepath ldef
/gr /grestore ldef
/gs /gsave ldef
/mt /moveto ldef
/np /newpath ldef
/cm /currentmatrix ldef
/sm /setmatrix ldef
/rm /rmoveto ldef
/rl /rlineto ldef
/s {show newpath} bdef
/sc {setcmykcolor} bdef
/sr /setrgbcolor ldef
/sg /setgray ldef
/w /setlinewidth ldef
/j /setlinejoin ldef
/cap /setlinecap ldef
/rc {rectclip} bdef
/rf {rectfill} bdef
% page state control
/pgsv () def
/bpage {/pgsv save def} bdef
/epage {pgsv restore} bdef
/bplot /gsave ldef
/eplot {stroke grestore} bdef
% orientation switch
/portraitMode 0 def /landscapeMode 1 def /rotateMode 2 def
% coordinate system mappings
/dpi2point 0 def
% font control
/FontSize 0 def
/FMS {/FontSize xstore findfont [FontSize 0 0 FontSize neg 0 0]
  makefont setfont} bdef
/reencode {exch dup where {pop load} {pop StandardEncoding} ifelse
  exch dup 3 1 roll findfont dup length dict begin
  { 1 index /FID ne {def}{pop pop} ifelse } forall
  /Encoding exch def currentdict end definefont pop} bdef
/isroman {findfont /CharStrings get /Agrave known} bdef
/FMSR {3 1 roll 1 index dup isroman {reencode} {pop pop} ifelse
  exch FMS} bdef
/csm {1 dpi2point div -1 dpi2point div scale neg translate
 dup landscapeMode eq {pop -90 rotate}
  {rotateMode eq {90 rotate} if} ifelse} bdef
% line types: solid, dotted, dashed, dotdash
/SO { [] 0 setdash } bdef
/DO { [.5 dpi2point mul 4 dpi2point mul] 0 setdash } bdef
/DA { [6 dpi2point mul] 0 setdash } bdef
/DD { [.5 dpi2point mul 4 dpi2point mul 6 dpi2point mul 4
  dpi2point mul] 0 setdash } bdef
% macros for lines and objects
/L {lineto stroke} bdef
/MP {3 1 roll moveto 1 sub {rlineto} repeat} bdef
/AP {{rlineto} repeat} bdef
/PDlw -1 def
/W {/PDlw currentlinewidth def setlinewidth} def
/PP {closepath eofill} bdef
/DP {closepath stroke} bdef
/MR {4 -2 roll moveto dup  0 exch rlineto exch 0 rlineto
  neg 0 exch rlineto closepath} bdef
/FR {MR stroke} bdef
/PR {MR fill} bdef
/L1i {{currentfile picstr readhexstring pop} image} bdef
/tMatrix matrix def
/MakeOval {newpath tMatrix currentmatrix pop translate scale
0 0 1 0 360 arc tMatrix setmatrix} bdef
/FO {MakeOval stroke} bdef
/PO {MakeOval fill} bdef
/PD {currentlinewidth 2 div 0 360 arc fill
   PDlw -1 eq not {PDlw w /PDlw -1 def} if} def
/FA {newpath tMatrix currentmatrix pop translate scale
  0 0 1 5 -2 roll arc tMatrix setmatrix stroke} bdef
/PA {newpath tMatrix currentmatrix pop	translate 0 0 moveto scale
  0 0 1 5 -2 roll arc closepath tMatrix setmatrix fill} bdef
/FAn {newpath tMatrix currentmatrix pop translate scale
  0 0 1 5 -2 roll arcn tMatrix setmatrix stroke} bdef
/PAn {newpath tMatrix currentmatrix pop translate 0 0 moveto scale
  0 0 1 5 -2 roll arcn closepath tMatrix setmatrix fill} bdef
/vradius 0 def /hradius 0 def /lry 0 def
/lrx 0 def /uly 0 def /ulx 0 def /rad 0 def
/MRR {/vradius xdef /hradius xdef /lry xdef /lrx xdef /uly xdef
  /ulx xdef newpath tMatrix currentmatrix pop ulx hradius add uly
  vradius add translate hradius vradius scale 0 0 1 180 270 arc 
  tMatrix setmatrix lrx hradius sub uly vradius add translate
  hradius vradius scale 0 0 1 270 360 arc tMatrix setmatrix
  lrx hradius sub lry vradius sub translate hradius vradius scale
  0 0 1 0 90 arc tMatrix setmatrix ulx hradius add lry vradius sub
  translate hradius vradius scale 0 0 1 90 180 arc tMatrix setmatrix
  closepath} bdef
/FRR {MRR stroke } bdef
/PRR {MRR fill } bdef
/MlrRR {/lry xdef /lrx xdef /uly xdef /ulx xdef /rad lry uly sub 2 div def
  newpath tMatrix currentmatrix pop ulx rad add uly rad add translate
  rad rad scale 0 0 1 90 270 arc tMatrix setmatrix lrx rad sub lry rad
  sub translate rad rad scale 0 0 1 270 90 arc tMatrix setmatrix
  closepath} bdef
/FlrRR {MlrRR stroke } bdef
/PlrRR {MlrRR fill } bdef
/MtbRR {/lry xdef /lrx xdef /uly xdef /ulx xdef /rad lrx ulx sub 2 div def
  newpath tMatrix currentmatrix pop ulx rad add uly rad add translate
  rad rad scale 0 0 1 180 360 arc tMatrix setmatrix lrx rad sub lry rad
  sub translate rad rad scale 0 0 1 0 180 arc tMatrix setmatrix
  closepath} bdef
/FtbRR {MtbRR stroke } bdef
/PtbRR {MtbRR fill } bdef
/stri 6 array def /dtri 6 array def
/smat 6 array def /dmat 6 array def
/tmat1 6 array def /tmat2 6 array def /dif 3 array def
/asub {/ind2 exch def /ind1 exch def dup dup
  ind1 get exch ind2 get sub exch } bdef
/tri_to_matrix {
  2 0 asub 3 1 asub 4 0 asub 5 1 asub
  dup 0 get exch 1 get 7 -1 roll astore } bdef
/compute_transform {
  dmat dtri tri_to_matrix tmat1 invertmatrix 
  smat stri tri_to_matrix tmat2 concatmatrix } bdef
/ds {stri astore pop} bdef
/dt {dtri astore pop} bdef
/db {2 copy /cols xdef /rows xdef mul dup string
  currentfile exch readhexstring pop
  /bmap xdef pop pop} bdef
/it {gs np dtri aload pop moveto lineto lineto cp c
  cols rows 8 compute_transform 
  {bmap} image gr}bdef
/il {newpath moveto lineto stroke}bdef
currentdict end def
%%EndProlog

%%BeginSetup
MathWorks begin

0 cap

end
%%EndSetup

%%Page: 1 1
%%BeginPageSetup
%%PageBoundingBox:    70   215   546   602
MathWorks begin
bpage
%%EndPageSetup

%%BeginObject: obj1
bplot

/dpi2point 12 def
portraitMode 0216 7344 csm

  628   110  5709  4651 MR c np
85 dict begin %Colortable dictionary
/c0 { 0.000000 0.000000 0.000000 sr} bdef
/c1 { 1.000000 1.000000 1.000000 sr} bdef
/c2 { 0.900000 0.000000 0.000000 sr} bdef
/c3 { 0.000000 0.820000 0.000000 sr} bdef
/c4 { 0.000000 0.000000 0.800000 sr} bdef
/c5 { 0.910000 0.820000 0.320000 sr} bdef
/c6 { 1.000000 0.260000 0.820000 sr} bdef
/c7 { 0.000000 0.820000 0.820000 sr} bdef
c0
1 j
1 sg
   0    0 6913 5186 PR
6 w
0 4226 5356 0 0 -4226 899 4615 4 MP
PP
-5356 0 0 4226 5356 0 0 -4226 899 4615 5 MP stroke
4 w
DO
SO
6 w
0 sg
 899 4615 mt 6255 4615 L
 899 4615 mt  899  389 L
 899 4615 mt  899 4561 L
%%IncludeResource: font Helvetica
/Helvetica /ISOLatin1Encoding 120 FMSR

 796 4760 mt 
(-1) s
1434 4615 mt 1434 4561 L
1281 4760 mt 
(-0.8) s
1970 4615 mt 1970 4561 L
1817 4760 mt 
(-0.6) s
2505 4615 mt 2505 4561 L
2352 4760 mt 
(-0.4) s
3041 4615 mt 3041 4561 L
2888 4760 mt 
(-0.2) s
3577 4615 mt 3577 4561 L
3544 4760 mt 
(0) s
4112 4615 mt 4112 4561 L
4029 4760 mt 
(0.2) s
4648 4615 mt 4648 4561 L
4565 4760 mt 
(0.4) s
5183 4615 mt 5183 4561 L
5100 4760 mt 
(0.6) s
5719 4615 mt 5719 4561 L
5636 4760 mt 
(0.8) s
6255 4615 mt 6255 4561 L
6222 4760 mt 
(1) s
 899 4615 mt  952 4615 L
 728 4659 mt 
(-1) s
 899 4192 mt  952 4192 L
 628 4236 mt 
(-0.8) s
 899 3769 mt  952 3769 L
 628 3813 mt 
(-0.6) s
 899 3347 mt  952 3347 L
 628 3391 mt 
(-0.4) s
 899 2924 mt  952 2924 L
 628 2968 mt 
(-0.2) s
 899 2502 mt  952 2502 L
 798 2546 mt 
(0) s
 899 2079 mt  952 2079 L
 698 2123 mt 
(0.2) s
 899 1656 mt  952 1656 L
 698 1700 mt 
(0.4) s
 899 1234 mt  952 1234 L
 698 1278 mt 
(0.6) s
 899  811 mt  952  811 L
 698  855 mt 
(0.8) s
 899  389 mt  952  389 L
 798  433 mt 
(1) s
gs 899 389 5357 4227 MR c np
0 j
gs 3504 2429 147 147 MR c np
24 W
3577 2502 PD
gr

gs 3504 2429 147 147 MR c np
24 W
3577 2502 PD
gr

gs 3504 2429 147 147 MR c np
24 W
3577 2502 PD
gr

gs 3504 2429 147 147 MR c np
24 W
3577 2502 PD
gr

gs 3504 2429 147 147 MR c np
24 W
3577 2502 PD
gr

gs 3504 2429 147 147 MR c np
24 W
3577 2502 PD
gr

gs 3504 2429 147 147 MR c np
24 W
3577 2502 PD
gr

gs 3504 2429 147 147 MR c np
24 W
3577 2502 PD
gr

gs 3504 2429 147 147 MR c np
24 W
3577 2502 PD
gr

gs 3504 2429 147 147 MR c np
24 W
3577 2502 PD
gr

gs 3504 2429 147 147 MR c np
24 W
3577 2502 PD
gr

gs 3504 2429 147 147 MR c np
24 W
3577 2502 PD
gr

gs 3504 2429 147 147 MR c np
24 W
3577 2502 PD
gr

gs 3504 2429 147 147 MR c np
24 W
3577 2502 PD
gr

gs 3504 2429 147 147 MR c np
24 W
3577 2502 PD
gr

gs 3504 2429 147 147 MR c np
24 W
3577 2502 PD
gr

gs 3504 2429 147 147 MR c np
24 W
3577 2502 PD
gr

gs 3504 2429 147 147 MR c np
24 W
3577 2502 PD
gr

gs 3504 2429 147 147 MR c np
24 W
3577 2502 PD
gr

gs 3504 2429 147 147 MR c np
24 W
3577 2502 PD
gr

gs 3504 2429 147 147 MR c np
24 W
3577 2502 PD
gr

gs 3504 2429 147 147 MR c np
24 W
3577 2502 PD
gr

gs 3504 2429 147 147 MR c np
24 W
3577 2502 PD
gr

gs 3504 2429 147 147 MR c np
24 W
3577 2502 PD
gr

gs 3504 2429 147 147 MR c np
24 W
3577 2502 PD
gr

gs 3504 2429 147 147 MR c np
24 W
3577 2502 PD
gr

gs 3504 2429 147 147 MR c np
24 W
3577 2502 PD
gr

gs 3504 2429 147 147 MR c np
24 W
3577 2502 PD
gr

gs 3504 2429 147 147 MR c np
24 W
3577 2502 PD
gr

gs 3504 2429 147 147 MR c np
24 W
3577 2502 PD
gr

gs 3504 2429 147 147 MR c np
24 W
3577 2502 PD
gr

gs 3504 2429 147 147 MR c np
24 W
3577 2502 PD
gr

gs 3504 2429 147 147 MR c np
24 W
3577 2502 PD
gr

gs 3504 2429 147 147 MR c np
24 W
3577 2502 PD
gr

gs 3504 2429 147 147 MR c np
24 W
3577 2502 PD
gr

gs 3504 2429 147 147 MR c np
24 W
3577 2502 PD
gr

gs 3504 2429 147 147 MR c np
24 W
3577 2502 PD
gr

gs 3504 2429 147 147 MR c np
24 W
3577 2502 PD
gr

gs 3504 2429 147 147 MR c np
24 W
3577 2502 PD
gr

gs 3504 2429 147 147 MR c np
24 W
3577 2502 PD
gr

gs 3504 2429 147 147 MR c np
24 W
3577 2502 PD
gr

gs 3504 2429 147 147 MR c np
24 W
3577 2502 PD
gr

gs 3504 2429 147 147 MR c np
24 W
3577 2502 PD
gr

gs 3504 2429 147 147 MR c np
24 W
3577 2502 PD
gr

gs 3504 2429 147 147 MR c np
24 W
3577 2502 PD
gr

gs 3504 2429 147 147 MR c np
24 W
3577 2502 PD
gr

gs 3504 2429 147 147 MR c np
24 W
3577 2502 PD
gr

gs 3504 2429 147 147 MR c np
24 W
3577 2502 PD
gr

gs 3504 2429 147 147 MR c np
24 W
3577 2502 PD
gr

gs 3504 2429 147 147 MR c np
24 W
3577 2502 PD
gr

gs 3504 2429 147 147 MR c np
24 W
3577 2502 PD
gr

gs 3504 2429 147 147 MR c np
24 W
3577 2502 PD
gr

gs 3504 2429 147 147 MR c np
24 W
3577 2502 PD
gr

gs 3504 2429 147 147 MR c np
24 W
3577 2502 PD
gr

gs 3504 2429 147 147 MR c np
24 W
3577 2502 PD
gr

gs 3504 2429 147 147 MR c np
24 W
3577 2502 PD
gr

gs 3504 2429 147 147 MR c np
24 W
3577 2502 PD
gr

gs 3504 2429 147 147 MR c np
24 W
3577 2502 PD
gr

gs 3504 2429 147 147 MR c np
24 W
3577 2502 PD
gr

gs 3504 2429 147 147 MR c np
24 W
3577 2502 PD
gr

gs 3504 2429 147 147 MR c np
24 W
3577 2502 PD
gr

gs 3504 2429 147 147 MR c np
24 W
3577 2502 PD
gr

gs 3504 2429 147 147 MR c np
24 W
3577 2502 PD
gr

gs 3504 2429 147 147 MR c np
24 W
3577 2502 PD
gr

gs 3504 2429 147 147 MR c np
24 W
3577 2502 PD
gr

gs 3504 2429 147 147 MR c np
24 W
3577 2502 PD
gr

gs 3504 2429 147 147 MR c np
24 W
3577 2502 PD
gr

gs 3504 2429 147 147 MR c np
24 W
3577 2502 PD
gr

gs 3504 2429 147 147 MR c np
24 W
3577 2502 PD
gr

gs 3504 2429 147 147 MR c np
24 W
3577 2502 PD
gr

gs 3504 2429 147 147 MR c np
24 W
3577 2502 PD
gr

gs 3504 2429 147 147 MR c np
24 W
3577 2502 PD
gr

gs 3504 2429 147 147 MR c np
24 W
3577 2502 PD
gr

gs 3504 2429 147 147 MR c np
24 W
3577 2502 PD
gr

gs 3504 2429 147 147 MR c np
24 W
3577 2502 PD
gr

gs 3504 2429 147 147 MR c np
24 W
3577 2502 PD
gr

gs 3504 2429 147 147 MR c np
24 W
3577 2502 PD
gr

gs 3504 2429 147 147 MR c np
24 W
3577 2502 PD
gr

gs 3504 2429 147 147 MR c np
24 W
3577 2502 PD
gr

gs 3504 2429 147 147 MR c np
24 W
3577 2502 PD
gr

gs 3504 2429 147 147 MR c np
24 W
3577 2502 PD
gr

gs 3504 2429 147 147 MR c np
24 W
3577 2502 PD
gr

gs 3504 2429 147 147 MR c np
24 W
3577 2502 PD
gr

gs 3504 2429 147 147 MR c np
24 W
3577 2502 PD
gr

gs 3504 2429 147 147 MR c np
24 W
3577 2502 PD
gr

gs 3504 2429 147 147 MR c np
24 W
3577 2502 PD
gr

gs 3504 2429 147 147 MR c np
24 W
3577 2502 PD
gr

gs 3504 2429 147 147 MR c np
24 W
3577 2502 PD
gr

gs 3504 2429 147 147 MR c np
24 W
3577 2502 PD
gr

gs 3504 2429 147 147 MR c np
24 W
3577 2502 PD
gr

gs 3504 2429 147 147 MR c np
24 W
3577 2502 PD
gr

gs 3504 2429 147 147 MR c np
24 W
3577 2502 PD
gr

gs 3504 2429 147 147 MR c np
24 W
3577 2502 PD
gr

gs 3504 2429 147 147 MR c np
24 W
3577 2502 PD
gr

gs 3504 2429 147 147 MR c np
24 W
3577 2502 PD
gr

gs 3504 2429 147 147 MR c np
24 W
3577 2502 PD
gr

gs 3504 2429 147 147 MR c np
24 W
3577 2502 PD
gr

gs 3504 2429 147 147 MR c np
24 W
3577 2502 PD
gr

gs 3504 2429 147 147 MR c np
24 W
3577 2502 PD
gr

gs 3504 2429 147 147 MR c np
24 W
3577 2502 PD
gr

gs 3504 2429 147 147 MR c np
24 W
3577 2502 PD
gr

gs 3504 2429 147 147 MR c np
24 W
3577 2502 PD
gr

gs 3504 2429 147 147 MR c np
24 W
3577 2502 PD
gr

gs 3504 2429 147 147 MR c np
24 W
3577 2502 PD
gr

gs 3504 2429 147 147 MR c np
24 W
3577 2502 PD
gr

gs 3504 2429 147 147 MR c np
24 W
3577 2502 PD
gr

gs 3504 2429 147 147 MR c np
24 W
3577 2502 PD
gr

gs 3504 2429 147 147 MR c np
24 W
3577 2502 PD
gr

gs 3504 2429 147 147 MR c np
24 W
3577 2502 PD
gr

gs 3504 2429 147 147 MR c np
24 W
3577 2502 PD
gr

gs 3504 2429 147 147 MR c np
24 W
3577 2502 PD
gr

gs 3504 2429 147 147 MR c np
24 W
3577 2502 PD
gr

gs 3504 2429 147 147 MR c np
24 W
3577 2502 PD
gr

gs 3504 2429 147 147 MR c np
24 W
3577 2502 PD
gr

gs 3504 2429 147 147 MR c np
24 W
3577 2502 PD
gr

gs 3504 2429 147 147 MR c np
24 W
3577 2502 PD
gr

gs 3504 2429 147 147 MR c np
24 W
3577 2502 PD
gr

gs 3504 2429 147 147 MR c np
24 W
3577 2502 PD
gr

gs 3504 2429 147 147 MR c np
24 W
3577 2502 PD
gr

gs 3504 2429 147 147 MR c np
24 W
3577 2502 PD
gr

gs 3504 2429 147 147 MR c np
24 W
3577 2502 PD
gr

gs 3504 2429 147 147 MR c np
24 W
3577 2502 PD
gr

gs 3504 2429 147 147 MR c np
24 W
3577 2502 PD
gr

gs 3504 2429 147 147 MR c np
24 W
3577 2502 PD
gr

gs 3504 2429 147 147 MR c np
24 W
3577 2502 PD
gr

gs 3504 2429 147 147 MR c np
24 W
3577 2502 PD
gr

gs 3504 2429 147 147 MR c np
24 W
3577 2502 PD
gr

gs 3504 2429 147 147 MR c np
24 W
3577 2502 PD
gr

gs 3504 2429 147 147 MR c np
24 W
3577 2502 PD
gr

gs 3504 2429 147 147 MR c np
24 W
3577 2502 PD
gr

gs 3504 2429 147 147 MR c np
24 W
3577 2502 PD
gr

gs 3504 2429 147 147 MR c np
24 W
3577 2502 PD
gr

gs 3504 2429 147 147 MR c np
24 W
3577 2502 PD
gr

gs 3504 2429 147 147 MR c np
24 W
3577 2502 PD
gr

gs 3504 2429 147 147 MR c np
24 W
3577 2502 PD
gr

gs 3504 2429 147 147 MR c np
24 W
3577 2502 PD
gr

gs 3504 2429 147 147 MR c np
24 W
3577 2502 PD
gr

gs 3504 2429 147 147 MR c np
24 W
3577 2502 PD
gr

gs 3504 2429 147 147 MR c np
24 W
3577 2502 PD
gr

gs 3504 2429 147 147 MR c np
24 W
3577 2502 PD
gr

gs 3504 2429 147 147 MR c np
24 W
3577 2502 PD
gr

gs 3504 2429 147 147 MR c np
24 W
3577 2502 PD
gr

gs 3504 2429 147 147 MR c np
24 W
3577 2502 PD
gr

gs 3504 2429 147 147 MR c np
24 W
3577 2502 PD
gr

gs 3504 2429 147 147 MR c np
24 W
3577 2502 PD
gr

gs 3504 2429 147 147 MR c np
24 W
3577 2502 PD
gr

gs 3504 2429 147 147 MR c np
24 W
3577 2502 PD
gr

gs 3504 2429 147 147 MR c np
24 W
3577 2502 PD
gr

gs 3504 2429 147 147 MR c np
24 W
3577 2502 PD
gr

gs 3504 2429 147 147 MR c np
24 W
3577 2502 PD
gr

gs 3504 2429 147 147 MR c np
24 W
3577 2502 PD
gr

gs 3504 2429 147 147 MR c np
24 W
3577 2502 PD
gr

gs 3504 2429 147 147 MR c np
24 W
3577 2502 PD
gr

gs 3504 2429 147 147 MR c np
24 W
3577 2502 PD
gr

gs 3504 2429 147 147 MR c np
24 W
3577 2502 PD
gr

gs 3504 2429 147 147 MR c np
24 W
3577 2502 PD
gr

gs 3504 2429 147 147 MR c np
24 W
3577 2502 PD
gr

gs 3504 2429 147 147 MR c np
24 W
3577 2502 PD
gr

gs 3504 2429 147 147 MR c np
24 W
3577 2502 PD
gr

gs 3504 2429 147 147 MR c np
24 W
3577 2502 PD
gr

gs 3504 2429 147 147 MR c np
24 W
3577 2502 PD
gr

gs 3504 2429 147 147 MR c np
24 W
3577 2502 PD
gr

gs 3504 2429 147 147 MR c np
24 W
3577 2502 PD
gr

gs 3504 2429 147 147 MR c np
24 W
3577 2502 PD
gr

gs 3504 2429 147 147 MR c np
24 W
3577 2502 PD
gr

gr

3207  294 mt 
(iri0xx-altitude) s

end %%Color Dict

eplot
%%EndObject

epage
end

showpage

%%Trailer
%%EOF
