systime	value
340992	4.042
340992	4.042
340992	4.042
340992	4.042
340992	4.042
340992	4.042
340992	4.042
349741	4.055
349741	4.055
349741	4.055
349741	4.055
349741	4.055
349741	4.055
349741	4.055
308288000	4.042
302589440	4.029
302589440	4.029
302589440	4.029
302589440	4.029
302589440	4.029
302589440	4.029
302589440	4.029
302581303	4.029
302581303	4.029
302581303	4.029
302581303	4.029
302581303	4.029
302581303	4.029
302581303	4.029
301989888	3.992
301989951	3.992
301989951	3.992
301989951	3.992
301989951	3.992
301989951	3.992
301989951	3.992
301989951	3.992
301990656	3.992
301990656	3.992
301990656	3.992
301990656	3.992
301990656	3.992
301990656	3.992
301990656	3.992
302001664	3.967
301991168	3.967
301991168	3.967
301991168	3.967
301991168	3.967
301991168	3.967
301991168	3.967
301991168	3.967
302013184	3.967
302013184	3.967
302013184	3.967
302013184	3.967
302013184	3.967
302013184	3.967
302013184	3.967
301989888	3.943
301989904	4.582
301989904	4.582
301989904	4.582
301989904	4.582
301989904	4.582
301989904	4.582
301989904	4.582
301989960	3.943
301989960	3.943
301989960	3.943
301989960	3.943
301989960	3.943
301989960	3.943
301989960	3.943
