count	valid	hours	minutes	date	lat_deg	lat_dec_min	lon_deg	lon_dec_min	altitude	sog	cog	latitude	longitude
1	false	255	255	4294967295	255	4294967295	255	4294967295	65535	65535	65535	7413.278825	-7413.278825
2	false	255	255	4294967295	255	4294967295	255	4294967295	65535	65535	65535	7413.278825	-7413.278825
3	false	255	255	4294967295	255	4294967295	255	4294967295	65535	65535	65535	7413.278825	-7413.278825
4	false	255	255	4294967295	255	4294967295	255	4294967295	65535	65535	65535	7413.278825	-7413.278825
5	false	255	255	4294967295	255	4294967295	255	4294967295	65535	65535	65535	7413.278825	-7413.278825
6	false	255	255	4294967295	255	4294967295	255	4294967295	65535	65535	65535	7413.278825	-7413.278825
7	false	255	255	4294967295	255	4294967295	255	4294967295	65535	65535	65535	7413.278825	-7413.278825
8	true	0	33	175674	40	461755	96	410832	368	39	94	40.7695916666667	-96.68472
9	false	255	255	4294967295	255	4294967295	255	4294967295	65535	65535	65535	7413.278825	-7413.278825
10	true	15	12	175674	40	443270	96	393540	392	0	70	40.7387833333333	-96.6559
11	true	15	26	175674	40	443345	96	393603	404	0	328	40.7389083333333	-96.656005
12	true	15	39	175674	40	443355	96	393604	411	0	333	40.738925	-96.6560066666667
13	true	15	53	175674	40	443355	96	393607	407	0	333	40.738925	-96.6560116666667
14	true	16	7	175674	40	443340	96	393591	406	0	358	40.7389	-96.655985
15	true	16	21	175674	40	443385	96	393613	405	0	0	40.738975	-96.6560216666667
16	true	16	35	175674	40	443395	96	393583	407	0	49	40.7389916666667	-96.6559716666667
17	true	16	49	175674	40	443349	96	393661	400	0	23	40.738915	-96.6561016666667
18	true	17	2	175674	40	444031	96	393658	98	0	266	40.7400516666667	-96.6560966666667
19	true	17	16	175674	40	443938	96	393853	47	0	291	40.7398966666667	-96.6564216666667
20	true	17	30	175674	40	443390	96	393646	414	0	146	40.7389833333333	-96.6560766666667
21	true	17	44	175674	40	443369	96	393628	410	0	174	40.7389483333333	-96.6560466666667
22	true	17	58	175674	40	443346	96	393598	414	0	63	40.73891	-96.6559966666667
23	true	18	11	175674	40	443309	96	393625	394	0	269	40.7388483333333	-96.6560416666667
24	true	18	25	175674	40	443334	96	393594	400	0	160	40.73889	-96.65599
25	true	18	39	175674	40	443373	96	393635	395	0	149	40.738955	-96.6560583333333
26	true	18	53	175674	40	443350	96	393591	407	0	155	40.7389166666667	-96.655985
27	true	19	7	175674	40	443347	96	393616	412	0	98	40.7389116666667	-96.6560266666667
28	true	19	20	175674	40	443343	96	393600	412	0	329	40.738905	-96.656
29	true	19	34	175674	40	443042	96	393410	479	0	122	40.7384033333333	-96.6556833333333
30	true	19	48	175674	40	443318	96	393559	412	0	331	40.7388633333333	-96.6559316666667
31	true	20	2	175674	40	443429	96	393481	392	0	356	40.7390483333333	-96.6558016666667
32	true	20	16	175674	40	443318	96	393445	440	0	338	40.7388633333333	-96.6557416666667
33	true	20	30	175674	40	443369	96	393602	412	0	78	40.7389483333333	-96.6560033333333
34	true	20	43	175674	40	443348	96	393597	401	0	137	40.7389133333333	-96.655995
35	true	20	57	175674	40	443414	96	393618	437	0	357	40.7390233333333	-96.65603
36	true	21	11	175674	40	443353	96	393616	420	0	156	40.7389216666667	-96.6560266666667
37	true	21	25	175674	40	443335	96	393587	418	0	97	40.7388916666667	-96.6559783333333
38	true	21	39	175674	40	443354	96	393584	410	0	145	40.7389233333333	-96.6559733333333
39	true	21	52	175674	40	443370	96	393635	400	0	49	40.73895	-96.6560583333333
40	true	22	6	175674	40	443374	96	393618	398	0	107	40.7389566666667	-96.65603
41	true	22	20	175674	40	443349	96	393611	411	0	45	40.738915	-96.6560183333333
42	true	22	34	175674	40	443258	96	393654	405	0	356	40.7387633333333	-96.65609
43	true	22	48	175674	40	443340	96	393652	398	0	64	40.7389	-96.6560866666667
44	true	23	1	175674	40	443304	96	393568	418	0	22	40.73884	-96.6559466666667
45	true	23	15	175674	40	443374	96	393590	401	0	19	40.7389566666667	-96.6559833333333
46	true	23	29	175674	40	443351	96	393608	411	0	102	40.7389183333333	-96.6560133333333
47	true	23	43	175674	40	443393	96	393584	418	0	154	40.7389883333333	-96.6559733333333
48	true	23	57	175674	40	443322	96	393640	406	0	119	40.73887	-96.6560666666667
49	true	0	11	185674	40	443345	96	393574	415	0	131	40.7389083333333	-96.6559566666667
50	true	0	24	185674	40	443419	96	393635	416	0	144	40.7390316666667	-96.6560583333333
51	true	0	38	185674	40	443374	96	393617	413	0	181	40.7389566666667	-96.6560283333333
52	true	0	52	185674	40	443515	96	393618	383	0	3	40.7391916666667	-96.65603
53	true	1	6	185674	40	443322	96	393629	398	0	199	40.73887	-96.6560483333333
54	true	1	20	185674	40	443374	96	393590	412	0	21	40.7389566666667	-96.6559833333333
55	true	1	33	185674	40	443369	96	393616	412	0	30	40.7389483333333	-96.6560266666667
56	true	1	47	185674	40	443336	96	393543	424	0	8	40.7388933333333	-96.655905
57	true	2	1	185674	40	443330	96	393571	402	0	9	40.7388833333333	-96.6559516666667
58	true	2	15	185674	40	443383	96	393355	446	0	117	40.7389716666667	-96.6555916666667
59	true	2	29	185674	40	443497	96	393833	350	0	306	40.7391616666667	-96.6563883333333
60	true	2	43	185674	40	443358	96	393561	413	0	33	40.73893	-96.655935
61	true	2	56	185674	40	443403	96	393568	425	0	199	40.739005	-96.6559466666667
62	true	3	10	185674	40	443364	96	393574	423	0	152	40.73894	-96.6559566666667
63	true	3	24	185674	40	443358	96	393627	397	0	122	40.73893	-96.656045
64	true	3	38	185674	40	443837	96	395676	28	0	295	40.7397283333333	-96.65946
65	true	3	52	185674	40	443363	96	393514	412	0	58	40.7389383333333	-96.6558566666667
66	true	4	5	185674	40	443375	96	393584	419	0	357	40.7389583333333	-96.6559733333333
67	true	4	19	185674	40	443369	96	393630	408	0	335	40.7389483333333	-96.65605
68	true	4	33	185674	40	443363	96	393589	401	0	325	40.7389383333333	-96.6559816666667
69	true	4	47	185674	40	443341	96	393587	411	0	226	40.7389016666667	-96.6559783333333
70	true	5	1	185674	40	443378	96	393620	407	0	31	40.7389633333333	-96.6560333333333
71	true	5	14	185674	40	443357	96	393585	411	0	159	40.7389283333333	-96.655975
72	true	5	28	185674	40	443341	96	393583	414	0	265	40.7389016666667	-96.6559716666667
73	true	5	42	185674	40	443355	96	393578	415	0	11	40.738925	-96.6559633333333
74	true	5	56	185674	40	443363	96	393593	409	0	307	40.7389383333333	-96.6559883333333
75	true	6	10	185674	40	443350	96	393613	407	0	185	40.7389166666667	-96.6560216666667
76	true	6	24	185674	40	443350	96	393597	407	0	204	40.7389166666667	-96.655995
77	true	6	37	185674	40	443379	96	393624	397	0	22	40.738965	-96.65604
78	true	6	51	185674	40	443379	96	393624	401	0	255	40.738965	-96.65604
79	true	7	5	185674	40	443388	96	393635	398	0	137	40.73898	-96.6560583333333
80	true	7	19	185674	40	443355	96	393617	407	0	300	40.738925	-96.6560283333333
81	true	7	33	185674	40	443348	96	393580	412	0	38	40.7389133333333	-96.6559666666667
82	true	7	47	185674	40	443367	96	393608	407	0	70	40.738945	-96.6560133333333
83	true	8	0	185674	40	443368	96	393638	403	0	199	40.7389466666667	-96.6560633333333
84	true	8	14	185674	40	443375	96	393624	424	0	50	40.7389583333333	-96.65604
85	true	8	28	185674	40	443383	96	393613	418	0	101	40.7389716666667	-96.6560216666667
86	true	8	42	185674	40	443375	96	393655	405	0	297	40.7389583333333	-96.6560916666667
87	true	8	56	185674	40	443351	96	393588	435	0	112	40.7389183333333	-96.65598
88	true	9	9	185674	40	443347	96	393588	414	0	286	40.7389116666667	-96.65598
89	true	9	23	185674	40	443347	96	393597	418	0	117	40.7389116666667	-96.655995
90	true	9	37	185674	40	443424	96	393649	409	0	109	40.73904	-96.6560816666667
91	true	9	51	185674	40	443195	96	393740	359	0	120	40.7386583333333	-96.6562333333333
92	true	10	5	185674	40	443379	96	393567	413	0	52	40.738965	-96.655945
93	true	10	18	185674	40	443365	96	393630	410	0	68	40.7389416666667	-96.65605
94	true	10	32	185674	40	443349	96	393647	400	0	100	40.738915	-96.6560783333333
95	true	10	46	185674	40	443369	96	393648	416	0	31	40.7389483333333	-96.65608
96	true	11	0	185674	40	443324	96	393605	418	0	172	40.7388733333333	-96.6560083333333
97	true	11	14	185674	40	443374	96	393560	421	0	23	40.7389566666667	-96.6559333333333
98	true	11	27	185674	40	443268	96	393695	383	0	122	40.73878	-96.6561583333333
99	true	11	41	185674	40	443249	96	393763	363	0	185	40.7387483333333	-96.6562716666667
100	true	11	55	185674	40	443346	96	393618	397	0	107	40.73891	-96.65603
101	true	12	9	185674	40	443369	96	393601	410	0	99	40.7389483333333	-96.6560016666667
102	true	12	23	185674	40	443327	96	393600	418	0	138	40.7388783333333	-96.656
103	true	12	37	185674	40	443328	96	393573	419	0	135	40.73888	-96.655955
104	true	12	50	185674	40	443321	96	393547	420	0	145	40.7388683333333	-96.6559116666667
105	true	13	4	185674	40	443383	96	393665	392	0	92	40.7389716666667	-96.6561083333333
106	true	13	18	185674	40	443373	96	393643	397	0	314	40.738955	-96.6560716666667
107	true	13	32	185674	40	443413	96	393548	424	0	7	40.7390216666667	-96.6559133333333
108	true	13	46	185674	40	443343	96	393565	413	0	50	40.738905	-96.6559416666667
109	true	14	0	185674	40	443364	96	393645	410	0	17	40.73894	-96.656075
110	true	14	13	185674	40	443391	96	393643	399	0	92	40.738985	-96.6560716666667
111	true	14	27	185674	40	443355	96	393610	415	0	86	40.738925	-96.6560166666667
112	true	14	41	185674	40	443353	96	393597	410	0	72	40.7389216666667	-96.655995
113	true	14	55	185674	40	443385	96	393628	407	0	90	40.738975	-96.6560466666667
114	true	15	8	185674	40	443344	96	393519	421	0	57	40.7389066666667	-96.655865
115	true	15	22	185674	40	443360	96	393620	396	0	15	40.7389333333333	-96.6560333333333
116	true	15	36	185674	40	443335	96	393561	418	0	347	40.7388916666667	-96.655935
117	true	15	50	185674	40	443354	96	393585	417	0	330	40.7389233333333	-96.655975
118	true	16	4	185674	40	443355	96	393551	420	0	43	40.738925	-96.6559183333333
119	true	16	18	185674	40	443394	96	393630	389	0	109	40.73899	-96.65605
120	true	16	31	185674	40	443369	96	393590	410	0	353	40.7389483333333	-96.6559833333333
121	true	16	45	185674	40	443410	96	393634	400	0	57	40.7390166666667	-96.6560566666667
122	true	16	59	185674	40	443341	96	393555	416	0	42	40.7389016666667	-96.655925
123	true	17	13	185674	40	443797	96	393751	132	0	276	40.7396616666667	-96.6562516666667
124	true	17	27	185674	40	443374	96	393642	414	0	38	40.7389566666667	-96.65607
125	true	17	41	185674	40	443358	96	393601	311	0	65322	40.73893	-96.6560016666667
126	false	17	54	185674	40	443353	96	393602	419	0	65535	40.7389216666667	-96.6560033333333
127	false	18	8	185674	40	443345	96	393601	411	65280	65535	40.7389083333333	-96.6560016666667
128	false	18	22	185674	40	443331	96	393580	404	65535	65535	40.738885	-96.6559666666667
129	false	18	36	185674	40	443354	96	393620	65438	65535	65535	40.7389233333333	-96.6560333333333
130	false	18	49	185674	40	443400	96	393647	65535	65535	65535	40.739	-96.6560783333333
131	false	19	3	185674	40	443340	96	4278583686	65535	65535	65535	40.7389	-7226.97281
132	false	19	17	185674	40	443341	96	4294902174	65535	65535	65535	40.7389016666667	-7254.17029
133	false	19	31	185674	40	443293	96	4294967183	65535	65535	65535	40.7388216666667	-7254.27863833333
134	false	19	45	185674	40	443368	96	4294967295	65535	65535	65535	40.7389466666667	-7254.278825
135	false	19	59	185674	40	443346	255	4294967295	65535	65535	65535	40.73891	-7413.278825
136	true	20	12	185674	40	443353	96	393584	411	0	129	40.7389216666667	-96.6559733333333
137	false	20	26	185674	40	4294951922	255	4294967295	65535	65535	65535	7198.25320333333	-7413.278825
138	false	20	40	185674	40	4294967064	255	4294967295	65535	65535	65535	7198.27844	-7413.278825
139	false	20	54	185674	40	4294967295	255	4294967295	65535	65535	65535	7198.278825	-7413.278825
140	false	21	8	185674	255	4294967295	255	4294967295	65535	65535	65535	7413.278825	-7413.278825
141	false	255	255	4294967295	255	4294967295	255	4294967295	65535	65535	65535	7413.278825	-7413.278825
142	false	255	255	4294967295	255	4294967295	255	4294967295	65535	65535	65535	7413.278825	-7413.278825
143	false	255	255	4294967295	255	4294967295	255	4294967295	65535	65535	65535	7413.278825	-7413.278825
144	false	255	255	4294967295	255	4294967295	255	4294967295	65535	65535	65535	7413.278825	-7413.278825
145	false	255	255	4294967295	255	4294967295	255	4294967295	65535	65535	65535	7413.278825	-7413.278825
146	false	255	255	4294967295	255	4294967295	255	4294967295	65535	65535	65535	7413.278825	-7413.278825
147	false	255	255	4294967295	255	4294967295	255	4294967295	65535	65535	65535	7413.278825	-7413.278825
148	false	255	255	4294967295	255	4294967295	255	4294967295	65535	65535	65535	7413.278825	-7413.278825
149	false	255	255	4294967295	255	4294967295	255	4294967295	65535	65535	65535	7413.278825	-7413.278825
150	false	255	255	4294967295	255	4294967295	255	4294967295	65535	65535	65535	7413.278825	-7413.278825
151	false	255	255	4294967295	255	4294967295	255	4294967295	65535	65535	65535	7413.278825	-7413.278825
152	false	255	255	4294967295	255	4294967295	255	4294967295	65535	65535	65535	7413.278825	-7413.278825
153	false	255	255	4294967295	255	4294967295	255	4294967295	65535	65535	65535	7413.278825	-7413.278825
154	false	255	255	4294967295	255	4294967295	255	4294967295	65535	65535	65535	7413.278825	-7413.278825
155	false	255	255	4294967295	255	4294967295	255	4294967295	65535	65535	65535	7413.278825	-7413.278825
156	false	255	255	4294967295	255	4294967295	255	4294967295	65535	65535	65535	7413.278825	-7413.278825
157	false	255	255	4294967295	255	4294967295	255	4294967295	65535	65535	65535	7413.278825	-7413.278825
158	false	255	255	4294967295	255	4294967295	255	4294967295	65535	65535	65535	7413.278825	-7413.278825
159	false	255	255	4294967295	255	4294967295	255	4294967295	65535	65535	65535	7413.278825	-7413.278825
160	false	255	255	4294967295	255	4294967295	255	4294967295	65535	65535	65535	7413.278825	-7413.278825
161	false	255	255	4294967295	255	4294967295	255	4294967295	65535	65535	65535	7413.278825	-7413.278825
162	false	255	255	4294967295	255	4294967295	255	4294967295	65535	65535	65535	7413.278825	-7413.278825
163	false	255	255	4294967295	255	4294967295	255	4294967295	65535	65535	65535	7413.278825	-7413.278825
164	false	255	255	4294967295	255	4294967295	255	4294967295	65535	65535	65535	7413.278825	-7413.278825
165	false	255	255	4294967295	255	4294967295	255	4294967295	65535	65535	65535	7413.278825	-7413.278825
166	false	255	255	4294967295	255	4294967295	255	4294967295	65535	65535	65535	7413.278825	-7413.278825
167	false	255	255	4294967295	255	4294967295	255	4294967295	65535	65535	65535	7413.278825	-7413.278825
168	false	255	255	4294967295	255	4294967295	255	4294967295	65535	65535	65535	7413.278825	-7413.278825
169	false	255	255	4294967295	255	4294967295	255	4294967295	65535	65535	65535	7413.278825	-7413.278825
170	false	255	255	4294967295	255	4294967295	255	4294967295	65535	65535	65535	7413.278825	-7413.278825
171	false	255	255	4294967295	255	4294967295	255	4294967295	65535	65535	65535	7413.278825	-7413.278825
172	false	255	255	4294967295	255	4294967295	255	4294967295	65535	65535	65535	7413.278825	-7413.278825
173	false	255	255	4294967295	255	4294967295	255	4294967295	65535	65535	65535	7413.278825	-7413.278825
174	false	255	255	4294967295	255	4294967295	255	4294967295	65535	65535	65535	7413.278825	-7413.278825
175	false	255	255	4294967295	255	4294967295	255	4294967295	65535	65535	65535	7413.278825	-7413.278825
176	true	22	31	301210	40	443365	96	393491	444	0	297	40.7389416666667	-96.6558183333333
177	true	22	43	301210	40	443322	96	393631	406	0	61	40.73887	-96.6560516666667
178	true	22	57	301210	40	443379	96	393620	417	0	119	40.738965	-96.6560333333333
179	true	23	10	301210	40	443402	96	393678	402	0	138	40.7390033333333	-96.65613
180	true	23	24	301210	40	443318	96	393560	401	0	134	40.7388633333333	-96.6559333333333
181	true	23	38	301210	40	443411	96	393644	409	0	144	40.7390183333333	-96.6560733333333
182	true	23	52	301210	40	443369	96	393607	418	0	107	40.7389483333333	-96.6560116666667
183	true	0	6	311210	40	443348	96	393606	409	0	100	40.7389133333333	-96.65601
184	true	0	20	311210	40	443381	96	393606	405	0	50	40.7389683333333	-96.65601
185	true	0	33	311210	40	443346	96	393643	410	0	49	40.73891	-96.6560716666667
186	true	0	47	311210	40	443358	96	393635	410	0	348	40.73893	-96.6560583333333
187	true	1	1	311210	40	443383	96	393740	396	0	35	40.7389716666667	-96.6562333333333
188	true	1	15	311210	40	443341	96	393628	415	0	68	40.7389016666667	-96.6560466666667
189	true	1	29	311210	40	443721	96	393089	439	0	0	40.739535	-96.6551483333333
190	true	1	42	311210	40	443365	96	393646	409	0	76	40.7389416666667	-96.6560766666667
191	true	1	57	311210	40	443353	96	393514	436	0	70	40.7389216666667	-96.6558566666667
192	true	2	10	311210	40	443377	96	393593	411	0	0	40.7389616666667	-96.6559883333333
193	true	2	24	311210	40	443381	96	393611	418	0	40	40.7389683333333	-96.6560183333333
194	true	2	38	311210	40	443360	96	393609	439	0	250	40.7389333333333	-96.656015
195	true	2	52	311210	40	443393	96	393611	417	0	42	40.7389883333333	-96.6560183333333
196	true	3	5	311210	40	442889	96	396817	28	0	266	40.7381483333333	-96.6613616666667
197	true	3	19	311210	40	443373	96	393623	407	0	346	40.738955	-96.6560383333333
198	true	3	33	311210	40	443310	96	393656	408	0	151	40.73885	-96.6560933333333
199	true	3	47	311210	40	443224	96	393668	399	0	20	40.7387066666667	-96.6561133333333
200	true	4	1	311210	40	443330	96	393584	391	0	19	40.7388833333333	-96.6559733333333
201	true	4	14	311210	40	443365	96	393645	412	0	54	40.7389416666667	-96.656075
202	true	4	28	311210	40	443341	96	393588	397	0	79	40.7389016666667	-96.65598
203	true	4	42	311210	40	443381	96	393593	413	0	116	40.7389683333333	-96.6559883333333
204	true	4	56	311210	40	443340	96	393655	393	0	131	40.7389	-96.6560916666667
205	true	5	10	311210	40	443364	96	393605	388	0	165	40.73894	-96.6560083333333
206	true	5	24	311210	40	443388	96	393603	407	0	70	40.73898	-96.656005
207	true	5	37	311210	40	443383	96	393639	409	0	85	40.7389716666667	-96.656065
208	true	5	51	311210	40	443388	96	393614	406	0	173	40.73898	-96.6560233333333
209	true	6	5	311210	40	443368	96	393602	404	0	265	40.7389466666667	-96.6560033333333
210	true	6	19	311210	40	443355	96	393649	404	0	312	40.738925	-96.6560816666667
211	true	6	33	311210	40	443347	96	393628	399	0	50	40.7389116666667	-96.6560466666667
212	true	6	46	311210	40	443364	96	393623	435	0	13	40.73894	-96.6560383333333
213	true	7	0	311210	40	443370	96	393668	412	0	55	40.73895	-96.6561133333333
214	true	7	14	311210	40	443374	96	393643	403	0	99	40.7389566666667	-96.6560716666667
215	true	7	28	311210	40	443594	96	393789	314	0	14	40.7393233333333	-96.656315
216	true	7	42	311210	40	443364	96	393679	423	0	0	40.73894	-96.6561316666667
217	true	7	56	311210	40	441920	96	391508	28	0	0	40.7365333333333	-96.6525133333333
218	true	8	9	311210	40	443318	96	393674	401	0	31	40.7388633333333	-96.6561233333333
219	true	8	23	311210	40	443430	96	393593	418	0	161	40.73905	-96.6559883333333
220	true	8	37	311210	40	443354	96	393603	411	0	124	40.7389233333333	-96.656005
221	true	8	51	311210	40	443349	96	393671	415	0	104	40.738915	-96.6561183333333
222	true	9	4	311210	40	443204	96	393398	342	0	121	40.7386733333333	-96.6556633333333
223	true	9	18	311210	40	443389	96	393635	406	0	213	40.7389816666667	-96.6560583333333
224	true	9	32	311210	40	443344	96	393635	410	0	67	40.7389066666667	-96.6560583333333
225	true	9	46	311210	40	443350	96	393614	407	0	148	40.7389166666667	-96.6560233333333
226	true	10	0	311210	40	443360	96	393644	413	0	134	40.7389333333333	-96.6560733333333
227	true	10	14	311210	40	443355	96	393623	409	0	49	40.738925	-96.6560383333333
228	true	10	27	311210	40	443398	96	393639	415	0	18	40.7389966666667	-96.656065
229	true	10	41	311210	40	443363	96	393672	428	0	29	40.7389383333333	-96.65612
230	true	10	55	311210	40	443341	96	393655	404	0	111	40.7389016666667	-96.6560916666667
231	true	11	9	311210	40	443345	96	393567	434	0	152	40.7389083333333	-96.655945
232	true	11	23	311210	40	443314	96	393588	416	0	110	40.7388566666667	-96.65598
233	true	11	36	311210	40	443348	96	393621	409	0	198	40.7389133333333	-96.656035
234	true	11	50	311210	40	443332	96	393610	397	0	124	40.7388866666667	-96.6560166666667
235	true	12	4	311210	40	443369	96	393628	404	0	131	40.7389483333333	-96.6560466666667
236	true	12	18	311210	40	443427	96	393728	445	0	139	40.739045	-96.6562133333333
237	true	12	32	311210	40	443360	96	393653	402	0	98	40.7389333333333	-96.6560883333333
238	true	12	46	311210	40	443378	96	393655	399	0	34	40.7389633333333	-96.6560916666667
239	true	12	59	311210	40	443404	96	393567	391	0	96	40.7390066666667	-96.655945
240	true	13	13	311210	40	443394	96	393639	413	0	26	40.73899	-96.656065
241	true	13	27	311210	40	443369	96	393647	406	0	51	40.7389483333333	-96.6560783333333
242	true	13	41	311210	40	443435	96	393641	433	0	96	40.7390583333333	-96.6560683333333
243	true	13	55	311210	40	443379	96	393631	388	0	23	40.738965	-96.6560516666667
244	true	14	8	311210	40	443358	96	393669	400	0	9	40.73893	-96.656115
245	true	14	22	311210	40	443369	96	393549	400	0	6	40.7389483333333	-96.655915
246	true	14	36	311210	40	443364	96	393602	401	0	353	40.73894	-96.6560033333333
247	true	14	50	311210	40	443360	96	393628	401	0	54	40.7389333333333	-96.6560466666667
248	true	15	4	311210	40	443388	96	393645	409	0	331	40.73898	-96.656075
249	true	15	17	311210	40	443500	96	393649	395	0	257	40.7391666666667	-96.6560816666667
250	true	15	31	311210	40	443381	96	393630	408	0	356	40.7389683333333	-96.65605
251	true	15	45	311210	40	443378	96	393609	404	0	241	40.7389633333333	-96.656015
252	true	15	59	311210	40	443364	96	393635	407	0	353	40.73894	-96.6560583333333
253	true	16	13	311210	40	443274	96	393669	403	0	213	40.73879	-96.656115
254	true	16	27	311210	40	443341	96	393551	431	0	79	40.7389016666667	-96.6559183333333
255	false	255	255	4294967295	255	4294967295	255	4294967295	65535	65535	65535	7413.278825	-7413.278825
256	true	20	10	311210	39	94971	94	353403	236	64	168	39.158285	-94.589005
257	true	20	24	311210	39	52532	94	351138	234	0	145	39.0875533333333	-94.58523
258	true	20	38	311210	39	52594	94	351150	232	0	155	39.0876566666667	-94.58525
259	true	20	52	311210	39	52570	94	351138	221	0	87	39.0876166666667	-94.58523
260	true	21	5	311210	39	52685	94	351198	257	0	118	39.0878083333333	-94.58533
261	true	21	19	311210	39	52532	94	351193	302	0	166	39.0875533333333	-94.5853216666667
262	true	21	33	311210	39	47749	94	351743	293	0	78	39.0795816666667	-94.5862383333333
263	false	255	255	4294967295	255	4294967295	255	4294967295	65535	65535	65535	7413.278825	-7413.278825
264	false	255	255	4294967295	255	4294967295	255	4294967295	65535	65535	65535	7413.278825	-7413.278825
265	false	255	255	4294967295	255	4294967295	255	4294967295	65535	65535	65535	7413.278825	-7413.278825
266	false	255	255	4294967295	255	4294967295	255	4294967295	65535	65535	65535	7413.278825	-7413.278825
267	false	255	255	4294967295	255	4294967295	255	4294967295	65535	65535	65535	7413.278825	-7413.278825
268	false	255	255	4294967295	255	4294967295	255	4294967295	65535	65535	65535	7413.278825	-7413.278825
269	false	255	255	4294967295	255	4294967295	255	4294967295	65535	65535	65535	7413.278825	-7413.278825
270	false	255	255	4294967295	255	4294967295	255	4294967295	65535	65535	65535	7413.278825	-7413.278825
271	true	23	37	311210	39	69819	94	373723	279	0	141	39.116365	-94.6228716666667
272	true	23	51	311210	39	69759	94	373694	259	0	153	39.116265	-94.6228233333333
273	true	0	5	10111	39	69747	94	373719	256	0	4	39.116245	-94.622865
274	true	0	19	10111	39	69890	94	373642	294	0	28	39.1164833333333	-94.6227366666667
275	true	0	33	10111	39	69780	94	373724	262	0	28	39.1163	-94.6228733333333
276	true	0	46	10111	39	69736	94	373773	249	0	352	39.1162266666667	-94.622955
277	false	255	255	4294967295	255	4294967295	255	4294967295	65535	65535	65535	7413.278825	-7413.278825
278	false	255	255	4294967295	255	4294967295	255	4294967295	65535	65535	65535	7413.278825	-7413.278825
279	true	1	28	10111	39	8702	94	355773	312	0	20	39.0145033333333	-94.592955
280	true	1	42	10111	39	8704	94	355715	296	0	191	39.0145066666667	-94.5928583333333
281	true	1	56	10111	39	8652	94	355725	295	0	82	39.01442	-94.592875
282	true	2	9	10111	39	8681	94	355720	287	0	128	39.0144683333333	-94.5928666666667
283	true	2	23	10111	39	8553	94	355645	227	0	190	39.014255	-94.5927416666667
284	false	255	255	4294967295	255	4294967295	255	4294967295	65535	65535	65535	7413.278825	-7413.278825
285	true	2	51	10111	39	8681	94	355727	287	0	40	39.0144683333333	-94.5928783333333
286	true	3	5	10111	39	8662	94	355717	298	0	31	39.0144366666667	-94.5928616666667
287	true	3	19	10111	39	8696	94	355700	297	0	233	39.0144933333333	-94.5928333333333
288	false	255	255	4294967295	255	4294967295	255	4294967295	65535	65535	65535	7413.278825	-7413.278825
289	false	255	255	4294967295	255	4294967295	255	4294967295	65535	65535	65535	7413.278825	-7413.278825
290	true	4	0	10111	39	51625	94	347575	303	0	14	39.0860416666667	-94.5792916666667
291	true	4	14	10111	39	51604	94	347633	320	0	339	39.0860066666667	-94.5793883333333
292	true	4	27	10111	39	51649	94	347694	257	0	344	39.0860816666667	-94.57949
293	true	4	42	10111	39	51598	94	347656	267	0	194	39.0859966666667	-94.5794266666667
294	true	4	56	10111	39	51770	94	347684	394	0	152	39.0862833333333	-94.5794733333333
295	true	5	9	10111	39	51631	94	347637	269	0	308	39.0860516666667	-94.579395
296	true	5	23	10111	39	51661	94	347624	277	0	114	39.0861016666667	-94.5793733333333
297	true	5	37	10111	39	51668	94	347623	281	0	164	39.0861133333333	-94.5793716666667
298	true	5	50	10111	39	51818	94	347815	181	0	161	39.0863633333333	-94.5796916666667
299	true	6	4	10111	39	51664	94	347724	251	0	15	39.0861066666667	-94.57954
300	true	6	18	10111	39	51668	94	347644	286	0	310	39.0861133333333	-94.5794066666667
301	true	6	32	10111	39	51619	94	347544	297	0	334	39.0860316666667	-94.57924
302	true	6	46	10111	39	51614	94	347662	287	0	40	39.0860233333333	-94.5794366666667
303	true	6	59	10111	39	51598	94	347666	263	0	302	39.0859966666667	-94.5794433333333
304	true	7	13	10111	39	51709	94	347529	321	0	328	39.0861816666667	-94.579215
305	true	7	27	10111	39	69180	94	374145	62641	19	266	39.1153	-94.623575
306	true	7	41	10111	39	69764	94	373567	266	0	4	39.1162733333333	-94.6226116666667
307	true	7	55	10111	39	69752	94	373606	274	0	166	39.1162533333333	-94.6226766666667
308	true	8	8	10111	39	69803	94	373584	278	0	166	39.1163383333333	-94.62264
309	true	8	22	10111	39	69798	94	373610	284	0	339	39.11633	-94.6226833333333
310	true	8	36	10111	39	69740	94	373583	274	0	105	39.1162333333333	-94.6226383333333
311	true	8	50	10111	39	69721	94	373588	272	0	115	39.1162016666667	-94.6226466666667
312	true	9	4	10111	39	70015	94	373574	376	0	86	39.1166916666667	-94.6226233333333
313	true	9	18	10111	39	69728	94	373550	266	0	142	39.1162133333333	-94.6225833333333
314	true	9	31	10111	39	69648	94	373614	318	0	206	39.11608	-94.62269
315	true	9	45	10111	39	69797	94	373665	259	0	174	39.1163283333333	-94.622775
316	true	9	59	10111	39	69637	94	373648	276	0	33	39.1160616666667	-94.6227466666667
317	true	10	13	10111	39	69726	94	373650	272	0	28	39.11621	-94.62275
318	true	10	27	10111	39	69709	94	373591	286	0	34	39.1161816666667	-94.6226516666667
319	true	10	40	10111	39	69790	94	373538	261	0	188	39.1163166666667	-94.6225633333333
320	true	10	54	10111	39	69747	94	373588	250	0	106	39.116245	-94.6226466666667
321	true	11	8	10111	39	69729	94	373543	293	0	149	39.116215	-94.6225716666667
322	true	11	22	10111	39	70046	94	373593	326	0	197	39.1167433333333	-94.622655
323	true	11	36	10111	39	69722	94	373579	272	0	124	39.1162033333333	-94.6226316666667
324	true	11	49	10111	39	69629	94	373547	303	0	145	39.1160483333333	-94.6225783333333
325	true	12	3	10111	39	69713	94	373544	268	0	52	39.1161883333333	-94.6225733333333
326	true	12	17	10111	39	69720	94	373565	276	0	132	39.1162	-94.6226083333333
327	true	12	31	10111	39	69738	94	373630	272	0	119	39.11623	-94.6227166666667
328	true	12	45	10111	39	69681	94	373629	285	0	80	39.116135	-94.622715
329	true	12	59	10111	39	69748	94	373446	301	0	272	39.1162466666667	-94.62241
330	true	13	12	10111	39	69744	94	373574	259	0	184	39.11624	-94.6226233333333
331	true	13	26	10111	39	69729	94	373619	262	0	150	39.116215	-94.6226983333333
332	true	13	40	10111	39	69450	94	374137	626	0	56	39.11575	-94.6235616666667
333	true	13	54	10111	39	69787	94	373525	255	0	31	39.1163116666667	-94.6225416666667
334	true	14	8	10111	39	69763	94	373611	265	0	6	39.1162716666667	-94.622685
335	true	14	22	10111	39	69706	94	373611	274	0	125	39.1161766666667	-94.622685
336	true	14	35	10111	39	69764	94	373559	259	0	357	39.1162733333333	-94.6225983333333
337	true	14	49	10111	39	69737	94	373569	276	0	337	39.1162283333333	-94.622615
338	true	15	3	10111	39	69733	94	373557	265	0	166	39.1162216666667	-94.622595
339	true	15	17	10111	39	69749	94	373574	262	0	335	39.1162483333333	-94.6226233333333
340	true	15	31	10111	39	69799	94	373616	253	0	352	39.1163316666667	-94.6226933333333
341	true	15	44	10111	39	69787	94	373583	253	0	23	39.1163116666667	-94.6226383333333
342	false	255	255	4294967295	255	4294967295	255	4294967295	65535	65535	65535	7413.278825	-7413.278825
343	true	16	12	10111	39	69784	94	373577	296	0	161	39.1163066666667	-94.6226283333333
344	true	16	26	10111	39	69756	94	373554	269	0	161	39.11626	-94.62259
345	true	16	40	10111	39	69573	94	373568	257	0	248	39.115955	-94.6226133333333
346	false	255	255	4294967295	255	4294967295	255	4294967295	65535	65535	65535	7413.278825	-7413.278825
347	false	255	255	4294967295	255	4294967295	255	4294967295	65535	65535	65535	7413.278825	-7413.278825
348	false	255	255	4294967295	255	4294967295	255	4294967295	65535	65535	65535	7413.278825	-7413.278825
349	false	255	255	4294967295	255	4294967295	255	4294967295	65535	65535	65535	7413.278825	-7413.278825
350	false	255	255	4294967295	255	4294967295	255	4294967295	65535	65535	65535	7413.278825	-7413.278825
351	false	255	255	4294967295	255	4294967295	255	4294967295	65535	65535	65535	7413.278825	-7413.278825
352	false	255	255	4294967295	255	4294967295	255	4294967295	65535	65535	65535	7413.278825	-7413.278825
353	false	255	255	4294967295	255	4294967295	255	4294967295	65535	65535	65535	7413.278825	-7413.278825
354	false	255	255	4294967295	255	4294967295	255	4294967295	65535	65535	65535	7413.278825	-7413.278825
355	false	255	255	4294967295	255	4294967295	255	4294967295	65535	65535	65535	7413.278825	-7413.278825
356	false	255	255	4294967295	255	4294967295	255	4294967295	65535	65535	65535	7413.278825	-7413.278825
357	false	255	255	4294967295	255	4294967295	255	4294967295	65535	65535	65535	7413.278825	-7413.278825
