digraph "craneLeg_if" {
    rankdir=LR;
    ratio=compress;
    margin="0,0";
    ranksep=0.0005; 
    nodesep=0.1; 
    node [shape=ellipse style=filled fillcolor="#e0e0e0"];
    node [fontsize=10 height=.1 width=.1];
    edge [fontsize=9 arrowsize=.8];
    node [fontcolor=blue];
    edge [fontcolor=blue];

    Main [URL="tos.system.Main.nc.html"];
    GenericComm [URL="tos.system.GenericComm.nc.html"];
    Main -> GenericComm [ label="StdControl" URL="tos.interfaces.StdControl.nc.html" ];
    Main [URL="tos.system.Main.nc.html"];
    TimerC [URL="tos.system.TimerC.nc.html"];
    Main -> TimerC [ label="StdControl" URL="tos.interfaces.StdControl.nc.html" ];
    Main [URL="tos.system.Main.nc.html"];
    craneLegM [URL="apps.CraneLeg.craneLegM.nc.html"];
    Main -> craneLegM [ label="StdControl" URL="tos.interfaces.StdControl.nc.html" ];
    craneLegM [URL="apps.CraneLeg.craneLegM.nc.html"];
    GpsDriver [URL="tos.sensorboards.crane100.GpsDriver.nc.html"];
    craneLegM -> GpsDriver [ label="GSM_GPSI" URL="tos.sensorboards.crane100.GSM_GPSI.nc.html" ];
    craneLegM [URL="apps.CraneLeg.craneLegM.nc.html"];
    HighLevelTwi [URL="tos.sensorboards.crane100.HighLevelTwi.nc.html"];
    craneLegM -> HighLevelTwi [ label="HighLevelTwiInterface" URL="tos.sensorboards.crane100.HighLevelTwiInterface.nc.html" ];
    craneLegM [URL="apps.CraneLeg.craneLegM.nc.html"];
    TimerC [URL="tos.system.TimerC.nc.html"];
    craneLegM -> TimerC [ label="Timer" URL="tos.interfaces.Timer.nc.html" ];
    craneLegM [URL="apps.CraneLeg.craneLegM.nc.html"];
    LedsC [URL="tos.system.LedsC.nc.html"];
    craneLegM -> LedsC [ label="Leds" URL="tos.interfaces.Leds.nc.html" ];
    craneLegM [URL="apps.CraneLeg.craneLegM.nc.html"];
    GenericComm [URL="tos.system.GenericComm.nc.html"];
    craneLegM -> GenericComm [ label="SendMsg" URL="tos.interfaces.SendMsg.nc.html" ];
    craneLegM [URL="apps.CraneLeg.craneLegM.nc.html"];
    PredictionM [URL="apps.CraneLeg.PredictionM.nc.html"];
    craneLegM -> PredictionM [ label="PredictionInterface" URL="apps.CraneLeg.PredictionInterface.nc.html" ];
}
