digraph "HighLevelTwi_if" {
    rankdir=LR;
    ratio=compress;
    margin="0,0";
    ranksep=0.0005; 
    nodesep=0.1; 
    node [shape=ellipse style=filled fillcolor="#e0e0e0"];
    node [fontsize=10 height=.1 width=.1];
    edge [fontsize=9 arrowsize=.8];
    node [fontcolor=blue];
    edge [fontcolor=blue];

    HighLevelTwi [URL="Users.wbennett.TinyOS.tinyos-1.x.tos.sensorboards.CraneSensor100.branches.CraneSensor300.1.1.HighLevelTwi.nc.html"];
    HighLevelTwiM [URL="Users.wbennett.TinyOS.tinyos-1.x.tos.sensorboards.CraneSensor100.branches.CraneSensor300.1.1.HighLevelTwiM.nc.html"];
    HighLevelTwi -> HighLevelTwiM [ style=dashed label="HighLevelTwiInterface" URL="Users.wbennett.TinyOS.tinyos-1.x.tos.sensorboards.CraneSensor100.branches.CraneSensor300.1.1.HighLevelTwiInterface.nc.html" ];
    HighLevelTwiM [URL="Users.wbennett.TinyOS.tinyos-1.x.tos.sensorboards.CraneSensor100.branches.CraneSensor300.1.1.HighLevelTwiM.nc.html"];
    LowLevelTwiM [URL="Users.wbennett.TinyOS.tinyos-1.x.tos.sensorboards.CraneSensor100.branches.CraneSensor300.1.1.LowLevelTwiM.nc.html"];
    HighLevelTwiM -> LowLevelTwiM [ label="LowLevelTwiInterface" URL="Users.wbennett.TinyOS.tinyos-1.x.tos.sensorboards.CraneSensor100.branches.CraneSensor300.1.1.LowLevelTwiInterface.nc.html" ];
}
